0:0:0:0:0:0:0:1 - - [02/Jun/2016:12:02:32 -0500] "GET /GameSpeed/Home.jsp HTTP/1.1" 302 -
0:0:0:0:0:0:0:1 - - [02/Jun/2016:12:02:32 -0500] "GET /GameSpeed/Login.jsp HTTP/1.1" 200 1206
0:0:0:0:0:0:0:1 - - [02/Jun/2016:12:02:51 -0500] "GET /ajax-my-app HTTP/1.1" 302 -
0:0:0:0:0:0:0:1 - - [02/Jun/2016:12:02:52 -0500] "GET /ajax-my-app/ HTTP/1.1" 200 1592
0:0:0:0:0:0:0:1 - - [02/Jun/2016:12:02:52 -0500] "GET /ajax-my-app/javascript.js HTTP/1.1" 200 3558
0:0:0:0:0:0:0:1 - - [02/Jun/2016:12:02:52 -0500] "GET /ajax-my-app/stylesheet.css HTTP/1.1" 200 803
0:0:0:0:0:0:0:1 - - [02/Jun/2016:12:02:54 -0500] "GET /ajax-my-app/autocomplete?action=complete&id=b HTTP/1.1" 200 843
0:0:0:0:0:0:0:1 - - [02/Jun/2016:12:02:56 -0500] "GET /ajax-my-app/autocomplete?action=complete&id= HTTP/1.1" 204 -
0:0:0:0:0:0:0:1 - - [02/Jun/2016:12:10:50 -0500] "GET /GameSpeed/Home.jsp HTTP/1.1" 302 -
0:0:0:0:0:0:0:1 - - [02/Jun/2016:12:10:50 -0500] "GET /GameSpeed/Login.jsp HTTP/1.1" 200 1206
0:0:0:0:0:0:0:1 - - [02/Jun/2016:12:10:52 -0500] "POST /GameSpeed/Login.jsp HTTP/1.1" 302 -
0:0:0:0:0:0:0:1 - - [02/Jun/2016:12:10:52 -0500] "GET /GameSpeed/Home.jsp HTTP/1.1" 200 4800
0:0:0:0:0:0:0:1 - - [02/Jun/2016:12:10:52 -0500] "GET /GameSpeed/autocomplete.js HTTP/1.1" 404 1001
0:0:0:0:0:0:0:1 - - [02/Jun/2016:12:13:52 -0500] "GET /GameSpeed/Home.jsp HTTP/1.1" 200 4901
0:0:0:0:0:0:0:1 - - [02/Jun/2016:12:13:52 -0500] "GET /GameSpeed/autocomplete.js HTTP/1.1" 404 1001
0:0:0:0:0:0:0:1 - - [02/Jun/2016:12:13:52 -0500] "GET /GameSpeed/images/site/GameON.jpg HTTP/1.1" 304 -
0:0:0:0:0:0:0:1 - - [02/Jun/2016:12:13:52 -0500] "GET /GameSpeed/style.css HTTP/1.1" 304 -
0:0:0:0:0:0:0:1 - - [02/Jun/2016:12:13:52 -0500] "GET /GameSpeed/images/consoles/PS4-console-bundle.jpg HTTP/1.1" 304 -
0:0:0:0:0:0:0:1 - - [02/Jun/2016:12:13:52 -0500] "GET /GameSpeed/images/site/consoles.png HTTP/1.1" 304 -
0:0:0:0:0:0:0:1 - - [02/Jun/2016:12:13:52 -0500] "GET /GameSpeed/images/consoles/xbox1.jpg HTTP/1.1" 304 -
0:0:0:0:0:0:0:1 - - [02/Jun/2016:12:13:52 -0500] "GET /GameSpeed/images/site/img03.jpg HTTP/1.1" 304 -
0:0:0:0:0:0:0:1 - - [02/Jun/2016:12:13:52 -0500] "GET /GameSpeed/images/site/img06.jpg HTTP/1.1" 304 -
0:0:0:0:0:0:0:1 - - [02/Jun/2016:12:13:52 -0500] "GET /GameSpeed/images/site/img04.jpg HTTP/1.1" 304 -
0:0:0:0:0:0:0:1 - - [02/Jun/2016:12:13:52 -0500] "GET /GameSpeed/images/site/img02.jpg HTTP/1.1" 304 -
0:0:0:0:0:0:0:1 - - [02/Jun/2016:12:13:52 -0500] "GET /GameSpeed/images/site/img07.jpg HTTP/1.1" 304 -
0:0:0:0:0:0:0:1 - - [02/Jun/2016:12:13:52 -0500] "GET /favicon.ico HTTP/1.1" 200 21630
0:0:0:0:0:0:0:1 - - [02/Jun/2016:12:14:29 -0500] "GET /GameSpeed/Home.jsp HTTP/1.1" 200 4899
0:0:0:0:0:0:0:1 - - [02/Jun/2016:12:14:29 -0500] "GET /GameSpeed/style.css HTTP/1.1" 304 -
0:0:0:0:0:0:0:1 - - [02/Jun/2016:12:14:29 -0500] "GET /GameSpeed/autocomplete.js HTTP/1.1" 404 1001
0:0:0:0:0:0:0:1 - - [02/Jun/2016:12:14:29 -0500] "GET /GameSpeed/images/site/GameON.jpg HTTP/1.1" 304 -
0:0:0:0:0:0:0:1 - - [02/Jun/2016:12:14:29 -0500] "GET /GameSpeed/images/consoles/PS4-console-bundle.jpg HTTP/1.1" 304 -
0:0:0:0:0:0:0:1 - - [02/Jun/2016:12:14:29 -0500] "GET /GameSpeed/images/site/consoles.png HTTP/1.1" 304 -
0:0:0:0:0:0:0:1 - - [02/Jun/2016:12:14:29 -0500] "GET /GameSpeed/images/consoles/xbox1.jpg HTTP/1.1" 304 -
0:0:0:0:0:0:0:1 - - [02/Jun/2016:12:14:29 -0500] "GET /GameSpeed/images/site/img03.jpg HTTP/1.1" 304 -
0:0:0:0:0:0:0:1 - - [02/Jun/2016:12:14:29 -0500] "GET /GameSpeed/images/site/img07.jpg HTTP/1.1" 304 -
0:0:0:0:0:0:0:1 - - [02/Jun/2016:12:14:29 -0500] "GET /GameSpeed/images/site/img06.jpg HTTP/1.1" 304 -
0:0:0:0:0:0:0:1 - - [02/Jun/2016:12:14:29 -0500] "GET /GameSpeed/images/site/img04.jpg HTTP/1.1" 304 -
0:0:0:0:0:0:0:1 - - [02/Jun/2016:12:14:29 -0500] "GET /GameSpeed/images/site/img02.jpg HTTP/1.1" 304 -
0:0:0:0:0:0:0:1 - - [02/Jun/2016:12:14:29 -0500] "GET /favicon.ico HTTP/1.1" 200 21630
0:0:0:0:0:0:0:1 - - [02/Jun/2016:12:14:31 -0500] "GET /GameSpeed/Home.jsp HTTP/1.1" 200 4899
0:0:0:0:0:0:0:1 - - [02/Jun/2016:12:14:31 -0500] "GET /GameSpeed/style.css HTTP/1.1" 304 -
0:0:0:0:0:0:0:1 - - [02/Jun/2016:12:14:31 -0500] "GET /GameSpeed/images/site/GameON.jpg HTTP/1.1" 304 -
0:0:0:0:0:0:0:1 - - [02/Jun/2016:12:14:31 -0500] "GET /GameSpeed/autocomplete.js HTTP/1.1" 404 1001
0:0:0:0:0:0:0:1 - - [02/Jun/2016:12:14:31 -0500] "GET /GameSpeed/images/consoles/PS4-console-bundle.jpg HTTP/1.1" 304 -
0:0:0:0:0:0:0:1 - - [02/Jun/2016:12:14:31 -0500] "GET /GameSpeed/images/site/consoles.png HTTP/1.1" 304 -
0:0:0:0:0:0:0:1 - - [02/Jun/2016:12:14:31 -0500] "GET /GameSpeed/images/consoles/xbox1.jpg HTTP/1.1" 304 -
0:0:0:0:0:0:0:1 - - [02/Jun/2016:12:14:31 -0500] "GET /GameSpeed/images/site/img03.jpg HTTP/1.1" 304 -
0:0:0:0:0:0:0:1 - - [02/Jun/2016:12:14:31 -0500] "GET /GameSpeed/images/site/img07.jpg HTTP/1.1" 304 -
0:0:0:0:0:0:0:1 - - [02/Jun/2016:12:14:31 -0500] "GET /GameSpeed/images/site/img06.jpg HTTP/1.1" 304 -
0:0:0:0:0:0:0:1 - - [02/Jun/2016:12:14:31 -0500] "GET /GameSpeed/images/site/img04.jpg HTTP/1.1" 304 -
0:0:0:0:0:0:0:1 - - [02/Jun/2016:12:14:31 -0500] "GET /GameSpeed/images/site/img02.jpg HTTP/1.1" 304 -
0:0:0:0:0:0:0:1 - - [02/Jun/2016:12:14:31 -0500] "GET /favicon.ico HTTP/1.1" 200 21630
0:0:0:0:0:0:0:1 - - [02/Jun/2016:12:16:00 -0500] "GET /GameSpeed/Home.jsp HTTP/1.1" 200 4888
0:0:0:0:0:0:0:1 - - [02/Jun/2016:12:16:00 -0500] "GET /GameSpeed/style.css HTTP/1.1" 304 -
0:0:0:0:0:0:0:1 - - [02/Jun/2016:12:16:00 -0500] "GET /GameSpeed/autocomplete.js HTTP/1.1" 404 1001
0:0:0:0:0:0:0:1 - - [02/Jun/2016:12:16:00 -0500] "GET /GameSpeed/images/site/GameON.jpg HTTP/1.1" 304 -
0:0:0:0:0:0:0:1 - - [02/Jun/2016:12:16:00 -0500] "GET /GameSpeed/images/consoles/PS4-console-bundle.jpg HTTP/1.1" 304 -
0:0:0:0:0:0:0:1 - - [02/Jun/2016:12:16:00 -0500] "GET /GameSpeed/images/site/consoles.png HTTP/1.1" 304 -
0:0:0:0:0:0:0:1 - - [02/Jun/2016:12:16:00 -0500] "GET /GameSpeed/images/consoles/xbox1.jpg HTTP/1.1" 304 -
0:0:0:0:0:0:0:1 - - [02/Jun/2016:12:16:00 -0500] "GET /GameSpeed/images/site/img03.jpg HTTP/1.1" 304 -
0:0:0:0:0:0:0:1 - - [02/Jun/2016:12:16:00 -0500] "GET /GameSpeed/images/site/img07.jpg HTTP/1.1" 304 -
0:0:0:0:0:0:0:1 - - [02/Jun/2016:12:16:00 -0500] "GET /GameSpeed/images/site/img06.jpg HTTP/1.1" 304 -
0:0:0:0:0:0:0:1 - - [02/Jun/2016:12:16:00 -0500] "GET /GameSpeed/images/site/img04.jpg HTTP/1.1" 304 -
0:0:0:0:0:0:0:1 - - [02/Jun/2016:12:16:00 -0500] "GET /GameSpeed/images/site/img02.jpg HTTP/1.1" 304 -
0:0:0:0:0:0:0:1 - - [02/Jun/2016:12:16:00 -0500] "GET /favicon.ico HTTP/1.1" 200 21630
0:0:0:0:0:0:0:1 - - [02/Jun/2016:12:16:16 -0500] "GET /GameSpeed/Home.jsp HTTP/1.1" 200 4881
0:0:0:0:0:0:0:1 - - [02/Jun/2016:12:16:16 -0500] "GET /GameSpeed/style.css HTTP/1.1" 304 -
0:0:0:0:0:0:0:1 - - [02/Jun/2016:12:16:16 -0500] "GET /GameSpeed/autocomplete.js HTTP/1.1" 404 1001
0:0:0:0:0:0:0:1 - - [02/Jun/2016:12:16:16 -0500] "GET /GameSpeed/images/site/GameON.jpg HTTP/1.1" 304 -
0:0:0:0:0:0:0:1 - - [02/Jun/2016:12:16:16 -0500] "GET /GameSpeed/images/consoles/PS4-console-bundle.jpg HTTP/1.1" 304 -
0:0:0:0:0:0:0:1 - - [02/Jun/2016:12:16:16 -0500] "GET /GameSpeed/images/site/consoles.png HTTP/1.1" 304 -
0:0:0:0:0:0:0:1 - - [02/Jun/2016:12:16:16 -0500] "GET /GameSpeed/images/consoles/xbox1.jpg HTTP/1.1" 304 -
0:0:0:0:0:0:0:1 - - [02/Jun/2016:12:16:16 -0500] "GET /GameSpeed/images/site/img03.jpg HTTP/1.1" 304 -
0:0:0:0:0:0:0:1 - - [02/Jun/2016:12:16:16 -0500] "GET /GameSpeed/images/site/img07.jpg HTTP/1.1" 304 -
0:0:0:0:0:0:0:1 - - [02/Jun/2016:12:16:16 -0500] "GET /GameSpeed/images/site/img06.jpg HTTP/1.1" 304 -
0:0:0:0:0:0:0:1 - - [02/Jun/2016:12:16:16 -0500] "GET /GameSpeed/images/site/img04.jpg HTTP/1.1" 304 -
0:0:0:0:0:0:0:1 - - [02/Jun/2016:12:16:16 -0500] "GET /GameSpeed/images/site/img02.jpg HTTP/1.1" 304 -
0:0:0:0:0:0:0:1 - - [02/Jun/2016:12:16:16 -0500] "GET /favicon.ico HTTP/1.1" 200 21630
0:0:0:0:0:0:0:1 - - [02/Jun/2016:12:17:09 -0500] "GET /GameSpeed/Home.jsp HTTP/1.1" 200 4885
0:0:0:0:0:0:0:1 - - [02/Jun/2016:12:17:09 -0500] "GET /GameSpeed/style.css HTTP/1.1" 304 -
0:0:0:0:0:0:0:1 - - [02/Jun/2016:12:17:09 -0500] "GET /GameSpeed/autocomplete.js HTTP/1.1" 404 1001
0:0:0:0:0:0:0:1 - - [02/Jun/2016:12:17:09 -0500] "GET /GameSpeed/images/site/GameON.jpg HTTP/1.1" 304 -
0:0:0:0:0:0:0:1 - - [02/Jun/2016:12:17:09 -0500] "GET /GameSpeed/images/consoles/PS4-console-bundle.jpg HTTP/1.1" 304 -
0:0:0:0:0:0:0:1 - - [02/Jun/2016:12:17:09 -0500] "GET /GameSpeed/images/site/consoles.png HTTP/1.1" 304 -
0:0:0:0:0:0:0:1 - - [02/Jun/2016:12:17:09 -0500] "GET /GameSpeed/images/consoles/xbox1.jpg HTTP/1.1" 304 -
0:0:0:0:0:0:0:1 - - [02/Jun/2016:12:17:09 -0500] "GET /GameSpeed/images/site/img03.jpg HTTP/1.1" 304 -
0:0:0:0:0:0:0:1 - - [02/Jun/2016:12:17:09 -0500] "GET /GameSpeed/images/site/img07.jpg HTTP/1.1" 304 -
0:0:0:0:0:0:0:1 - - [02/Jun/2016:12:17:09 -0500] "GET /GameSpeed/images/site/img06.jpg HTTP/1.1" 304 -
0:0:0:0:0:0:0:1 - - [02/Jun/2016:12:17:09 -0500] "GET /GameSpeed/images/site/img04.jpg HTTP/1.1" 304 -
0:0:0:0:0:0:0:1 - - [02/Jun/2016:12:17:09 -0500] "GET /GameSpeed/images/site/img02.jpg HTTP/1.1" 304 -
0:0:0:0:0:0:0:1 - - [02/Jun/2016:12:17:09 -0500] "GET /favicon.ico HTTP/1.1" 200 21630
0:0:0:0:0:0:0:1 - - [02/Jun/2016:12:20:52 -0500] "GET /GameSpeed/Home.jsp HTTP/1.1" 200 4995
0:0:0:0:0:0:0:1 - - [02/Jun/2016:12:20:52 -0500] "GET /GameSpeed/style.css HTTP/1.1" 304 -
0:0:0:0:0:0:0:1 - - [02/Jun/2016:12:20:52 -0500] "GET /GameSpeed/autocomplete.js HTTP/1.1" 404 1001
0:0:0:0:0:0:0:1 - - [02/Jun/2016:12:20:52 -0500] "GET /GameSpeed/images/site/GameON.jpg HTTP/1.1" 304 -
0:0:0:0:0:0:0:1 - - [02/Jun/2016:12:20:52 -0500] "GET /GameSpeed/images/consoles/PS4-console-bundle.jpg HTTP/1.1" 304 -
0:0:0:0:0:0:0:1 - - [02/Jun/2016:12:20:52 -0500] "GET /GameSpeed/images/site/consoles.png HTTP/1.1" 304 -
0:0:0:0:0:0:0:1 - - [02/Jun/2016:12:20:52 -0500] "GET /GameSpeed/images/consoles/xbox1.jpg HTTP/1.1" 304 -
0:0:0:0:0:0:0:1 - - [02/Jun/2016:12:20:52 -0500] "GET /GameSpeed/images/site/img03.jpg HTTP/1.1" 304 -
0:0:0:0:0:0:0:1 - - [02/Jun/2016:12:20:52 -0500] "GET /GameSpeed/images/site/img07.jpg HTTP/1.1" 304 -
0:0:0:0:0:0:0:1 - - [02/Jun/2016:12:20:52 -0500] "GET /GameSpeed/images/site/img06.jpg HTTP/1.1" 304 -
0:0:0:0:0:0:0:1 - - [02/Jun/2016:12:20:52 -0500] "GET /GameSpeed/images/site/img04.jpg HTTP/1.1" 304 -
0:0:0:0:0:0:0:1 - - [02/Jun/2016:12:20:52 -0500] "GET /GameSpeed/images/site/img02.jpg HTTP/1.1" 304 -
0:0:0:0:0:0:0:1 - - [02/Jun/2016:12:20:52 -0500] "GET /favicon.ico HTTP/1.1" 200 21630
0:0:0:0:0:0:0:1 - - [02/Jun/2016:13:12:39 -0500] "GET /GameSpeed/TabletList.jsp HTTP/1.1" 200 3128
0:0:0:0:0:0:0:1 - - [02/Jun/2016:13:12:39 -0500] "GET /GameSpeed/autocomplete.js HTTP/1.1" 404 1001
0:0:0:0:0:0:0:1 - - [02/Jun/2016:13:12:49 -0500] "GET /GameSpeed/ConsoleList.jsp HTTP/1.1" 200 8764
0:0:0:0:0:0:0:1 - - [02/Jun/2016:13:12:49 -0500] "GET /GameSpeed/autocomplete.js HTTP/1.1" 404 1001
0:0:0:0:0:0:0:1 - - [02/Jun/2016:13:12:50 -0500] "GET /GameSpeed/TabletList.jsp HTTP/1.1" 200 3128
0:0:0:0:0:0:0:1 - - [02/Jun/2016:13:12:50 -0500] "GET /GameSpeed/autocomplete.js HTTP/1.1" 404 1001
0:0:0:0:0:0:0:1 - - [02/Jun/2016:13:12:52 -0500] "GET /GameSpeed/ConsoleList.jsp HTTP/1.1" 200 8764
0:0:0:0:0:0:0:1 - - [02/Jun/2016:13:12:52 -0500] "GET /GameSpeed/autocomplete.js HTTP/1.1" 404 1001
0:0:0:0:0:0:0:1 - - [02/Jun/2016:13:12:52 -0500] "GET /GameSpeed/GamesList.jsp HTTP/1.1" 200 3129
0:0:0:0:0:0:0:1 - - [02/Jun/2016:13:12:52 -0500] "GET /GameSpeed/autocomplete.js HTTP/1.1" 404 1001
0:0:0:0:0:0:0:1 - - [02/Jun/2016:13:12:53 -0500] "GET /GameSpeed/ConsoleList.jsp HTTP/1.1" 200 8764
0:0:0:0:0:0:0:1 - - [02/Jun/2016:13:12:53 -0500] "GET /GameSpeed/autocomplete.js HTTP/1.1" 404 1001
0:0:0:0:0:0:0:1 - - [02/Jun/2016:13:12:54 -0500] "GET /GameSpeed/TabletList.jsp HTTP/1.1" 200 3128
0:0:0:0:0:0:0:1 - - [02/Jun/2016:13:12:54 -0500] "GET /GameSpeed/autocomplete.js HTTP/1.1" 404 1001
0:0:0:0:0:0:0:1 - - [02/Jun/2016:13:15:49 -0500] "GET /GameSpeed/ConsoleList.jsp HTTP/1.1" 200 8764
0:0:0:0:0:0:0:1 - - [02/Jun/2016:13:15:49 -0500] "GET /GameSpeed/autocomplete.js HTTP/1.1" 404 1001
0:0:0:0:0:0:0:1 - - [02/Jun/2016:13:15:50 -0500] "GET /GameSpeed/TabletList.jsp HTTP/1.1" 200 3128
0:0:0:0:0:0:0:1 - - [02/Jun/2016:13:15:50 -0500] "GET /GameSpeed/autocomplete.js HTTP/1.1" 404 1001
0:0:0:0:0:0:0:1 - - [02/Jun/2016:13:15:53 -0500] "GET /GameSpeed/ConsoleList.jsp HTTP/1.1" 200 8764
0:0:0:0:0:0:0:1 - - [02/Jun/2016:13:15:53 -0500] "GET /GameSpeed/autocomplete.js HTTP/1.1" 404 1001
0:0:0:0:0:0:0:1 - - [02/Jun/2016:13:15:55 -0500] "GET /GameSpeed/TabletList.jsp HTTP/1.1" 200 3128
0:0:0:0:0:0:0:1 - - [02/Jun/2016:13:15:55 -0500] "GET /GameSpeed/autocomplete.js HTTP/1.1" 404 1001
0:0:0:0:0:0:0:1 - - [02/Jun/2016:13:22:53 -0500] "GET /GameSpeed/Home.jsp HTTP/1.1" 302 -
0:0:0:0:0:0:0:1 - - [02/Jun/2016:13:22:53 -0500] "GET /GameSpeed/Login.jsp HTTP/1.1" 200 1206
0:0:0:0:0:0:0:1 - - [02/Jun/2016:13:22:54 -0500] "POST /GameSpeed/Login.jsp HTTP/1.1" 302 -
0:0:0:0:0:0:0:1 - - [02/Jun/2016:13:22:54 -0500] "GET /GameSpeed/Home.jsp HTTP/1.1" 200 4995
0:0:0:0:0:0:0:1 - - [02/Jun/2016:13:22:54 -0500] "GET /GameSpeed/autocomplete.js HTTP/1.1" 404 1001
0:0:0:0:0:0:0:1 - - [02/Jun/2016:13:22:55 -0500] "GET /GameSpeed/ConsoleList.jsp HTTP/1.1" 200 8764
0:0:0:0:0:0:0:1 - - [02/Jun/2016:13:22:55 -0500] "GET /GameSpeed/autocomplete.js HTTP/1.1" 404 1001
0:0:0:0:0:0:0:1 - - [02/Jun/2016:13:23:01 -0500] "GET /GameSpeed/TabletList.jsp HTTP/1.1" 200 3128
0:0:0:0:0:0:0:1 - - [02/Jun/2016:13:23:01 -0500] "GET /GameSpeed/autocomplete.js HTTP/1.1" 404 1001
0:0:0:0:0:0:0:1 - - [02/Jun/2016:13:23:02 -0500] "GET /GameSpeed/ConsoleList.jsp HTTP/1.1" 200 8764
0:0:0:0:0:0:0:1 - - [02/Jun/2016:13:23:02 -0500] "GET /GameSpeed/autocomplete.js HTTP/1.1" 404 1001
0:0:0:0:0:0:0:1 - - [02/Jun/2016:13:23:08 -0500] "GET /GameSpeed/TabletList.jsp HTTP/1.1" 200 3128
0:0:0:0:0:0:0:1 - - [02/Jun/2016:13:23:08 -0500] "GET /GameSpeed/autocomplete.js HTTP/1.1" 404 1001
0:0:0:0:0:0:0:1 - - [02/Jun/2016:13:24:49 -0500] "GET /GameSpeed/ConsoleList.jsp HTTP/1.1" 200 8764
0:0:0:0:0:0:0:1 - - [02/Jun/2016:13:24:49 -0500] "GET /GameSpeed/autocomplete.js HTTP/1.1" 404 1001
0:0:0:0:0:0:0:1 - - [02/Jun/2016:13:24:51 -0500] "GET /GameSpeed/TabletList.jsp HTTP/1.1" 200 3128
0:0:0:0:0:0:0:1 - - [02/Jun/2016:13:24:51 -0500] "GET /GameSpeed/autocomplete.js HTTP/1.1" 404 1001
0:0:0:0:0:0:0:1 - - [02/Jun/2016:13:25:17 -0500] "GET /GameSpeed/ConsoleList.jsp HTTP/1.1" 200 8764
0:0:0:0:0:0:0:1 - - [02/Jun/2016:13:25:17 -0500] "GET /GameSpeed/autocomplete.js HTTP/1.1" 404 1001
0:0:0:0:0:0:0:1 - - [02/Jun/2016:13:25:32 -0500] "GET /GameSpeed/ConsoleList.jsp HTTP/1.1" 200 8764
0:0:0:0:0:0:0:1 - - [02/Jun/2016:13:25:32 -0500] "GET /GameSpeed/autocomplete.js HTTP/1.1" 404 1001
0:0:0:0:0:0:0:1 - - [02/Jun/2016:13:26:41 -0500] "GET /GameSpeed/ConsoleList.jsp HTTP/1.1" 200 8764
0:0:0:0:0:0:0:1 - - [02/Jun/2016:13:26:41 -0500] "GET /GameSpeed/autocomplete.js HTTP/1.1" 404 1001
0:0:0:0:0:0:0:1 - - [02/Jun/2016:13:26:42 -0500] "GET /GameSpeed/TabletList.jsp HTTP/1.1" 200 3128
0:0:0:0:0:0:0:1 - - [02/Jun/2016:13:26:42 -0500] "GET /GameSpeed/autocomplete.js HTTP/1.1" 404 1001
0:0:0:0:0:0:0:1 - - [02/Jun/2016:13:26:42 -0500] "GET /GameSpeed/ConsoleList.jsp HTTP/1.1" 200 8764
0:0:0:0:0:0:0:1 - - [02/Jun/2016:13:26:42 -0500] "GET /GameSpeed/autocomplete.js HTTP/1.1" 404 1001
0:0:0:0:0:0:0:1 - - [02/Jun/2016:13:26:43 -0500] "GET /GameSpeed/TabletList.jsp HTTP/1.1" 200 3128
0:0:0:0:0:0:0:1 - - [02/Jun/2016:13:26:43 -0500] "GET /GameSpeed/autocomplete.js HTTP/1.1" 404 1001
0:0:0:0:0:0:0:1 - - [02/Jun/2016:13:26:44 -0500] "GET /GameSpeed/ConsoleList.jsp HTTP/1.1" 200 8764
0:0:0:0:0:0:0:1 - - [02/Jun/2016:13:26:44 -0500] "GET /GameSpeed/autocomplete.js HTTP/1.1" 404 1001
0:0:0:0:0:0:0:1 - - [02/Jun/2016:13:26:57 -0500] "GET /GameSpeed/TabletList.jsp HTTP/1.1" 200 3128
0:0:0:0:0:0:0:1 - - [02/Jun/2016:13:26:57 -0500] "GET /GameSpeed/autocomplete.js HTTP/1.1" 404 1001
0:0:0:0:0:0:0:1 - - [02/Jun/2016:13:26:58 -0500] "GET /GameSpeed/ConsoleList.jsp HTTP/1.1" 200 8764
0:0:0:0:0:0:0:1 - - [02/Jun/2016:13:26:58 -0500] "GET /GameSpeed/autocomplete.js HTTP/1.1" 404 1001
0:0:0:0:0:0:0:1 - - [02/Jun/2016:13:29:10 -0500] "GET /GameSpeed/TabletList.jsp HTTP/1.1" 200 3128
0:0:0:0:0:0:0:1 - - [02/Jun/2016:13:29:10 -0500] "GET /GameSpeed/autocomplete.js HTTP/1.1" 404 1001
0:0:0:0:0:0:0:1 - - [02/Jun/2016:13:29:22 -0500] "GET /GameSpeed/ConsoleList.jsp HTTP/1.1" 200 8764
0:0:0:0:0:0:0:1 - - [02/Jun/2016:13:29:22 -0500] "GET /GameSpeed/autocomplete.js HTTP/1.1" 404 1001
0:0:0:0:0:0:0:1 - - [02/Jun/2016:13:29:46 -0500] "GET /GameSpeed/TabletList.jsp HTTP/1.1" 200 3128
0:0:0:0:0:0:0:1 - - [02/Jun/2016:13:29:46 -0500] "GET /GameSpeed/autocomplete.js HTTP/1.1" 404 1001
0:0:0:0:0:0:0:1 - - [02/Jun/2016:13:31:53 -0500] "GET /GameSpeed/Home.jsp HTTP/1.1" 200 4995
0:0:0:0:0:0:0:1 - - [02/Jun/2016:13:31:53 -0500] "GET /GameSpeed/autocomplete.js HTTP/1.1" 404 1001
0:0:0:0:0:0:0:1 - - [02/Jun/2016:13:31:55 -0500] "GET /GameSpeed/ConsoleList.jsp HTTP/1.1" 200 8764
0:0:0:0:0:0:0:1 - - [02/Jun/2016:13:31:55 -0500] "GET /GameSpeed/autocomplete.js HTTP/1.1" 404 1001
0:0:0:0:0:0:0:1 - - [02/Jun/2016:13:31:56 -0500] "GET /GameSpeed/TabletList.jsp HTTP/1.1" 200 3128
0:0:0:0:0:0:0:1 - - [02/Jun/2016:13:31:56 -0500] "GET /GameSpeed/autocomplete.js HTTP/1.1" 404 1001
0:0:0:0:0:0:0:1 - - [02/Jun/2016:13:34:32 -0500] "GET /GameSpeed/ConsoleList.jsp HTTP/1.1" 200 8764
0:0:0:0:0:0:0:1 - - [02/Jun/2016:13:34:32 -0500] "GET /GameSpeed/autocomplete.js HTTP/1.1" 404 1001
0:0:0:0:0:0:0:1 - - [02/Jun/2016:13:34:33 -0500] "GET /GameSpeed/TabletList.jsp HTTP/1.1" 200 3128
0:0:0:0:0:0:0:1 - - [02/Jun/2016:13:34:33 -0500] "GET /GameSpeed/autocomplete.js HTTP/1.1" 404 1001
0:0:0:0:0:0:0:1 - - [02/Jun/2016:13:36:18 -0500] "GET /GameSpeed/ConsoleList.jsp HTTP/1.1" 200 8764
0:0:0:0:0:0:0:1 - - [02/Jun/2016:13:36:18 -0500] "GET /GameSpeed/autocomplete.js HTTP/1.1" 404 1001
0:0:0:0:0:0:0:1 - - [02/Jun/2016:13:36:19 -0500] "GET /GameSpeed/TabletList.jsp HTTP/1.1" 500 2516
0:0:0:0:0:0:0:1 - - [02/Jun/2016:13:37:34 -0500] "GET /GameSpeed/TabletList.jsp HTTP/1.1" 500 2516
0:0:0:0:0:0:0:1 - - [02/Jun/2016:13:37:36 -0500] "GET /GameSpeed/ConsoleList.jsp HTTP/1.1" 200 8764
0:0:0:0:0:0:0:1 - - [02/Jun/2016:13:37:36 -0500] "GET /GameSpeed/autocomplete.js HTTP/1.1" 404 1001
0:0:0:0:0:0:0:1 - - [02/Jun/2016:13:37:37 -0500] "GET /GameSpeed/TabletList.jsp HTTP/1.1" 200 3128
0:0:0:0:0:0:0:1 - - [02/Jun/2016:13:37:37 -0500] "GET /GameSpeed/autocomplete.js HTTP/1.1" 404 1001
0:0:0:0:0:0:0:1 - - [02/Jun/2016:13:37:39 -0500] "GET /GameSpeed/TabletList.jsp HTTP/1.1" 500 2516
0:0:0:0:0:0:0:1 - - [02/Jun/2016:13:38:38 -0500] "GET /GameSpeed/Home.jsp HTTP/1.1" 200 4995
0:0:0:0:0:0:0:1 - - [02/Jun/2016:13:38:38 -0500] "GET /GameSpeed/autocomplete.js HTTP/1.1" 404 1001
0:0:0:0:0:0:0:1 - - [02/Jun/2016:13:38:39 -0500] "GET /GameSpeed/ConsoleList.jsp HTTP/1.1" 200 8764
0:0:0:0:0:0:0:1 - - [02/Jun/2016:13:38:39 -0500] "GET /GameSpeed/autocomplete.js HTTP/1.1" 404 1001
0:0:0:0:0:0:0:1 - - [02/Jun/2016:13:38:41 -0500] "GET /GameSpeed/TabletList.jsp HTTP/1.1" 500 2516
0:0:0:0:0:0:0:1 - - [02/Jun/2016:13:39:40 -0500] "GET /GameSpeed/TabletList.jsp?maker=apple HTTP/1.1" 500 2516
0:0:0:0:0:0:0:1 - - [02/Jun/2016:13:41:07 -0500] "GET /GameSpeed/TabletList.jsp HTTP/1.1" 200 5749
0:0:0:0:0:0:0:1 - - [02/Jun/2016:13:41:07 -0500] "GET /GameSpeed/autocomplete.js HTTP/1.1" 404 1001
0:0:0:0:0:0:0:1 - - [02/Jun/2016:13:41:07 -0500] "GET /GameSpeed/images/tablets/samsungs2.jpg HTTP/1.1" 200 7500
0:0:0:0:0:0:0:1 - - [02/Jun/2016:13:41:07 -0500] "GET /GameSpeed/images/tablets/surface.jpg HTTP/1.1" 200 45557
0:0:0:0:0:0:0:1 - - [02/Jun/2016:13:41:07 -0500] "GET /GameSpeed/images/tablets/ipad.jpg HTTP/1.1" 200 10426
0:0:0:0:0:0:0:1 - - [02/Jun/2016:14:26:31 -0500] "GET /ajax-my-app HTTP/1.1" 302 -
0:0:0:0:0:0:0:1 - - [02/Jun/2016:14:26:31 -0500] "GET /ajax-my-app/ HTTP/1.1" 200 1592
0:0:0:0:0:0:0:1 - - [02/Jun/2016:14:32:33 -0500] "GET /GameSpeed/Home.jsp HTTP/1.1" 302 -
0:0:0:0:0:0:0:1 - - [02/Jun/2016:14:32:33 -0500] "GET /GameSpeed/Login.jsp HTTP/1.1" 200 1206
0:0:0:0:0:0:0:1 - - [02/Jun/2016:14:32:34 -0500] "POST /GameSpeed/Login.jsp HTTP/1.1" 302 -
0:0:0:0:0:0:0:1 - - [02/Jun/2016:14:32:34 -0500] "GET /GameSpeed/Home.jsp HTTP/1.1" 200 5152
0:0:0:0:0:0:0:1 - - [02/Jun/2016:14:32:34 -0500] "GET /GameSpeed/stylesheet.css HTTP/1.1" 404 999
0:0:0:0:0:0:0:1 - - [02/Jun/2016:14:32:34 -0500] "GET /GameSpeed/javascript.js HTTP/1.1" 200 3465
0:0:0:0:0:0:0:1 - - [02/Jun/2016:14:32:34 -0500] "GET /GameSpeed/autocomplete.js HTTP/1.1" 404 1001
0:0:0:0:0:0:0:1 - - [02/Jun/2016:14:32:37 -0500] "GET /GameSpeed/autocomplete?action=complete&id=s HTTP/1.1" 404 995
0:0:0:0:0:0:0:1 - - [02/Jun/2016:14:32:37 -0500] "GET /GameSpeed/autocomplete?action=complete&id=sd HTTP/1.1" 404 995
0:0:0:0:0:0:0:1 - - [02/Jun/2016:14:32:38 -0500] "GET /GameSpeed/autocomplete?action=complete&id=sdsa HTTP/1.1" 404 995
0:0:0:0:0:0:0:1 - - [02/Jun/2016:14:32:38 -0500] "GET /GameSpeed/autocomplete?action=complete&id=sdsad HTTP/1.1" 404 995
0:0:0:0:0:0:0:1 - - [02/Jun/2016:14:32:38 -0500] "GET /GameSpeed/autocomplete?action=complete&id=sdsada HTTP/1.1" 404 995
0:0:0:0:0:0:0:1 - - [02/Jun/2016:14:32:38 -0500] "GET /GameSpeed/autocomplete?action=complete&id=sdsada HTTP/1.1" 404 995
0:0:0:0:0:0:0:1 - - [02/Jun/2016:14:32:39 -0500] "GET /GameSpeed/autocomplete?complete-field=sdsada HTTP/1.1" 404 995
0:0:0:0:0:0:0:1 - - [02/Jun/2016:14:32:43 -0500] "GET /GameSpeed/stylesheet.css HTTP/1.1" 404 999
0:0:0:0:0:0:0:1 - - [02/Jun/2016:14:32:45 -0500] "GET /GameSpeed/autocomplete?action=complete&id= HTTP/1.1" 404 995
0:0:0:0:0:0:0:1 - - [02/Jun/2016:14:32:45 -0500] "GET /GameSpeed/autocomplete?action=complete&id= HTTP/1.1" 404 995
0:0:0:0:0:0:0:1 - - [02/Jun/2016:15:19:31 -0500] "GET /GameSpeed/autocomplete?action=complete&id=c HTTP/1.1" 500 3160
0:0:0:0:0:0:0:1 - - [02/Jun/2016:15:19:32 -0500] "GET /GameSpeed/autocomplete?action=complete&id=ci HTTP/1.1" 404 949
0:0:0:0:0:0:0:1 - - [02/Jun/2016:15:19:33 -0500] "GET /GameSpeed/autocomplete?action=complete&id=c HTTP/1.1" 404 949
0:0:0:0:0:0:0:1 - - [02/Jun/2016:15:19:34 -0500] "GET /GameSpeed/autocomplete?complete-field=c%27 HTTP/1.1" 404 949
0:0:0:0:0:0:0:1 - - [02/Jun/2016:15:19:42 -0500] "GET /GameSpeed/autocomplete?action=complete&id=c HTTP/1.1" 404 949
0:0:0:0:0:0:0:1 - - [02/Jun/2016:15:19:49 -0500] "GET /GameSpeed/ConsoleList.jsp HTTP/1.1" 200 8764
0:0:0:0:0:0:0:1 - - [02/Jun/2016:15:19:49 -0500] "GET /GameSpeed/autocomplete.js HTTP/1.1" 404 1001
0:0:0:0:0:0:0:1 - - [02/Jun/2016:15:20:08 -0500] "GET /GameSpeed/Home.jsp HTTP/1.1" 302 -
0:0:0:0:0:0:0:1 - - [02/Jun/2016:15:20:08 -0500] "GET /GameSpeed/Login.jsp HTTP/1.1" 200 1206
0:0:0:0:0:0:0:1 - - [02/Jun/2016:15:20:09 -0500] "POST /GameSpeed/Login.jsp HTTP/1.1" 302 -
0:0:0:0:0:0:0:1 - - [02/Jun/2016:15:20:09 -0500] "GET /GameSpeed/Home.jsp HTTP/1.1" 200 5152
0:0:0:0:0:0:0:1 - - [02/Jun/2016:15:20:09 -0500] "GET /GameSpeed/stylesheet.css HTTP/1.1" 404 999
0:0:0:0:0:0:0:1 - - [02/Jun/2016:15:20:09 -0500] "GET /GameSpeed/autocomplete.js HTTP/1.1" 404 1001
0:0:0:0:0:0:0:1 - - [02/Jun/2016:15:20:09 -0500] "GET /GameSpeed/javascript.js HTTP/1.1" 200 3478
0:0:0:0:0:0:0:1 - - [02/Jun/2016:15:20:11 -0500] "GET /GameSpeed/ConsoleList.jsp HTTP/1.1" 200 8764
0:0:0:0:0:0:0:1 - - [02/Jun/2016:15:20:11 -0500] "GET /GameSpeed/autocomplete.js HTTP/1.1" 404 1001
0:0:0:0:0:0:0:1 - - [02/Jun/2016:15:20:12 -0500] "GET /GameSpeed/Home.jsp HTTP/1.1" 200 5152
0:0:0:0:0:0:0:1 - - [02/Jun/2016:15:20:12 -0500] "GET /GameSpeed/stylesheet.css HTTP/1.1" 404 999
0:0:0:0:0:0:0:1 - - [02/Jun/2016:15:20:12 -0500] "GET /GameSpeed/autocomplete.js HTTP/1.1" 404 1001
0:0:0:0:0:0:0:1 - - [02/Jun/2016:15:20:14 -0500] "GET /GameSpeed/autocomplete?action=complete&id=X HTTP/1.1" 404 949
0:0:0:0:0:0:0:1 - - [02/Jun/2016:15:20:14 -0500] "GET /GameSpeed/autocomplete?action=complete&id=XB HTTP/1.1" 404 949
0:0:0:0:0:0:0:1 - - [02/Jun/2016:15:20:14 -0500] "GET /GameSpeed/autocomplete?action=complete&id=XBX HTTP/1.1" 404 949
0:0:0:0:0:0:0:1 - - [02/Jun/2016:15:20:15 -0500] "GET /GameSpeed/autocomplete?action=complete&id=XB HTTP/1.1" 404 949
0:0:0:0:0:0:0:1 - - [02/Jun/2016:15:20:15 -0500] "GET /GameSpeed/autocomplete?action=complete&id=XBO HTTP/1.1" 404 949
0:0:0:0:0:0:0:1 - - [02/Jun/2016:15:20:15 -0500] "GET /GameSpeed/autocomplete?action=complete&id=XBOX HTTP/1.1" 404 949
0:0:0:0:0:0:0:1 - - [02/Jun/2016:15:20:15 -0500] "GET /GameSpeed/autocomplete?action=complete&id=XBOX HTTP/1.1" 404 949
0:0:0:0:0:0:0:1 - - [02/Jun/2016:15:20:16 -0500] "GET /GameSpeed/autocomplete?action=complete&id=XBOX1 HTTP/1.1" 404 949
0:0:0:0:0:0:0:1 - - [02/Jun/2016:15:20:17 -0500] "GET /GameSpeed/autocomplete?complete-field=XBOX1 HTTP/1.1" 404 949
0:0:0:0:0:0:0:1 - - [02/Jun/2016:15:21:16 -0500] "GET /ajax-my-app HTTP/1.1" 302 -
0:0:0:0:0:0:0:1 - - [02/Jun/2016:15:21:16 -0500] "GET /ajax-my-app/ HTTP/1.1" 200 1592
0:0:0:0:0:0:0:1 - - [02/Jun/2016:15:21:17 -0500] "GET /ajax-my-app/autocomplete?action=complete&id=s HTTP/1.1" 200 1025
0:0:0:0:0:0:0:1 - - [02/Jun/2016:15:21:20 -0500] "GET /ajax-my-app/autocomplete?action=lookup&id=47 HTTP/1.1" 200 681
0:0:0:0:0:0:0:1 - - [02/Jun/2016:15:24:48 -0500] "GET /GameSpeed/autocomplete?complete-field=XBOX1 HTTP/1.1" 404 949
0:0:0:0:0:0:0:1 - - [02/Jun/2016:15:25:37 -0500] "GET /GameSpeed/Login.jsp HTTP/1.1" 200 1206
0:0:0:0:0:0:0:1 - - [02/Jun/2016:15:25:39 -0500] "POST /GameSpeed/Login.jsp HTTP/1.1" 302 -
0:0:0:0:0:0:0:1 - - [02/Jun/2016:15:25:39 -0500] "GET /GameSpeed/Home.jsp HTTP/1.1" 200 5152
0:0:0:0:0:0:0:1 - - [02/Jun/2016:15:25:39 -0500] "GET /GameSpeed/javascript.js HTTP/1.1" 304 -
0:0:0:0:0:0:0:1 - - [02/Jun/2016:15:25:39 -0500] "GET /GameSpeed/stylesheet.css HTTP/1.1" 404 999
0:0:0:0:0:0:0:1 - - [02/Jun/2016:15:25:39 -0500] "GET /GameSpeed/autocomplete.js HTTP/1.1" 404 1001
0:0:0:0:0:0:0:1 - - [02/Jun/2016:15:25:41 -0500] "GET /GameSpeed/autocomplete?action=complete&id=x HTTP/1.1" 404 995
0:0:0:0:0:0:0:1 - - [02/Jun/2016:15:25:41 -0500] "GET /GameSpeed/autocomplete?action=complete&id=xb HTTP/1.1" 404 995
0:0:0:0:0:0:0:1 - - [02/Jun/2016:15:25:41 -0500] "GET /GameSpeed/autocomplete?action=complete&id=xbo HTTP/1.1" 404 995
0:0:0:0:0:0:0:1 - - [02/Jun/2016:15:25:42 -0500] "GET /GameSpeed/autocomplete?action=complete&id=xbox HTTP/1.1" 404 995
0:0:0:0:0:0:0:1 - - [02/Jun/2016:15:25:43 -0500] "GET /GameSpeed/autocomplete?complete-field=XBOX1 HTTP/1.1" 404 995
0:0:0:0:0:0:0:1 - - [02/Jun/2016:15:27:15 -0500] "GET /GameSpeed/autocomplete?complete-field=XBOX1 HTTP/1.1" 404 949
0:0:0:0:0:0:0:1 - - [02/Jun/2016:15:29:43 -0500] "GET /GameSpeed/autocomplete?action=complete&id=XBO HTTP/1.1" 500 3160
0:0:0:0:0:0:0:1 - - [02/Jun/2016:15:29:43 -0500] "GET /GameSpeed/autocomplete?action=complete&id=XB HTTP/1.1" 500 3160
0:0:0:0:0:0:0:1 - - [02/Jun/2016:15:29:43 -0500] "GET /GameSpeed/autocomplete?action=complete&id=XBOX HTTP/1.1" 500 3160
0:0:0:0:0:0:0:1 - - [02/Jun/2016:15:29:43 -0500] "GET /GameSpeed/autocomplete?action=complete&id=X HTTP/1.1" 500 3160
0:0:0:0:0:0:0:1 - - [02/Jun/2016:15:29:43 -0500] "GET /GameSpeed/autocomplete?action=complete&id= HTTP/1.1" 404 949
0:0:0:0:0:0:0:1 - - [02/Jun/2016:15:29:43 -0500] "GET /GameSpeed/autocomplete?action=complete&id= HTTP/1.1" 404 949
0:0:0:0:0:0:0:1 - - [02/Jun/2016:15:29:45 -0500] "GET /GameSpeed/autocomplete?action=complete&id=p HTTP/1.1" 404 949
0:0:0:0:0:0:0:1 - - [02/Jun/2016:15:29:45 -0500] "GET /GameSpeed/autocomplete?action=complete&id=pl HTTP/1.1" 404 949
0:0:0:0:0:0:0:1 - - [02/Jun/2016:15:29:45 -0500] "GET /GameSpeed/autocomplete?action=complete&id=pla HTTP/1.1" 404 949
0:0:0:0:0:0:0:1 - - [02/Jun/2016:15:29:47 -0500] "GET /GameSpeed/autocomplete?complete-field=pla HTTP/1.1" 404 949
0:0:0:0:0:0:0:1 - - [02/Jun/2016:15:30:06 -0500] "GET /GameSpeed/autocomplete?action=complete&id=pl HTTP/1.1" 404 949
0:0:0:0:0:0:0:1 - - [02/Jun/2016:15:30:06 -0500] "GET /GameSpeed/autocomplete?action=complete&id=p HTTP/1.1" 404 949
0:0:0:0:0:0:0:1 - - [02/Jun/2016:15:30:06 -0500] "GET /GameSpeed/autocomplete?action=complete&id= HTTP/1.1" 404 949
0:0:0:0:0:0:0:1 - - [02/Jun/2016:15:30:06 -0500] "GET /GameSpeed/autocomplete?action=complete&id= HTTP/1.1" 404 949
0:0:0:0:0:0:0:1 - - [02/Jun/2016:15:30:07 -0500] "GET /GameSpeed/autocomplete?action=complete&id=0 HTTP/1.1" 404 949
0:0:0:0:0:0:0:1 - - [02/Jun/2016:15:30:07 -0500] "GET /GameSpeed/autocomplete?action=complete&id=01 HTTP/1.1" 404 949
0:0:0:0:0:0:0:1 - - [02/Jun/2016:15:30:08 -0500] "GET /GameSpeed/autocomplete?complete-field=01 HTTP/1.1" 404 949
0:0:0:0:0:0:0:1 - - [02/Jun/2016:15:31:12 -0500] "GET /GameSpeed/autocomplete?action=complete&id=0 HTTP/1.1" 404 949
0:0:0:0:0:0:0:1 - - [02/Jun/2016:15:31:12 -0500] "GET /GameSpeed/autocomplete?action=complete&id=as HTTP/1.1" 404 949
0:0:0:0:0:0:0:1 - - [02/Jun/2016:15:31:12 -0500] "GET /GameSpeed/autocomplete?action=complete&id=asdf HTTP/1.1" 404 949
0:0:0:0:0:0:0:1 - - [02/Jun/2016:15:31:12 -0500] "GET /GameSpeed/autocomplete?action=complete&id=asdf HTTP/1.1" 404 949
0:0:0:0:0:0:0:1 - - [02/Jun/2016:15:31:12 -0500] "GET /GameSpeed/autocomplete?action=complete&id=asdf HTTP/1.1" 404 949
0:0:0:0:0:0:0:1 - - [02/Jun/2016:15:31:12 -0500] "GET /GameSpeed/autocomplete?action=complete&id=asdf HTTP/1.1" 404 949
0:0:0:0:0:0:0:1 - - [02/Jun/2016:15:31:13 -0500] "GET /GameSpeed/autocomplete?complete-field=asdf HTTP/1.1" 404 949
0:0:0:0:0:0:0:1 - - [02/Jun/2016:15:36:29 -0500] "GET /GameSpeed/Home.jsp HTTP/1.1" 200 5152
0:0:0:0:0:0:0:1 - - [02/Jun/2016:15:36:29 -0500] "GET /GameSpeed/stylesheet.css HTTP/1.1" 404 999
0:0:0:0:0:0:0:1 - - [02/Jun/2016:15:36:29 -0500] "GET /GameSpeed/autocomplete.js HTTP/1.1" 404 1001
0:0:0:0:0:0:0:1 - - [02/Jun/2016:15:36:29 -0500] "GET /GameSpeed/javascript.js HTTP/1.1" 304 -
0:0:0:0:0:0:0:1 - - [02/Jun/2016:15:36:30 -0500] "GET /GameSpeed/Home.jsp HTTP/1.1" 200 5152
0:0:0:0:0:0:0:1 - - [02/Jun/2016:15:36:30 -0500] "GET /GameSpeed/stylesheet.css HTTP/1.1" 404 999
0:0:0:0:0:0:0:1 - - [02/Jun/2016:15:36:30 -0500] "GET /GameSpeed/autocomplete.js HTTP/1.1" 404 1001
0:0:0:0:0:0:0:1 - - [02/Jun/2016:15:36:32 -0500] "GET /GameSpeed/autocomplete?action=complete&id=s HTTP/1.1" 404 949
0:0:0:0:0:0:0:1 - - [02/Jun/2016:15:36:33 -0500] "GET /GameSpeed/autocomplete?action=complete&id=sd HTTP/1.1" 404 949
0:0:0:0:0:0:0:1 - - [02/Jun/2016:15:36:35 -0500] "GET /GameSpeed/autocomplete?action=complete&id=x HTTP/1.1" 404 949
0:0:0:0:0:0:0:1 - - [02/Jun/2016:15:36:35 -0500] "GET /GameSpeed/autocomplete?complete-field=x HTTP/1.1" 404 949
0:0:0:0:0:0:0:1 - - [02/Jun/2016:15:38:49 -0500] "GET /GameSpeed/autocomplete?complete-field=x HTTP/1.1" 404 949
0:0:0:0:0:0:0:1 - - [02/Jun/2016:15:38:52 -0500] "GET /GameSpeed/ConsoleList.jsp HTTP/1.1" 200 8764
0:0:0:0:0:0:0:1 - - [02/Jun/2016:15:38:52 -0500] "GET /GameSpeed/autocomplete.js HTTP/1.1" 404 1001
0:0:0:0:0:0:0:1 - - [02/Jun/2016:15:38:53 -0500] "GET /GameSpeed/Home.jsp HTTP/1.1" 200 5150
0:0:0:0:0:0:0:1 - - [02/Jun/2016:15:38:53 -0500] "GET /GameSpeed/autocomplete.js HTTP/1.1" 404 1001
0:0:0:0:0:0:0:1 - - [02/Jun/2016:15:38:53 -0500] "GET /GameSpeed/stylesheet.css HTTP/1.1" 404 999
0:0:0:0:0:0:0:1 - - [02/Jun/2016:15:38:54 -0500] "GET /GameSpeed/autocomplete?action=complete&id=x HTTP/1.1" 404 949
0:0:0:0:0:0:0:1 - - [02/Jun/2016:15:38:56 -0500] "GET /GameSpeed/AutoComplete?complete-field=XBOX1 HTTP/1.1" 404 995
0:0:0:0:0:0:0:1 - - [02/Jun/2016:15:39:47 -0500] "GET /GameSpeed/AutoComplete?complete-field=XBOX1 HTTP/1.1" 404 995
0:0:0:0:0:0:0:1 - - [02/Jun/2016:15:39:50 -0500] "GET /GameSpeed/Home.jsp HTTP/1.1" 200 5157
0:0:0:0:0:0:0:1 - - [02/Jun/2016:15:39:50 -0500] "GET /GameSpeed/stylesheet.css HTTP/1.1" 404 999
0:0:0:0:0:0:0:1 - - [02/Jun/2016:15:39:50 -0500] "GET /GameSpeed/autocomplete.js HTTP/1.1" 404 1001
0:0:0:0:0:0:0:1 - - [02/Jun/2016:15:39:51 -0500] "GET /GameSpeed/Home.jsp HTTP/1.1" 200 5157
0:0:0:0:0:0:0:1 - - [02/Jun/2016:15:39:51 -0500] "GET /GameSpeed/autocomplete.js HTTP/1.1" 404 1001
0:0:0:0:0:0:0:1 - - [02/Jun/2016:15:39:51 -0500] "GET /GameSpeed/stylesheet.css HTTP/1.1" 404 999
0:0:0:0:0:0:0:1 - - [02/Jun/2016:15:39:52 -0500] "GET /GameSpeed/GameList.jsp HTTP/1.1" 500 4803
0:0:0:0:0:0:0:1 - - [02/Jun/2016:15:39:54 -0500] "GET /GameSpeed/ConsoleList.jsp HTTP/1.1" 200 8764
0:0:0:0:0:0:0:1 - - [02/Jun/2016:15:39:54 -0500] "GET /GameSpeed/autocomplete.js HTTP/1.1" 404 1001
0:0:0:0:0:0:0:1 - - [02/Jun/2016:15:39:54 -0500] "GET /GameSpeed/Home.jsp HTTP/1.1" 200 5157
0:0:0:0:0:0:0:1 - - [02/Jun/2016:15:39:54 -0500] "GET /GameSpeed/stylesheet.css HTTP/1.1" 404 999
0:0:0:0:0:0:0:1 - - [02/Jun/2016:15:39:54 -0500] "GET /GameSpeed/autocomplete.js HTTP/1.1" 404 1001
0:0:0:0:0:0:0:1 - - [02/Jun/2016:15:39:54 -0500] "GET /GameSpeed/javascript.js HTTP/1.1" 304 -
0:0:0:0:0:0:0:1 - - [02/Jun/2016:15:39:57 -0500] "GET /GameSpeed/autocomplete?action=complete&id=X HTTP/1.1" 404 995
0:0:0:0:0:0:0:1 - - [02/Jun/2016:15:39:57 -0500] "GET /GameSpeed/autocomplete?action=complete&id=XB HTTP/1.1" 404 995
0:0:0:0:0:0:0:1 - - [02/Jun/2016:15:39:57 -0500] "GET /GameSpeed/autocomplete?action=complete&id=XB HTTP/1.1" 404 995
0:0:0:0:0:0:0:1 - - [02/Jun/2016:15:39:58 -0500] "GET /GameSpeed/autocomplete?action=complete&id=XB HTTP/1.1" 404 995
0:0:0:0:0:0:0:1 - - [02/Jun/2016:15:39:59 -0500] "GET /GameSpeed/autocomplete?action=complete&id=XBOX1 HTTP/1.1" 404 995
0:0:0:0:0:0:0:1 - - [02/Jun/2016:15:40:01 -0500] "GET /GameSpeed/AutoCompleteServlet?complete-field=XBOX1 HTTP/1.1" 500 3160
0:0:0:0:0:0:0:1 - - [02/Jun/2016:15:41:07 -0500] "GET /GameSpeed/AutoCompleteServlet?complete-field=XBOX1 HTTP/1.1" 500 1357
0:0:0:0:0:0:0:1 - - [02/Jun/2016:15:45:19 -0500] "GET /GameSpeed/ConsoleList.jsp HTTP/1.1" 200 8764
0:0:0:0:0:0:0:1 - - [02/Jun/2016:15:45:19 -0500] "GET /GameSpeed/autocomplete.js HTTP/1.1" 404 1001
0:0:0:0:0:0:0:1 - - [02/Jun/2016:15:45:20 -0500] "GET /GameSpeed/Home.jsp HTTP/1.1" 200 5157
0:0:0:0:0:0:0:1 - - [02/Jun/2016:15:45:20 -0500] "GET /GameSpeed/stylesheet.css HTTP/1.1" 404 999
0:0:0:0:0:0:0:1 - - [02/Jun/2016:15:45:20 -0500] "GET /GameSpeed/autocomplete.js HTTP/1.1" 404 1001
0:0:0:0:0:0:0:1 - - [02/Jun/2016:15:45:20 -0500] "GET /GameSpeed/javascript.js HTTP/1.1" 200 3485
0:0:0:0:0:0:0:1 - - [02/Jun/2016:15:45:21 -0500] "GET /GameSpeed/AutoCompleteServlet?action=complete&id=X HTTP/1.1" 200 181
0:0:0:0:0:0:0:1 - - [02/Jun/2016:15:45:22 -0500] "GET /GameSpeed/AutoCompleteServlet?action=complete&id=XB HTTP/1.1" 200 181
0:0:0:0:0:0:0:1 - - [02/Jun/2016:15:45:22 -0500] "GET /GameSpeed/AutoCompleteServlet?action=complete&id=XBOX HTTP/1.1" 200 181
0:0:0:0:0:0:0:1 - - [02/Jun/2016:15:45:22 -0500] "GET /GameSpeed/AutoCompleteServlet?action=complete&id=XBOX HTTP/1.1" 200 181
0:0:0:0:0:0:0:1 - - [02/Jun/2016:15:45:22 -0500] "GET /GameSpeed/AutoCompleteServlet?action=complete&id=XBOX HTTP/1.1" 200 181
0:0:0:0:0:0:0:1 - - [02/Jun/2016:15:45:23 -0500] "GET /GameSpeed/AutoCompleteServlet?action=complete&id=XBOX1 HTTP/1.1" 200 100
0:0:0:0:0:0:0:1 - - [02/Jun/2016:15:45:23 -0500] "GET /GameSpeed/AutoCompleteServlet?complete-field=XBOX1 HTTP/1.1" 500 1357
0:0:0:0:0:0:0:1 - - [02/Jun/2016:15:48:02 -0500] "GET /GameSpeed/AutoCompleteServlet?action=complete&id=x HTTP/1.1" 200 181
0:0:0:0:0:0:0:1 - - [02/Jun/2016:15:48:15 -0500] "GET /GameSpeed/AutoCompleteServlet?action=complete&id=xb HTTP/1.1" 200 181
0:0:0:0:0:0:0:1 - - [02/Jun/2016:15:48:50 -0500] "GET /GameSpeed/AutoCompleteServlet?action=complete&id=1 HTTP/1.1" 204 -
0:0:0:0:0:0:0:1 - - [02/Jun/2016:15:48:52 -0500] "GET /GameSpeed/AutoCompleteServlet?action=complete&id= HTTP/1.1" 204 -
0:0:0:0:0:0:0:1 - - [02/Jun/2016:15:48:53 -0500] "GET /GameSpeed/AutoCompleteServlet?action=complete&id=0 HTTP/1.1" 204 -
0:0:0:0:0:0:0:1 - - [02/Jun/2016:15:48:54 -0500] "GET /GameSpeed/AutoCompleteServlet?action=complete&id=01 HTTP/1.1" 204 -
0:0:0:0:0:0:0:1 - - [02/Jun/2016:15:48:56 -0500] "GET /GameSpeed/AutoCompleteServlet?action=complete&id=0 HTTP/1.1" 204 -
0:0:0:0:0:0:0:1 - - [02/Jun/2016:15:48:56 -0500] "GET /GameSpeed/AutoCompleteServlet?action=complete&id= HTTP/1.1" 204 -
0:0:0:0:0:0:0:1 - - [02/Jun/2016:15:49:40 -0500] "GET /GameSpeed/Home.jsp HTTP/1.1" 200 2397
0:0:0:0:0:0:0:1 - - [02/Jun/2016:15:49:41 -0500] "GET /GameSpeed/javascript.js HTTP/1.1" 304 -
0:0:0:0:0:0:0:1 - - [02/Jun/2016:15:49:41 -0500] "GET /GameSpeed/stylesheet.css HTTP/1.1" 404 999
0:0:0:0:0:0:0:1 - - [02/Jun/2016:15:49:41 -0500] "GET /GameSpeed/autocomplete.js HTTP/1.1" 404 1001
0:0:0:0:0:0:0:1 - - [02/Jun/2016:15:49:41 -0500] "GET /GameSpeed/style.css HTTP/1.1" 304 -
0:0:0:0:0:0:0:1 - - [02/Jun/2016:15:49:41 -0500] "GET /GameSpeed/images/site/GameON.jpg HTTP/1.1" 304 -
0:0:0:0:0:0:0:1 - - [02/Jun/2016:15:49:41 -0500] "GET /favicon.ico HTTP/1.1" 200 21630
0:0:0:0:0:0:0:1 - - [02/Jun/2016:15:49:43 -0500] "GET /GameSpeed/AutoCompleteServlet?action=complete&id=d HTTP/1.1" 204 -
0:0:0:0:0:0:0:1 - - [02/Jun/2016:15:49:44 -0500] "GET /GameSpeed/AutoCompleteServlet?action=complete&id= HTTP/1.1" 204 -
0:0:0:0:0:0:0:1 - - [02/Jun/2016:15:49:45 -0500] "GET /GameSpeed/AutoCompleteServlet?action=complete&id=3 HTTP/1.1" 204 -
0:0:0:0:0:0:0:1 - - [02/Jun/2016:15:49:46 -0500] "GET /GameSpeed/AutoCompleteServlet?action=complete&id= HTTP/1.1" 204 -
0:0:0:0:0:0:0:1 - - [02/Jun/2016:15:49:47 -0500] "GET /GameSpeed/AutoCompleteServlet?action=complete&id=1 HTTP/1.1" 204 -
0:0:0:0:0:0:0:1 - - [02/Jun/2016:15:49:47 -0500] "GET /GameSpeed/AutoCompleteServlet?action=complete&id= HTTP/1.1" 204 -
0:0:0:0:0:0:0:1 - - [02/Jun/2016:15:49:48 -0500] "GET /GameSpeed/AutoCompleteServlet?action=complete&id=x HTTP/1.1" 200 181
0:0:0:0:0:0:0:1 - - [02/Jun/2016:15:49:51 -0500] "GET /GameSpeed/AutoCompleteServlet?complete-field=XBOX1 HTTP/1.1" 500 1357
0:0:0:0:0:0:0:1 - - [02/Jun/2016:15:52:00 -0500] "GET /GameSpeed/Logout.jsp HTTP/1.1" 302 -
0:0:0:0:0:0:0:1 - - [02/Jun/2016:15:52:00 -0500] "GET /GameSpeed/Login.jsp HTTP/1.1" 200 1206
0:0:0:0:0:0:0:1 - - [02/Jun/2016:15:52:01 -0500] "POST /GameSpeed/Login.jsp HTTP/1.1" 302 -
0:0:0:0:0:0:0:1 - - [02/Jun/2016:15:52:01 -0500] "GET /GameSpeed/Home.jsp HTTP/1.1" 200 2397
0:0:0:0:0:0:0:1 - - [02/Jun/2016:15:52:01 -0500] "GET /GameSpeed/autocomplete.js HTTP/1.1" 404 1001
0:0:0:0:0:0:0:1 - - [02/Jun/2016:15:52:01 -0500] "GET /GameSpeed/stylesheet.css HTTP/1.1" 404 999
0:0:0:0:0:0:0:1 - - [02/Jun/2016:15:52:01 -0500] "GET /GameSpeed/javascript.js HTTP/1.1" 304 -
0:0:0:0:0:0:0:1 - - [02/Jun/2016:15:52:03 -0500] "GET /GameSpeed/ConsoleList.jsp HTTP/1.1" 200 8764
0:0:0:0:0:0:0:1 - - [02/Jun/2016:15:52:03 -0500] "GET /GameSpeed/autocomplete.js HTTP/1.1" 404 1001
0:0:0:0:0:0:0:1 - - [02/Jun/2016:15:52:05 -0500] "GET /GameSpeed/Home.jsp HTTP/1.1" 200 2397
0:0:0:0:0:0:0:1 - - [02/Jun/2016:15:52:05 -0500] "GET /GameSpeed/stylesheet.css HTTP/1.1" 404 999
0:0:0:0:0:0:0:1 - - [02/Jun/2016:15:52:05 -0500] "GET /GameSpeed/autocomplete.js HTTP/1.1" 404 1001
0:0:0:0:0:0:0:1 - - [02/Jun/2016:15:52:07 -0500] "GET /GameSpeed/AutoCompleteServlet?action=complete&id=x HTTP/1.1" 200 181
0:0:0:0:0:0:0:1 - - [02/Jun/2016:15:52:12 -0500] "GET /GameSpeed/AutoCompleteServlet?action=complete&id=XBOX HTTP/1.1" 200 181
0:0:0:0:0:0:0:1 - - [02/Jun/2016:15:52:12 -0500] "GET /GameSpeed/AutoCompleteServlet?action=complete&id=XBO HTTP/1.1" 200 181
0:0:0:0:0:0:0:1 - - [02/Jun/2016:15:52:12 -0500] "GET /GameSpeed/AutoCompleteServlet?action=complete&id=XB HTTP/1.1" 200 181
0:0:0:0:0:0:0:1 - - [02/Jun/2016:15:52:12 -0500] "GET /GameSpeed/AutoCompleteServlet?action=complete&id=X HTTP/1.1" 200 181
0:0:0:0:0:0:0:1 - - [02/Jun/2016:15:52:12 -0500] "GET /GameSpeed/AutoCompleteServlet?action=complete&id= HTTP/1.1" 204 -
0:0:0:0:0:0:0:1 - - [02/Jun/2016:15:52:12 -0500] "GET /GameSpeed/AutoCompleteServlet?action=complete&id= HTTP/1.1" 204 -
0:0:0:0:0:0:0:1 - - [02/Jun/2016:15:52:14 -0500] "GET /GameSpeed/AutoCompleteServlet?action=complete&id=P HTTP/1.1" 200 165
0:0:0:0:0:0:0:1 - - [02/Jun/2016:15:52:14 -0500] "GET /GameSpeed/AutoCompleteServlet?action=complete&id=P HTTP/1.1" 200 165
0:0:0:0:0:0:0:1 - - [02/Jun/2016:15:52:14 -0500] "GET /GameSpeed/AutoCompleteServlet?action=complete&id= HTTP/1.1" 204 -
0:0:0:0:0:0:0:1 - - [02/Jun/2016:15:52:15 -0500] "GET /GameSpeed/AutoCompleteServlet?action=complete&id=p HTTP/1.1" 200 165
0:0:0:0:0:0:0:1 - - [02/Jun/2016:15:52:16 -0500] "GET /GameSpeed/AutoCompleteServlet?action=complete&id= HTTP/1.1" 204 -
0:0:0:0:0:0:0:1 - - [02/Jun/2016:15:53:29 -0500] "GET /ajax-my-app HTTP/1.1" 302 -
0:0:0:0:0:0:0:1 - - [02/Jun/2016:15:53:29 -0500] "GET /ajax-my-app/ HTTP/1.1" 200 1592
0:0:0:0:0:0:0:1 - - [02/Jun/2016:15:53:31 -0500] "GET /ajax-my-app/autocomplete?action=complete&id=d HTTP/1.1" 200 387
0:0:0:0:0:0:0:1 - - [02/Jun/2016:15:53:32 -0500] "GET /ajax-my-app/autocomplete?action=lookup&id=12 HTTP/1.1" 200 675
0:0:0:0:0:0:0:1 - - [02/Jun/2016:15:54:28 -0500] "GET /ajax-my-app/autocomplete?action=complete&id= HTTP/1.1" 204 -
0:0:0:0:0:0:0:1 - - [02/Jun/2016:15:54:32 -0500] "GET /ajax-my-app/autocomplete?action=complete&id=d HTTP/1.1" 200 387
0:0:0:0:0:0:0:1 - - [02/Jun/2016:15:55:43 -0500] "GET /GameSpeed/Home.jsp HTTP/1.1" 200 2397
0:0:0:0:0:0:0:1 - - [02/Jun/2016:15:55:43 -0500] "GET /GameSpeed/javascript.js HTTP/1.1" 304 -
0:0:0:0:0:0:0:1 - - [02/Jun/2016:15:55:43 -0500] "GET /GameSpeed/stylesheet.css HTTP/1.1" 404 999
0:0:0:0:0:0:0:1 - - [02/Jun/2016:15:55:43 -0500] "GET /GameSpeed/autocomplete.js HTTP/1.1" 404 1001
0:0:0:0:0:0:0:1 - - [02/Jun/2016:15:55:51 -0500] "GET /GameSpeed/AutoCompleteServlet?action=complete&id=x HTTP/1.1" 204 -
0:0:0:0:0:0:0:1 - - [02/Jun/2016:15:56:59 -0500] "GET /GameSpeed/Home.jsp HTTP/1.1" 200 2397
0:0:0:0:0:0:0:1 - - [02/Jun/2016:15:56:59 -0500] "GET /GameSpeed/autocomplete.js HTTP/1.1" 404 1001
0:0:0:0:0:0:0:1 - - [02/Jun/2016:15:56:59 -0500] "GET /GameSpeed/stylesheet.css HTTP/1.1" 404 999
0:0:0:0:0:0:0:1 - - [02/Jun/2016:15:56:59 -0500] "GET /GameSpeed/javascript.js HTTP/1.1" 304 -
0:0:0:0:0:0:0:1 - - [02/Jun/2016:15:57:00 -0500] "GET /GameSpeed/ConsoleList.jsp HTTP/1.1" 200 8764
0:0:0:0:0:0:0:1 - - [02/Jun/2016:15:57:00 -0500] "GET /GameSpeed/autocomplete.js HTTP/1.1" 404 1001
0:0:0:0:0:0:0:1 - - [02/Jun/2016:15:57:00 -0500] "GET /GameSpeed/Home.jsp HTTP/1.1" 200 2397
0:0:0:0:0:0:0:1 - - [02/Jun/2016:15:57:00 -0500] "GET /GameSpeed/stylesheet.css HTTP/1.1" 404 999
0:0:0:0:0:0:0:1 - - [02/Jun/2016:15:57:00 -0500] "GET /GameSpeed/autocomplete.js HTTP/1.1" 404 1001
0:0:0:0:0:0:0:1 - - [02/Jun/2016:15:57:04 -0500] "GET /GameSpeed/AutoCompleteServlet?action=complete&id=x HTTP/1.1" 200 181
0:0:0:0:0:0:0:1 - - [02/Jun/2016:16:00:41 -0500] "GET /GameSpeed/ConsoleList.jsp HTTP/1.1" 200 8764
0:0:0:0:0:0:0:1 - - [02/Jun/2016:16:00:42 -0500] "GET /GameSpeed/autocomplete.js HTTP/1.1" 404 1001
0:0:0:0:0:0:0:1 - - [02/Jun/2016:16:00:42 -0500] "GET /GameSpeed/Home.jsp HTTP/1.1" 200 2397
0:0:0:0:0:0:0:1 - - [02/Jun/2016:16:00:42 -0500] "GET /GameSpeed/stylesheet.css HTTP/1.1" 404 999
0:0:0:0:0:0:0:1 - - [02/Jun/2016:16:00:42 -0500] "GET /GameSpeed/autocomplete.js HTTP/1.1" 404 1001
0:0:0:0:0:0:0:1 - - [02/Jun/2016:16:00:42 -0500] "GET /GameSpeed/javascript.js HTTP/1.1" 304 -
0:0:0:0:0:0:0:1 - - [02/Jun/2016:16:00:45 -0500] "GET /GameSpeed/AutoCompleteServlet?action=complete&id=x HTTP/1.1" 200 274
0:0:0:0:0:0:0:1 - - [02/Jun/2016:16:02:22 -0500] "GET /GameSpeed/Home.jsp HTTP/1.1" 200 2397
0:0:0:0:0:0:0:1 - - [02/Jun/2016:16:02:23 -0500] "GET /GameSpeed/ConsoleList.jsp HTTP/1.1" 200 8764
0:0:0:0:0:0:0:1 - - [02/Jun/2016:16:02:23 -0500] "GET /GameSpeed/autocomplete.js HTTP/1.1" 404 1001
0:0:0:0:0:0:0:1 - - [02/Jun/2016:16:02:27 -0500] "GET /GameSpeed/Home.jsp HTTP/1.1" 200 2397
0:0:0:0:0:0:0:1 - - [02/Jun/2016:16:02:27 -0500] "GET /GameSpeed/autocomplete.js HTTP/1.1" 404 1001
0:0:0:0:0:0:0:1 - - [02/Jun/2016:16:02:27 -0500] "GET /GameSpeed/stylesheet.css HTTP/1.1" 404 999
0:0:0:0:0:0:0:1 - - [02/Jun/2016:16:02:27 -0500] "GET /GameSpeed/javascript.js HTTP/1.1" 304 -
0:0:0:0:0:0:0:1 - - [02/Jun/2016:16:02:28 -0500] "GET /GameSpeed/AutoCompleteServlet?action=complete&id=x HTTP/1.1" 200 181
0:0:0:0:0:0:0:1 - - [02/Jun/2016:16:04:00 -0500] "GET /GameSpeed/AutoCompleteServlet?action=complete&id= HTTP/1.1" 204 -
0:0:0:0:0:0:0:1 - - [02/Jun/2016:16:04:01 -0500] "GET /GameSpeed/AutoCompleteServlet?action=complete&id=x HTTP/1.1" 204 -
0:0:0:0:0:0:0:1 - - [02/Jun/2016:16:04:04 -0500] "GET /GameSpeed/AutoCompleteServlet?action=complete&id=xb HTTP/1.1" 204 -
0:0:0:0:0:0:0:1 - - [02/Jun/2016:16:04:13 -0500] "GET /GameSpeed/ConsoleList.jsp HTTP/1.1" 200 8764
0:0:0:0:0:0:0:1 - - [02/Jun/2016:16:04:13 -0500] "GET /GameSpeed/autocomplete.js HTTP/1.1" 404 1001
0:0:0:0:0:0:0:1 - - [02/Jun/2016:16:04:14 -0500] "GET /GameSpeed/Home.jsp HTTP/1.1" 200 2397
0:0:0:0:0:0:0:1 - - [02/Jun/2016:16:04:14 -0500] "GET /GameSpeed/autocomplete.js HTTP/1.1" 404 1001
0:0:0:0:0:0:0:1 - - [02/Jun/2016:16:04:14 -0500] "GET /GameSpeed/stylesheet.css HTTP/1.1" 404 999
0:0:0:0:0:0:0:1 - - [02/Jun/2016:16:04:14 -0500] "GET /GameSpeed/javascript.js HTTP/1.1" 304 -
0:0:0:0:0:0:0:1 - - [02/Jun/2016:16:04:17 -0500] "GET /GameSpeed/AutoCompleteServlet?action=complete&id=x HTTP/1.1" 200 181
0:0:0:0:0:0:0:1 - - [02/Jun/2016:16:09:19 -0500] "GET /GameSpeed/ConsoleList.jsp HTTP/1.1" 200 8764
0:0:0:0:0:0:0:1 - - [02/Jun/2016:16:09:19 -0500] "GET /GameSpeed/autocomplete.js HTTP/1.1" 404 1001
0:0:0:0:0:0:0:1 - - [02/Jun/2016:16:09:20 -0500] "GET /GameSpeed/Home.jsp HTTP/1.1" 200 2397
0:0:0:0:0:0:0:1 - - [02/Jun/2016:16:09:20 -0500] "GET /GameSpeed/stylesheet.css HTTP/1.1" 404 999
0:0:0:0:0:0:0:1 - - [02/Jun/2016:16:09:20 -0500] "GET /GameSpeed/autocomplete.js HTTP/1.1" 404 1001
0:0:0:0:0:0:0:1 - - [02/Jun/2016:16:09:20 -0500] "GET /GameSpeed/javascript.js HTTP/1.1" 200 3484
0:0:0:0:0:0:0:1 - - [02/Jun/2016:16:09:22 -0500] "GET /GameSpeed/AutoCompleteServlet?action=complete&id=x HTTP/1.1" 200 181
0:0:0:0:0:0:0:1 - - [02/Jun/2016:16:09:27 -0500] "GET /GameSpeed/AutoCompleteServlet?complete-field=XBOX1 HTTP/1.1" 500 1357
0:0:0:0:0:0:0:1 - - [02/Jun/2016:16:09:32 -0500] "GET /GameSpeed/Home.jsp HTTP/1.1" 200 2397
0:0:0:0:0:0:0:1 - - [02/Jun/2016:16:09:32 -0500] "GET /GameSpeed/javascript.js HTTP/1.1" 304 -
0:0:0:0:0:0:0:1 - - [02/Jun/2016:16:09:32 -0500] "GET /GameSpeed/autocomplete.js HTTP/1.1" 404 1001
0:0:0:0:0:0:0:1 - - [02/Jun/2016:16:09:32 -0500] "GET /GameSpeed/stylesheet.css HTTP/1.1" 404 999
0:0:0:0:0:0:0:1 - - [02/Jun/2016:16:09:33 -0500] "GET /GameSpeed/ConsoleList.jsp HTTP/1.1" 200 8764
0:0:0:0:0:0:0:1 - - [02/Jun/2016:16:09:33 -0500] "GET /GameSpeed/autocomplete.js HTTP/1.1" 404 1001
0:0:0:0:0:0:0:1 - - [02/Jun/2016:16:15:18 -0500] "GET /GameSpeed/Home.jsp HTTP/1.1" 200 2316
0:0:0:0:0:0:0:1 - - [02/Jun/2016:16:15:18 -0500] "GET /GameSpeed/javascript.js HTTP/1.1" 304 -
0:0:0:0:0:0:0:1 - - [02/Jun/2016:16:15:18 -0500] "GET /GameSpeed/stylesheet.css HTTP/1.1" 404 999
0:0:0:0:0:0:0:1 - - [02/Jun/2016:16:15:18 -0500] "GET /GameSpeed/autocomplete.js HTTP/1.1" 404 1001
0:0:0:0:0:0:0:1 - - [02/Jun/2016:16:15:20 -0500] "GET /GameSpeed/ConsoleList.jsp HTTP/1.1" 200 8764
0:0:0:0:0:0:0:1 - - [02/Jun/2016:16:15:20 -0500] "GET /GameSpeed/autocomplete.js HTTP/1.1" 404 1001
0:0:0:0:0:0:0:1 - - [02/Jun/2016:16:15:21 -0500] "GET /GameSpeed/Home.jsp HTTP/1.1" 200 2316
0:0:0:0:0:0:0:1 - - [02/Jun/2016:16:15:21 -0500] "GET /GameSpeed/stylesheet.css HTTP/1.1" 404 999
0:0:0:0:0:0:0:1 - - [02/Jun/2016:16:15:21 -0500] "GET /GameSpeed/autocomplete.js HTTP/1.1" 404 1001
0:0:0:0:0:0:0:1 - - [02/Jun/2016:16:15:23 -0500] "GET /GameSpeed/AutoCompleteServlet?action=complete&id=x HTTP/1.1" 200 181
0:0:0:0:0:0:0:1 - - [02/Jun/2016:16:15:32 -0500] "GET /GameSpeed/AutoCompleteServlet?action=complete&id=xb HTTP/1.1" 200 181
0:0:0:0:0:0:0:1 - - [02/Jun/2016:16:28:23 -0500] "GET /GameSpeed/Home.jsp HTTP/1.1" 200 2316
0:0:0:0:0:0:0:1 - - [02/Jun/2016:16:28:23 -0500] "GET /GameSpeed/stylesheet.css HTTP/1.1" 404 999
0:0:0:0:0:0:0:1 - - [02/Jun/2016:16:28:23 -0500] "GET /GameSpeed/autocomplete.js HTTP/1.1" 404 1001
0:0:0:0:0:0:0:1 - - [02/Jun/2016:16:28:23 -0500] "GET /GameSpeed/javascript.js HTTP/1.1" 200 3570
0:0:0:0:0:0:0:1 - - [02/Jun/2016:16:28:29 -0500] "GET /GameSpeed/AutoCompleteServlet?action=complete&id=s HTTP/1.1" 200 672
0:0:0:0:0:0:0:1 - - [02/Jun/2016:16:29:11 -0500] "GET /GameSpeed/Home.jsp HTTP/1.1" 200 2316
0:0:0:0:0:0:0:1 - - [02/Jun/2016:16:29:11 -0500] "GET /GameSpeed/stylesheet.css HTTP/1.1" 404 999
0:0:0:0:0:0:0:1 - - [02/Jun/2016:16:29:11 -0500] "GET /GameSpeed/autocomplete.js HTTP/1.1" 404 1001
0:0:0:0:0:0:0:1 - - [02/Jun/2016:16:29:11 -0500] "GET /GameSpeed/javascript.js HTTP/1.1" 200 3514
0:0:0:0:0:0:0:1 - - [02/Jun/2016:16:29:12 -0500] "GET /GameSpeed/ConsoleList.jsp HTTP/1.1" 200 8764
0:0:0:0:0:0:0:1 - - [02/Jun/2016:16:29:12 -0500] "GET /GameSpeed/autocomplete.js HTTP/1.1" 404 1001
0:0:0:0:0:0:0:1 - - [02/Jun/2016:16:29:23 -0500] "GET /GameSpeed/Home.jsp HTTP/1.1" 200 2316
0:0:0:0:0:0:0:1 - - [02/Jun/2016:16:29:23 -0500] "GET /GameSpeed/javascript.js HTTP/1.1" 304 -
0:0:0:0:0:0:0:1 - - [02/Jun/2016:16:29:23 -0500] "GET /GameSpeed/stylesheet.css HTTP/1.1" 404 999
0:0:0:0:0:0:0:1 - - [02/Jun/2016:16:29:23 -0500] "GET /GameSpeed/autocomplete.js HTTP/1.1" 404 1001
0:0:0:0:0:0:0:1 - - [02/Jun/2016:16:29:25 -0500] "GET /GameSpeed/AutoCompleteServlet?action=complete&id=s HTTP/1.1" 200 672
0:0:0:0:0:0:0:1 - - [02/Jun/2016:16:30:37 -0500] "GET /GameSpeed/Home.jsp HTTP/1.1" 200 2316
0:0:0:0:0:0:0:1 - - [02/Jun/2016:16:30:37 -0500] "GET /GameSpeed/javascript.js HTTP/1.1" 200 3556
0:0:0:0:0:0:0:1 - - [02/Jun/2016:16:30:37 -0500] "GET /GameSpeed/stylesheet.css HTTP/1.1" 404 999
0:0:0:0:0:0:0:1 - - [02/Jun/2016:16:30:37 -0500] "GET /GameSpeed/autocomplete.js HTTP/1.1" 404 1001
0:0:0:0:0:0:0:1 - - [02/Jun/2016:16:30:39 -0500] "GET /GameSpeed/AutoCompleteServlet?action=complete&id=x HTTP/1.1" 200 181
0:0:0:0:0:0:0:1 - - [02/Jun/2016:16:30:45 -0500] "GET /GameSpeed/AutoCompleteServlet?action=complete&id= HTTP/1.1" 204 -
0:0:0:0:0:0:0:1 - - [02/Jun/2016:16:30:46 -0500] "GET /GameSpeed/AutoCompleteServlet?action=complete&id=p HTTP/1.1" 200 165
0:0:0:0:0:0:0:1 - - [02/Jun/2016:16:30:47 -0500] "GET /GameSpeed/ConsoleList.jsp HTTP/1.1" 200 8764
0:0:0:0:0:0:0:1 - - [02/Jun/2016:16:30:47 -0500] "GET /GameSpeed/autocomplete.js HTTP/1.1" 404 1001
0:0:0:0:0:0:0:1 - - [02/Jun/2016:16:30:49 -0500] "GET /GameSpeed/Home.jsp HTTP/1.1" 200 2316
0:0:0:0:0:0:0:1 - - [02/Jun/2016:16:30:49 -0500] "GET /GameSpeed/stylesheet.css HTTP/1.1" 404 999
0:0:0:0:0:0:0:1 - - [02/Jun/2016:16:30:49 -0500] "GET /GameSpeed/javascript.js HTTP/1.1" 304 -
0:0:0:0:0:0:0:1 - - [02/Jun/2016:16:30:49 -0500] "GET /GameSpeed/autocomplete.js HTTP/1.1" 404 1001
0:0:0:0:0:0:0:1 - - [02/Jun/2016:16:30:50 -0500] "GET /GameSpeed/AutoCompleteServlet?action=complete&id=z HTTP/1.1" 204 -
0:0:0:0:0:0:0:1 - - [02/Jun/2016:16:30:52 -0500] "GET /GameSpeed/AutoCompleteServlet?action=complete&id=x HTTP/1.1" 200 181
0:0:0:0:0:0:0:1 - - [02/Jun/2016:16:30:52 -0500] "GET /GameSpeed/AutoCompleteServlet?action=complete&id=x HTTP/1.1" 200 181
0:0:0:0:0:0:0:1 - - [02/Jun/2016:16:31:19 -0500] "GET /GameSpeed/Home.jsp HTTP/1.1" 200 2316
0:0:0:0:0:0:0:1 - - [02/Jun/2016:16:31:19 -0500] "GET /GameSpeed/stylesheet.css HTTP/1.1" 404 999
0:0:0:0:0:0:0:1 - - [02/Jun/2016:16:31:19 -0500] "GET /GameSpeed/autocomplete.js HTTP/1.1" 404 1001
0:0:0:0:0:0:0:1 - - [02/Jun/2016:16:31:19 -0500] "GET /GameSpeed/javascript.js HTTP/1.1" 200 3521
0:0:0:0:0:0:0:1 - - [02/Jun/2016:16:31:21 -0500] "GET /GameSpeed/AutoCompleteServlet?action=complete&id=x HTTP/1.1" 200 181
0:0:0:0:0:0:0:1 - - [02/Jun/2016:16:31:43 -0500] "GET /GameSpeed/Home.jsp HTTP/1.1" 200 2316
0:0:0:0:0:0:0:1 - - [02/Jun/2016:16:31:43 -0500] "GET /GameSpeed/stylesheet.css HTTP/1.1" 404 999
0:0:0:0:0:0:0:1 - - [02/Jun/2016:16:31:43 -0500] "GET /GameSpeed/autocomplete.js HTTP/1.1" 404 1001
0:0:0:0:0:0:0:1 - - [02/Jun/2016:16:31:43 -0500] "GET /GameSpeed/javascript.js HTTP/1.1" 200 3530
0:0:0:0:0:0:0:1 - - [02/Jun/2016:16:33:11 -0500] "GET /GameSpeed/ConsoleList.jsp HTTP/1.1" 200 8764
0:0:0:0:0:0:0:1 - - [02/Jun/2016:16:33:11 -0500] "GET /GameSpeed/ConsoleList.jsp HTTP/1.1" 200 8764
0:0:0:0:0:0:0:1 - - [02/Jun/2016:16:33:11 -0500] "GET /GameSpeed/ConsoleList.jsp HTTP/1.1" 200 8764
0:0:0:0:0:0:0:1 - - [02/Jun/2016:16:33:11 -0500] "GET /GameSpeed/autocomplete.js HTTP/1.1" 404 1001
0:0:0:0:0:0:0:1 - - [02/Jun/2016:16:33:12 -0500] "GET /GameSpeed/ConsoleList.jsp HTTP/1.1" 200 8764
0:0:0:0:0:0:0:1 - - [02/Jun/2016:16:33:12 -0500] "GET /GameSpeed/autocomplete.js HTTP/1.1" 404 1001
0:0:0:0:0:0:0:1 - - [02/Jun/2016:16:33:13 -0500] "GET /GameSpeed/ConsoleList.jsp HTTP/1.1" 200 8764
0:0:0:0:0:0:0:1 - - [02/Jun/2016:16:33:13 -0500] "GET /GameSpeed/autocomplete.js HTTP/1.1" 404 1001
0:0:0:0:0:0:0:1 - - [02/Jun/2016:16:33:14 -0500] "GET /GameSpeed/Home.jsp HTTP/1.1" 200 2316
0:0:0:0:0:0:0:1 - - [02/Jun/2016:16:33:14 -0500] "GET /GameSpeed/stylesheet.css HTTP/1.1" 404 999
0:0:0:0:0:0:0:1 - - [02/Jun/2016:16:33:14 -0500] "GET /GameSpeed/autocomplete.js HTTP/1.1" 404 1001
0:0:0:0:0:0:0:1 - - [02/Jun/2016:16:33:14 -0500] "GET /GameSpeed/javascript.js HTTP/1.1" 304 -
0:0:0:0:0:0:0:1 - - [02/Jun/2016:16:33:24 -0500] "GET /GameSpeed/ConsoleList.jsp HTTP/1.1" 200 8764
0:0:0:0:0:0:0:1 - - [02/Jun/2016:16:33:24 -0500] "GET /GameSpeed/autocomplete.js HTTP/1.1" 404 1001
0:0:0:0:0:0:0:1 - - [02/Jun/2016:16:33:26 -0500] "GET /GameSpeed/Home.jsp HTTP/1.1" 200 2316
0:0:0:0:0:0:0:1 - - [02/Jun/2016:16:33:26 -0500] "GET /GameSpeed/javascript.js HTTP/1.1" 304 -
0:0:0:0:0:0:0:1 - - [02/Jun/2016:16:33:26 -0500] "GET /GameSpeed/autocomplete.js HTTP/1.1" 404 1001
0:0:0:0:0:0:0:1 - - [02/Jun/2016:16:33:26 -0500] "GET /GameSpeed/stylesheet.css HTTP/1.1" 404 999
0:0:0:0:0:0:0:1 - - [02/Jun/2016:16:33:47 -0500] "GET /GameSpeed/ConsoleList.jsp HTTP/1.1" 200 8764
0:0:0:0:0:0:0:1 - - [02/Jun/2016:16:33:47 -0500] "GET /GameSpeed/autocomplete.js HTTP/1.1" 404 1001
0:0:0:0:0:0:0:1 - - [02/Jun/2016:16:33:49 -0500] "GET /GameSpeed/Home.jsp HTTP/1.1" 200 2316
0:0:0:0:0:0:0:1 - - [02/Jun/2016:16:33:49 -0500] "GET /GameSpeed/stylesheet.css HTTP/1.1" 404 999
0:0:0:0:0:0:0:1 - - [02/Jun/2016:16:33:49 -0500] "GET /GameSpeed/autocomplete.js HTTP/1.1" 404 1001
0:0:0:0:0:0:0:1 - - [02/Jun/2016:16:33:49 -0500] "GET /GameSpeed/javascript.js HTTP/1.1" 200 3521
0:0:0:0:0:0:0:1 - - [02/Jun/2016:16:33:51 -0500] "GET /GameSpeed/AutoCompleteServlet?action=complete&id=x HTTP/1.1" 200 181
0:0:0:0:0:0:0:1 - - [02/Jun/2016:16:43:02 -0500] "GET /GameSpeed/ConsoleList.jsp HTTP/1.1" 200 8764
0:0:0:0:0:0:0:1 - - [02/Jun/2016:16:43:02 -0500] "GET /GameSpeed/autocomplete.js HTTP/1.1" 404 1001
0:0:0:0:0:0:0:1 - - [02/Jun/2016:16:43:03 -0500] "GET /GameSpeed/TabletList.jsp HTTP/1.1" 200 5749
0:0:0:0:0:0:0:1 - - [02/Jun/2016:16:43:03 -0500] "GET /GameSpeed/autocomplete.js HTTP/1.1" 404 1001
0:0:0:0:0:0:0:1 - - [02/Jun/2016:16:43:05 -0500] "GET /GameSpeed/Home.jsp HTTP/1.1" 200 2316
0:0:0:0:0:0:0:1 - - [02/Jun/2016:16:43:05 -0500] "GET /GameSpeed/stylesheet.css HTTP/1.1" 404 999
0:0:0:0:0:0:0:1 - - [02/Jun/2016:16:43:05 -0500] "GET /GameSpeed/autocomplete.js HTTP/1.1" 404 1001
0:0:0:0:0:0:0:1 - - [02/Jun/2016:16:43:05 -0500] "GET /GameSpeed/javascript.js HTTP/1.1" 200 3485
0:0:0:0:0:0:0:1 - - [02/Jun/2016:16:43:07 -0500] "GET /GameSpeed/AutoCompleteServlet?action=complete&id=x HTTP/1.1" 200 181
0:0:0:0:0:0:0:1 - - [02/Jun/2016:16:44:00 -0500] "GET /GameSpeed/Home.jsp HTTP/1.1" 200 2173
0:0:0:0:0:0:0:1 - - [02/Jun/2016:16:44:00 -0500] "GET /GameSpeed/javascript.js HTTP/1.1" 304 -
0:0:0:0:0:0:0:1 - - [02/Jun/2016:16:44:00 -0500] "GET /GameSpeed/autocomplete.js HTTP/1.1" 404 1001
0:0:0:0:0:0:0:1 - - [02/Jun/2016:16:44:03 -0500] "GET /GameSpeed/AutoCompleteServlet?action=complete&id=x HTTP/1.1" 200 181
0:0:0:0:0:0:0:1 - - [02/Jun/2016:16:45:04 -0500] "GET /GameSpeed/Home.jsp HTTP/1.1" 200 1637
0:0:0:0:0:0:0:1 - - [02/Jun/2016:16:45:04 -0500] "GET /GameSpeed/javascript.js HTTP/1.1" 304 -
0:0:0:0:0:0:0:1 - - [02/Jun/2016:16:45:04 -0500] "GET /GameSpeed/autocomplete.js HTTP/1.1" 404 1001
0:0:0:0:0:0:0:1 - - [02/Jun/2016:16:45:04 -0500] "GET /GameSpeed/images/site/GameON.jpg HTTP/1.1" 304 -
0:0:0:0:0:0:0:1 - - [02/Jun/2016:16:45:04 -0500] "GET /favicon.ico HTTP/1.1" 200 21630
0:0:0:0:0:0:0:1 - - [02/Jun/2016:16:45:07 -0500] "GET /GameSpeed/AutoCompleteServlet?action=complete&id=h HTTP/1.1" 204 -
0:0:0:0:0:0:0:1 - - [02/Jun/2016:16:45:08 -0500] "GET /GameSpeed/AutoCompleteServlet?action=complete&id= HTTP/1.1" 204 -
0:0:0:0:0:0:0:1 - - [02/Jun/2016:16:45:10 -0500] "GET /GameSpeed/AutoCompleteServlet?action=complete&id=x HTTP/1.1" 200 181
0:0:0:0:0:0:0:1 - - [02/Jun/2016:16:47:20 -0500] "GET /GameSpeed/Home.jsp HTTP/1.1" 200 3988
0:0:0:0:0:0:0:1 - - [02/Jun/2016:16:47:20 -0500] "GET /GameSpeed/javascript.js HTTP/1.1" 304 -
0:0:0:0:0:0:0:1 - - [02/Jun/2016:16:47:20 -0500] "GET /GameSpeed/stylesheet.css HTTP/1.1" 404 999
0:0:0:0:0:0:0:1 - - [02/Jun/2016:16:47:20 -0500] "GET /GameSpeed/style.css HTTP/1.1" 304 -
0:0:0:0:0:0:0:1 - - [02/Jun/2016:16:47:20 -0500] "GET /GameSpeed/autocomplete.js HTTP/1.1" 404 1001
0:0:0:0:0:0:0:1 - - [02/Jun/2016:16:47:20 -0500] "GET /GameSpeed/images/site/GameON.jpg HTTP/1.1" 304 -
0:0:0:0:0:0:0:1 - - [02/Jun/2016:16:47:20 -0500] "GET /favicon.ico HTTP/1.1" 200 21630
0:0:0:0:0:0:0:1 - - [02/Jun/2016:16:47:23 -0500] "GET /GameSpeed/AutoCompleteServlet?action=complete&id= HTTP/1.1" 204 -
0:0:0:0:0:0:0:1 - - [02/Jun/2016:16:47:31 -0500] "GET /GameSpeed/ConsoleList.jsp HTTP/1.1" 200 8764
0:0:0:0:0:0:0:1 - - [02/Jun/2016:16:47:31 -0500] "GET /GameSpeed/autocomplete.js HTTP/1.1" 404 1001
0:0:0:0:0:0:0:1 - - [02/Jun/2016:16:47:32 -0500] "GET /GameSpeed/Home.jsp HTTP/1.1" 200 3988
0:0:0:0:0:0:0:1 - - [02/Jun/2016:16:47:32 -0500] "GET /GameSpeed/stylesheet.css HTTP/1.1" 404 999
0:0:0:0:0:0:0:1 - - [02/Jun/2016:16:47:32 -0500] "GET /GameSpeed/autocomplete.js HTTP/1.1" 404 1001
0:0:0:0:0:0:0:1 - - [02/Jun/2016:16:47:35 -0500] "GET /GameSpeed/AutoCompleteServlet?action=complete&id= HTTP/1.1" 204 -
0:0:0:0:0:0:0:1 - - [02/Jun/2016:16:47:48 -0500] "GET /GameSpeed/AutoCompleteServlet?action=complete&id= HTTP/1.1" 204 -
0:0:0:0:0:0:0:1 - - [02/Jun/2016:16:48:36 -0500] "GET /GameSpeed/AutoCompleteServlet?action=complete&id= HTTP/1.1" 204 -
0:0:0:0:0:0:0:1 - - [02/Jun/2016:16:49:08 -0500] "GET /GameSpeed/AutoCompleteServlet?action=complete&id= HTTP/1.1" 204 -
0:0:0:0:0:0:0:1 - - [02/Jun/2016:16:49:23 -0500] "GET /GameSpeed/ConsoleList.jsp HTTP/1.1" 200 8764
0:0:0:0:0:0:0:1 - - [02/Jun/2016:16:49:23 -0500] "GET /GameSpeed/autocomplete.js HTTP/1.1" 404 1001
0:0:0:0:0:0:0:1 - - [02/Jun/2016:16:49:23 -0500] "GET /GameSpeed/Home.jsp HTTP/1.1" 200 3994
0:0:0:0:0:0:0:1 - - [02/Jun/2016:16:49:23 -0500] "GET /GameSpeed/javascript.js HTTP/1.1" 304 -
0:0:0:0:0:0:0:1 - - [02/Jun/2016:16:49:23 -0500] "GET /GameSpeed/autocomplete.js HTTP/1.1" 404 1001
0:0:0:0:0:0:0:1 - - [02/Jun/2016:16:49:23 -0500] "GET /GameSpeed/stylesheet.css HTTP/1.1" 404 999
0:0:0:0:0:0:0:1 - - [02/Jun/2016:16:49:26 -0500] "GET /GameSpeed/AutoCompleteServlet?action=complete&id= HTTP/1.1" 204 -
0:0:0:0:0:0:0:1 - - [02/Jun/2016:16:53:35 -0500] "GET /GameSpeed/ConsoleList.jsp HTTP/1.1" 200 8764
0:0:0:0:0:0:0:1 - - [02/Jun/2016:16:53:35 -0500] "GET /GameSpeed/autocomplete.js HTTP/1.1" 404 1001
0:0:0:0:0:0:0:1 - - [02/Jun/2016:16:53:45 -0500] "GET /GameSpeed/Search.jsp HTTP/1.1" 404 991
0:0:0:0:0:0:0:1 - - [02/Jun/2016:16:54:10 -0500] "GET /GameSpeed?site_header.jsp HTTP/1.1" 302 -
0:0:0:0:0:0:0:1 - - [02/Jun/2016:16:54:10 -0500] "GET /GameSpeed/?site_header.jsp HTTP/1.1" 200 3994
0:0:0:0:0:0:0:1 - - [02/Jun/2016:16:54:10 -0500] "GET /GameSpeed/autocomplete.js HTTP/1.1" 404 1001
0:0:0:0:0:0:0:1 - - [02/Jun/2016:16:54:10 -0500] "GET /GameSpeed/stylesheet.css HTTP/1.1" 404 999
0:0:0:0:0:0:0:1 - - [02/Jun/2016:16:54:10 -0500] "GET /GameSpeed/javascript.js HTTP/1.1" 304 -
0:0:0:0:0:0:0:1 - - [02/Jun/2016:16:54:13 -0500] "GET /GameSpeed/AutoCompleteServlet?action=complete&id= HTTP/1.1" 204 -
0:0:0:0:0:0:0:1 - - [02/Jun/2016:17:03:45 -0500] "GET /GameSpeed/home HTTP/1.1" 404 979
0:0:0:0:0:0:0:1 - - [02/Jun/2016:17:03:52 -0500] "GET /GameSpeed/Home.jsp HTTP/1.1" 200 5078
0:0:0:0:0:0:0:1 - - [02/Jun/2016:17:03:52 -0500] "GET /GameSpeed/stylesheet.css HTTP/1.1" 404 999
0:0:0:0:0:0:0:1 - - [02/Jun/2016:17:03:52 -0500] "GET /GameSpeed/autocomplete.js HTTP/1.1" 404 1001
0:0:0:0:0:0:0:1 - - [02/Jun/2016:17:03:52 -0500] "GET /GameSpeed/javascript.js HTTP/1.1" 304 -
0:0:0:0:0:0:0:1 - - [02/Jun/2016:17:03:55 -0500] "GET /GameSpeed/ConsoleList.jsp HTTP/1.1" 200 8764
0:0:0:0:0:0:0:1 - - [02/Jun/2016:17:03:55 -0500] "GET /GameSpeed/autocomplete.js HTTP/1.1" 404 1001
0:0:0:0:0:0:0:1 - - [02/Jun/2016:17:04:05 -0500] "GET /GameSpeed/ConsoleList.jsp HTTP/1.1" 200 8764
0:0:0:0:0:0:0:1 - - [02/Jun/2016:17:04:06 -0500] "GET /GameSpeed/autocomplete.js HTTP/1.1" 404 1001
0:0:0:0:0:0:0:1 - - [02/Jun/2016:17:04:07 -0500] "GET /GameSpeed/Home.jsp HTTP/1.1" 200 5078
0:0:0:0:0:0:0:1 - - [02/Jun/2016:17:04:07 -0500] "GET /GameSpeed/stylesheet.css HTTP/1.1" 404 999
0:0:0:0:0:0:0:1 - - [02/Jun/2016:17:04:07 -0500] "GET /GameSpeed/autocomplete.js HTTP/1.1" 404 1001
0:0:0:0:0:0:0:1 - - [02/Jun/2016:17:04:08 -0500] "GET /GameSpeed/AutoCompleteServlet?action=complete&id=x HTTP/1.1" 200 181
0:0:0:0:0:0:0:1 - - [02/Jun/2016:17:04:39 -0500] "GET /GameSpeed/AutoCompleteServlet?action=complete&id= HTTP/1.1" 204 -
0:0:0:0:0:0:0:1 - - [02/Jun/2016:17:05:05 -0500] "GET /GameSpeed/site_header.jsp HTTP/1.1" 200 2283
0:0:0:0:0:0:0:1 - - [02/Jun/2016:17:05:05 -0500] "GET /GameSpeed/stylesheet.css HTTP/1.1" 404 999
0:0:0:0:0:0:0:1 - - [02/Jun/2016:17:05:05 -0500] "GET /GameSpeed/autocomplete.js HTTP/1.1" 404 1001
0:0:0:0:0:0:0:1 - - [02/Jun/2016:17:05:11 -0500] "GET /GameSpeed/AutoCompleteServlet?action=complete&id=x HTTP/1.1" 200 181
0:0:0:0:0:0:0:1 - - [02/Jun/2016:17:05:33 -0500] "GET /GameSpeed/searchjsp HTTP/1.1" 404 989
0:0:0:0:0:0:0:1 - - [02/Jun/2016:17:05:38 -0500] "GET /GameSpeed/search./jsp HTTP/1.1" 404 993
0:0:0:0:0:0:0:1 - - [02/Jun/2016:17:05:43 -0500] "GET /GameSpeed/search.jsp HTTP/1.1" 200 1598
0:0:0:0:0:0:0:1 - - [02/Jun/2016:17:05:43 -0500] "GET /GameSpeed/stylesheet.css HTTP/1.1" 404 999
0:0:0:0:0:0:0:1 - - [02/Jun/2016:17:05:46 -0500] "GET /GameSpeed/AutoCompleteServlet?action=complete&id=x HTTP/1.1" 200 181
0:0:0:0:0:0:0:1 - - [02/Jun/2016:17:05:51 -0500] "GET /GameSpeed/AutoCompleteServlet?action=complete&id= HTTP/1.1" 204 -
0:0:0:0:0:0:0:1 - - [02/Jun/2016:17:05:52 -0500] "GET /GameSpeed/AutoCompleteServlet?action=complete&id=p HTTP/1.1" 200 165
0:0:0:0:0:0:0:1 - - [02/Jun/2016:17:12:41 -0500] "GET /ajax-my-app HTTP/1.1" 302 -
0:0:0:0:0:0:0:1 - - [02/Jun/2016:17:12:41 -0500] "GET /ajax-my-app/ HTTP/1.1" 200 1592
0:0:0:0:0:0:0:1 - - [02/Jun/2016:17:12:44 -0500] "GET /ajax-my-app/autocomplete?action=complete&id=d HTTP/1.1" 200 387
0:0:0:0:0:0:0:1 - - [02/Jun/2016:17:12:48 -0500] "GET /ajax-my-app/autocomplete?action=lookup&id=12 HTTP/1.1" 200 675
0:0:0:0:0:0:0:1 - - [02/Jun/2016:17:12:55 -0500] "GET /ajax-my-app/autocomplete?action=complete&id= HTTP/1.1" 204 -
0:0:0:0:0:0:0:1 - - [02/Jun/2016:17:12:55 -0500] "GET /ajax-my-app/autocomplete?action=complete&id=d HTTP/1.1" 200 387
0:0:0:0:0:0:0:1 - - [02/Jun/2016:17:13:46 -0500] "GET /GameSpeed/Home.jsp HTTP/1.1" 200 5078
0:0:0:0:0:0:0:1 - - [02/Jun/2016:17:13:46 -0500] "GET /GameSpeed/javascript.js HTTP/1.1" 304 -
0:0:0:0:0:0:0:1 - - [02/Jun/2016:17:13:46 -0500] "GET /GameSpeed/stylesheet.css HTTP/1.1" 404 999
0:0:0:0:0:0:0:1 - - [02/Jun/2016:17:13:46 -0500] "GET /GameSpeed/autocomplete.js HTTP/1.1" 404 1001
0:0:0:0:0:0:0:1 - - [02/Jun/2016:17:13:49 -0500] "GET /GameSpeed/ConsoleList.jsp HTTP/1.1" 200 8764
0:0:0:0:0:0:0:1 - - [02/Jun/2016:17:13:49 -0500] "GET /GameSpeed/autocomplete.js HTTP/1.1" 404 1001
0:0:0:0:0:0:0:1 - - [02/Jun/2016:17:13:51 -0500] "GET /GameSpeed/Home.jsp HTTP/1.1" 200 5078
0:0:0:0:0:0:0:1 - - [02/Jun/2016:17:13:51 -0500] "GET /GameSpeed/stylesheet.css HTTP/1.1" 404 999
0:0:0:0:0:0:0:1 - - [02/Jun/2016:17:13:51 -0500] "GET /GameSpeed/autocomplete.js HTTP/1.1" 404 1001
0:0:0:0:0:0:0:1 - - [02/Jun/2016:17:14:05 -0500] "GET /GameSpeed/search.jsp HTTP/1.1" 200 1598
0:0:0:0:0:0:0:1 - - [02/Jun/2016:17:14:05 -0500] "GET /GameSpeed/stylesheet.css HTTP/1.1" 404 999
0:0:0:0:0:0:0:1 - - [02/Jun/2016:17:14:08 -0500] "GET /GameSpeed/AutoCompleteServlet?action=complete&id=x HTTP/1.1" 204 -
0:0:0:0:0:0:0:1 - - [02/Jun/2016:17:14:15 -0500] "GET /GameSpeed/AutoCompleteServlet?action=complete&id=xb HTTP/1.1" 204 -
0:0:0:0:0:0:0:1 - - [02/Jun/2016:17:14:26 -0500] "GET /GameSpeed/ConsoleList.jsp HTTP/1.1" 200 8764
0:0:0:0:0:0:0:1 - - [02/Jun/2016:17:14:26 -0500] "GET /GameSpeed/autocomplete.js HTTP/1.1" 404 1001
0:0:0:0:0:0:0:1 - - [02/Jun/2016:17:14:35 -0500] "GET /GameSpeed/search.jsp HTTP/1.1" 200 1598
0:0:0:0:0:0:0:1 - - [02/Jun/2016:17:14:35 -0500] "GET /GameSpeed/stylesheet.css HTTP/1.1" 404 999
0:0:0:0:0:0:0:1 - - [02/Jun/2016:17:14:37 -0500] "GET /GameSpeed/AutoCompleteServlet?action=complete&id=x HTTP/1.1" 200 181
0:0:0:0:0:0:0:1 - - [02/Jun/2016:17:14:46 -0500] "GET /GameSpeed/AutoCompleteServlet?action=complete&id=xb HTTP/1.1" 200 181
0:0:0:0:0:0:0:1 - - [02/Jun/2016:17:14:46 -0500] "GET /GameSpeed/AutoCompleteServlet?action=complete&id=xbo HTTP/1.1" 200 181
0:0:0:0:0:0:0:1 - - [02/Jun/2016:17:14:46 -0500] "GET /GameSpeed/AutoCompleteServlet?action=complete&id=xbox HTTP/1.1" 200 181
0:0:0:0:0:0:0:1 - - [02/Jun/2016:17:14:47 -0500] "GET /GameSpeed/AutoCompleteServlet?action=complete&id=xbox1 HTTP/1.1" 200 100
0:0:0:0:0:0:0:1 - - [02/Jun/2016:17:14:47 -0500] "GET /GameSpeed/AutoCompleteServlet? HTTP/1.1" 500 1357
0:0:0:0:0:0:0:1 - - [02/Jun/2016:17:18:02 -0500] "GET /GameSpeed/ConsoleList.jsp HTTP/1.1" 200 8764
0:0:0:0:0:0:0:1 - - [02/Jun/2016:17:18:02 -0500] "GET /GameSpeed/autocomplete.js HTTP/1.1" 404 1001
0:0:0:0:0:0:0:1 - - [02/Jun/2016:17:18:15 -0500] "GET /GameSpeed/search.jsp HTTP/1.1" 200 1598
0:0:0:0:0:0:0:1 - - [02/Jun/2016:17:18:15 -0500] "GET /GameSpeed/stylesheet.css HTTP/1.1" 404 999
0:0:0:0:0:0:0:1 - - [02/Jun/2016:17:18:15 -0500] "GET /GameSpeed/javascript.js HTTP/1.1" 304 -
0:0:0:0:0:0:0:1 - - [02/Jun/2016:17:18:18 -0500] "GET /GameSpeed/AutoCompleteServlet?action=complete&id=x HTTP/1.1" 200 181
0:0:0:0:0:0:0:1 - - [02/Jun/2016:17:21:49 -0500] "GET /GameSpeed/AutoCompleteServlet?action=complete&id=s HTTP/1.1" 200 672
0:0:0:0:0:0:0:1 - - [02/Jun/2016:17:21:51 -0500] "GET /GameSpeed/AutoCompleteServlet?action=complete&id= HTTP/1.1" 204 -
0:0:0:0:0:0:0:1 - - [02/Jun/2016:17:21:51 -0500] "GET /GameSpeed/AutoCompleteServlet?action=complete&id=x HTTP/1.1" 200 181
0:0:0:0:0:0:0:1 - - [02/Jun/2016:17:21:56 -0500] "GET /GameSpeed/AutoCompleteServlet? HTTP/1.1" 500 1357
0:0:0:0:0:0:0:1 - - [02/Jun/2016:17:22:18 -0500] "GET /GameSpeed/Home.jsp HTTP/1.1" 302 -
0:0:0:0:0:0:0:1 - - [02/Jun/2016:17:22:18 -0500] "GET /GameSpeed/Login.jsp HTTP/1.1" 200 1206
0:0:0:0:0:0:0:1 - - [02/Jun/2016:17:22:21 -0500] "POST /GameSpeed/Login.jsp HTTP/1.1" 302 -
0:0:0:0:0:0:0:1 - - [02/Jun/2016:17:22:21 -0500] "GET /GameSpeed/Home.jsp HTTP/1.1" 200 5078
0:0:0:0:0:0:0:1 - - [02/Jun/2016:17:22:21 -0500] "GET /GameSpeed/javascript.js HTTP/1.1" 200 3485
0:0:0:0:0:0:0:1 - - [02/Jun/2016:17:22:22 -0500] "GET /GameSpeed/stylesheet.css HTTP/1.1" 404 999
0:0:0:0:0:0:0:1 - - [02/Jun/2016:17:22:22 -0500] "GET /GameSpeed/style.css HTTP/1.1" 200 8724
0:0:0:0:0:0:0:1 - - [02/Jun/2016:17:22:22 -0500] "GET /GameSpeed/autocomplete.js HTTP/1.1" 404 1001
0:0:0:0:0:0:0:1 - - [02/Jun/2016:17:22:22 -0500] "GET /GameSpeed/images/site/GameON.jpg HTTP/1.1" 200 66002
0:0:0:0:0:0:0:1 - - [02/Jun/2016:17:22:22 -0500] "GET /GameSpeed/images/site/consoles.png HTTP/1.1" 200 19957
0:0:0:0:0:0:0:1 - - [02/Jun/2016:17:22:22 -0500] "GET /GameSpeed/images/consoles/xbox1.jpg HTTP/1.1" 200 16363
0:0:0:0:0:0:0:1 - - [02/Jun/2016:17:22:22 -0500] "GET /GameSpeed/images/consoles/PS4-console-bundle.jpg HTTP/1.1" 200 141387
0:0:0:0:0:0:0:1 - - [02/Jun/2016:17:22:22 -0500] "GET /GameSpeed/images/site/img07.jpg HTTP/1.1" 200 387
0:0:0:0:0:0:0:1 - - [02/Jun/2016:17:22:22 -0500] "GET /GameSpeed/images/site/img03.jpg HTTP/1.1" 200 1942
0:0:0:0:0:0:0:1 - - [02/Jun/2016:17:22:22 -0500] "GET /GameSpeed/images/site/img04.jpg HTTP/1.1" 200 5590
0:0:0:0:0:0:0:1 - - [02/Jun/2016:17:22:22 -0500] "GET /GameSpeed/images/site/img06.jpg HTTP/1.1" 200 314
0:0:0:0:0:0:0:1 - - [02/Jun/2016:17:22:22 -0500] "GET /GameSpeed/images/site/img02.jpg HTTP/1.1" 200 716
0:0:0:0:0:0:0:1 - - [02/Jun/2016:17:22:23 -0500] "GET /GameSpeed/ConsoleList.jsp HTTP/1.1" 200 8764
0:0:0:0:0:0:0:1 - - [02/Jun/2016:17:22:23 -0500] "GET /GameSpeed/autocomplete.js HTTP/1.1" 404 1001
0:0:0:0:0:0:0:1 - - [02/Jun/2016:17:22:23 -0500] "GET /GameSpeed/images/consoles/ps3.jpg HTTP/1.1" 200 4628
0:0:0:0:0:0:0:1 - - [02/Jun/2016:17:22:23 -0500] "GET /GameSpeed/images/consoles/wiiu.jpg HTTP/1.1" 200 4898
0:0:0:0:0:0:0:1 - - [02/Jun/2016:17:22:23 -0500] "GET /GameSpeed/images/consoles/wii.jpeg HTTP/1.1" 200 4567
0:0:0:0:0:0:0:1 - - [02/Jun/2016:17:22:23 -0500] "GET /GameSpeed/images/consoles/xbox360.jpg HTTP/1.1" 200 61584
0:0:0:0:0:0:0:1 - - [02/Jun/2016:17:22:34 -0500] "GET /GameSpeed/search.jsp HTTP/1.1" 200 1598
0:0:0:0:0:0:0:1 - - [02/Jun/2016:17:22:34 -0500] "GET /GameSpeed/stylesheet.css HTTP/1.1" 404 999
0:0:0:0:0:0:0:1 - - [02/Jun/2016:17:22:36 -0500] "GET /GameSpeed/AutoCompleteServlet?action=complete&id=x HTTP/1.1" 200 181
0:0:0:0:0:0:0:1 - - [02/Jun/2016:17:22:46 -0500] "GET /GameSpeed/AutoCompleteServlet?action=complete&id=p HTTP/1.1" 200 165
0:0:0:0:0:0:0:1 - - [02/Jun/2016:17:23:13 -0500] "GET /GameSpeed/AutoCompleteServlet?action=complete&id=x HTTP/1.1" 200 181
0:0:0:0:0:0:0:1 - - [02/Jun/2016:17:23:18 -0500] "GET /GameSpeed/AutoCompleteServlet?action=complete&id=xb HTTP/1.1" 200 181
0:0:0:0:0:0:0:1 - - [02/Jun/2016:17:29:39 -0500] "GET /GameSpeed/ConsoleList.jsp HTTP/1.1" 200 8764
0:0:0:0:0:0:0:1 - - [02/Jun/2016:17:29:39 -0500] "GET /GameSpeed/autocomplete.js HTTP/1.1" 404 1001
0:0:0:0:0:0:0:1 - - [02/Jun/2016:17:29:39 -0500] "GET /GameSpeed/style.css HTTP/1.1" 200 8724
0:0:0:0:0:0:0:1 - - [02/Jun/2016:17:29:39 -0500] "GET /GameSpeed/images/site/GameON.jpg HTTP/1.1" 200 66002
0:0:0:0:0:0:0:1 - - [02/Jun/2016:17:29:39 -0500] "GET /GameSpeed/images/consoles/xbox1.jpg HTTP/1.1" 200 16363
0:0:0:0:0:0:0:1 - - [02/Jun/2016:17:29:39 -0500] "GET /GameSpeed/images/consoles/ps3.jpg HTTP/1.1" 200 4628
0:0:0:0:0:0:0:1 - - [02/Jun/2016:17:29:39 -0500] "GET /GameSpeed/images/consoles/wiiu.jpg HTTP/1.1" 200 4898
0:0:0:0:0:0:0:1 - - [02/Jun/2016:17:29:39 -0500] "GET /GameSpeed/images/consoles/xbox360.jpg HTTP/1.1" 200 61584
0:0:0:0:0:0:0:1 - - [02/Jun/2016:17:29:39 -0500] "GET /GameSpeed/images/consoles/PS4-console-bundle.jpg HTTP/1.1" 200 141387
0:0:0:0:0:0:0:1 - - [02/Jun/2016:17:29:39 -0500] "GET /GameSpeed/images/consoles/wii.jpeg HTTP/1.1" 200 4567
0:0:0:0:0:0:0:1 - - [02/Jun/2016:17:29:39 -0500] "GET /GameSpeed/images/site/img03.jpg HTTP/1.1" 200 1942
0:0:0:0:0:0:0:1 - - [02/Jun/2016:17:29:39 -0500] "GET /GameSpeed/images/site/img07.jpg HTTP/1.1" 200 387
0:0:0:0:0:0:0:1 - - [02/Jun/2016:17:29:39 -0500] "GET /GameSpeed/images/site/img06.jpg HTTP/1.1" 200 314
0:0:0:0:0:0:0:1 - - [02/Jun/2016:17:29:39 -0500] "GET /GameSpeed/images/site/img04.jpg HTTP/1.1" 200 5590
0:0:0:0:0:0:0:1 - - [02/Jun/2016:17:29:40 -0500] "GET /favicon.ico HTTP/1.1" 200 21630
0:0:0:0:0:0:0:1 - - [02/Jun/2016:17:29:41 -0500] "GET /GameSpeed/ConsoleList.jsp HTTP/1.1" 200 8764
0:0:0:0:0:0:0:1 - - [02/Jun/2016:17:29:41 -0500] "GET /GameSpeed/autocomplete.js HTTP/1.1" 404 1001
0:0:0:0:0:0:0:1 - - [02/Jun/2016:17:29:42 -0500] "GET /GameSpeed/ConsoleList.jsp HTTP/1.1" 200 8764
0:0:0:0:0:0:0:1 - - [02/Jun/2016:17:29:42 -0500] "GET /GameSpeed/autocomplete.js HTTP/1.1" 404 1001
0:0:0:0:0:0:0:1 - - [02/Jun/2016:17:29:43 -0500] "GET /GameSpeed/Home.jsp HTTP/1.1" 302 -
0:0:0:0:0:0:0:1 - - [02/Jun/2016:17:29:43 -0500] "GET /GameSpeed/Login.jsp HTTP/1.1" 200 1206
0:0:0:0:0:0:0:1 - - [02/Jun/2016:17:29:45 -0500] "POST /GameSpeed/Login.jsp HTTP/1.1" 302 -
0:0:0:0:0:0:0:1 - - [02/Jun/2016:17:29:45 -0500] "GET /GameSpeed/Home.jsp HTTP/1.1" 200 5078
0:0:0:0:0:0:0:1 - - [02/Jun/2016:17:29:45 -0500] "GET /GameSpeed/stylesheet.css HTTP/1.1" 404 999
0:0:0:0:0:0:0:1 - - [02/Jun/2016:17:29:45 -0500] "GET /GameSpeed/autocomplete.js HTTP/1.1" 404 1001
0:0:0:0:0:0:0:1 - - [02/Jun/2016:17:29:45 -0500] "GET /GameSpeed/images/site/consoles.png HTTP/1.1" 200 19957
0:0:0:0:0:0:0:1 - - [02/Jun/2016:17:29:45 -0500] "GET /GameSpeed/javascript.js HTTP/1.1" 200 3486
0:0:0:0:0:0:0:1 - - [02/Jun/2016:17:29:45 -0500] "GET /GameSpeed/images/site/img02.jpg HTTP/1.1" 200 716
0:0:0:0:0:0:0:1 - - [02/Jun/2016:17:29:46 -0500] "GET /GameSpeed/ConsoleList.jsp HTTP/1.1" 200 8764
0:0:0:0:0:0:0:1 - - [02/Jun/2016:17:29:46 -0500] "GET /GameSpeed/autocomplete.js HTTP/1.1" 404 1001
0:0:0:0:0:0:0:1 - - [02/Jun/2016:17:29:54 -0500] "GET /GameSpeed/search.jsp HTTP/1.1" 200 1598
0:0:0:0:0:0:0:1 - - [02/Jun/2016:17:29:54 -0500] "GET /GameSpeed/stylesheet.css HTTP/1.1" 404 999
0:0:0:0:0:0:0:1 - - [02/Jun/2016:17:29:54 -0500] "GET /GameSpeed/javascript.js HTTP/1.1" 304 -
0:0:0:0:0:0:0:1 - - [02/Jun/2016:17:29:56 -0500] "GET /GameSpeed/AutoCompleteServlet?action=complete&id=x HTTP/1.1" 200 181
0:0:0:0:0:0:0:1 - - [02/Jun/2016:17:30:02 -0500] "GET /GameSpeed/AutoCompleteServlet?action=complete&id=xb HTTP/1.1" 200 181
0:0:0:0:0:0:0:1 - - [02/Jun/2016:17:32:47 -0500] "GET /GameSpeed/AutoCompleteServlet?action=complete&id=x HTTP/1.1" 200 181
0:0:0:0:0:0:0:1 - - [02/Jun/2016:17:32:52 -0500] "GET /GameSpeed/ConsoleList.jsp HTTP/1.1" 200 8764
0:0:0:0:0:0:0:1 - - [02/Jun/2016:17:32:52 -0500] "GET /GameSpeed/autocomplete.js HTTP/1.1" 404 1001
0:0:0:0:0:0:0:1 - - [02/Jun/2016:17:32:54 -0500] "GET /GameSpeed/Login.jsp HTTP/1.1" 200 1206
0:0:0:0:0:0:0:1 - - [02/Jun/2016:17:32:57 -0500] "GET /GameSpeed/ConsoleList.jsp HTTP/1.1" 200 8764
0:0:0:0:0:0:0:1 - - [02/Jun/2016:17:32:57 -0500] "GET /GameSpeed/autocomplete.js HTTP/1.1" 404 1001
0:0:0:0:0:0:0:1 - - [02/Jun/2016:17:33:00 -0500] "GET /GameSpeed/AutoCompleteServlet?action=complete&id= HTTP/1.1" 204 -
0:0:0:0:0:0:0:1 - - [02/Jun/2016:17:33:01 -0500] "GET /GameSpeed/AutoCompleteServlet?action=complete&id=p HTTP/1.1" 200 165
0:0:0:0:0:0:0:1 - - [02/Jun/2016:17:34:43 -0500] "GET /GameSpeed/ConsoleList.jsp HTTP/1.1" 200 8764
0:0:0:0:0:0:0:1 - - [02/Jun/2016:17:34:43 -0500] "GET /GameSpeed/autocomplete.js HTTP/1.1" 404 1001
0:0:0:0:0:0:0:1 - - [02/Jun/2016:17:34:51 -0500] "GET /GameSpeed/search.jsp HTTP/1.1" 200 1598
0:0:0:0:0:0:0:1 - - [02/Jun/2016:17:34:51 -0500] "GET /GameSpeed/javascript.js HTTP/1.1" 304 -
0:0:0:0:0:0:0:1 - - [02/Jun/2016:17:34:51 -0500] "GET /GameSpeed/stylesheet.css HTTP/1.1" 200 865
0:0:0:0:0:0:0:1 - - [02/Jun/2016:17:34:55 -0500] "GET /GameSpeed/AutoCompleteServlet?action=complete&id=x HTTP/1.1" 200 181
0:0:0:0:0:0:0:1 - - [02/Jun/2016:17:34:59 -0500] "GET /GameSpeed/AutoCompleteServlet?action=complete&id=xb HTTP/1.1" 200 181
0:0:0:0:0:0:0:1 - - [02/Jun/2016:17:35:02 -0500] "GET /GameSpeed/AutoCompleteServlet?action=complete&id= HTTP/1.1" 204 -
0:0:0:0:0:0:0:1 - - [02/Jun/2016:17:35:04 -0500] "GET /GameSpeed/AutoCompleteServlet?action=complete&id=p HTTP/1.1" 200 165
0:0:0:0:0:0:0:1 - - [02/Jun/2016:17:35:36 -0500] "GET /GameSpeed/AutoCompleteServlet?action=complete&id=x HTTP/1.1" 200 181
0:0:0:0:0:0:0:1 - - [02/Jun/2016:17:36:05 -0500] "GET /GameSpeed/ConsoleList.jsp HTTP/1.1" 200 8764
0:0:0:0:0:0:0:1 - - [02/Jun/2016:17:36:05 -0500] "GET /GameSpeed/autocomplete.js HTTP/1.1" 404 1001
0:0:0:0:0:0:0:1 - - [02/Jun/2016:17:36:07 -0500] "GET /GameSpeed/Home.jsp HTTP/1.1" 200 5078
0:0:0:0:0:0:0:1 - - [02/Jun/2016:17:36:07 -0500] "GET /GameSpeed/javascript.js HTTP/1.1" 304 -
0:0:0:0:0:0:0:1 - - [02/Jun/2016:17:36:07 -0500] "GET /GameSpeed/autocomplete.js HTTP/1.1" 404 1001
0:0:0:0:0:0:0:1 - - [02/Jun/2016:17:36:07 -0500] "GET /GameSpeed/stylesheet.css HTTP/1.1" 304 -
0:0:0:0:0:0:0:1 - - [02/Jun/2016:17:36:09 -0500] "GET /GameSpeed/AutoCompleteServlet?action=complete&id=x HTTP/1.1" 200 181
0:0:0:0:0:0:0:1 - - [02/Jun/2016:17:38:10 -0500] "GET /GameSpeed/AutoCompleteServlet?action=complete&id=n HTTP/1.1" 200 471
0:0:0:0:0:0:0:1 - - [02/Jun/2016:17:38:26 -0500] "GET /GameSpeed/Home.jsp HTTP/1.1" 200 5078
0:0:0:0:0:0:0:1 - - [02/Jun/2016:17:38:27 -0500] "GET /GameSpeed/stylesheet.css HTTP/1.1" 304 -
0:0:0:0:0:0:0:1 - - [02/Jun/2016:17:38:27 -0500] "GET /GameSpeed/autocomplete.js HTTP/1.1" 404 1001
0:0:0:0:0:0:0:1 - - [02/Jun/2016:17:38:27 -0500] "GET /GameSpeed/javascript.js HTTP/1.1" 200 3519
0:0:0:0:0:0:0:1 - - [02/Jun/2016:17:38:27 -0500] "GET /GameSpeed/ConsoleList.jsp HTTP/1.1" 200 8764
0:0:0:0:0:0:0:1 - - [02/Jun/2016:17:38:27 -0500] "GET /GameSpeed/autocomplete.js HTTP/1.1" 404 1001
0:0:0:0:0:0:0:1 - - [02/Jun/2016:17:38:29 -0500] "GET /GameSpeed/Home.jsp HTTP/1.1" 200 5078
0:0:0:0:0:0:0:1 - - [02/Jun/2016:17:38:29 -0500] "GET /GameSpeed/autocomplete.js HTTP/1.1" 404 1001
0:0:0:0:0:0:0:1 - - [02/Jun/2016:17:38:29 -0500] "GET /GameSpeed/javascript.js HTTP/1.1" 304 -
0:0:0:0:0:0:0:1 - - [02/Jun/2016:17:38:32 -0500] "GET /GameSpeed/AutoCompleteServlet?action=complete&id=x HTTP/1.1" 200 181
0:0:0:0:0:0:0:1 - - [02/Jun/2016:17:44:09 -0500] "GET /GameSpeed/ConsoleList.jsp HTTP/1.1" 200 8764
0:0:0:0:0:0:0:1 - - [02/Jun/2016:17:44:09 -0500] "GET /GameSpeed/autocomplete.js HTTP/1.1" 404 1001
0:0:0:0:0:0:0:1 - - [02/Jun/2016:17:44:12 -0500] "GET /GameSpeed/Home.jsp HTTP/1.1" 200 5082
0:0:0:0:0:0:0:1 - - [02/Jun/2016:17:44:12 -0500] "GET /GameSpeed/javascript.js HTTP/1.1" 304 -
0:0:0:0:0:0:0:1 - - [02/Jun/2016:17:44:12 -0500] "GET /GameSpeed/stylesheet.css HTTP/1.1" 304 -
0:0:0:0:0:0:0:1 - - [02/Jun/2016:17:44:12 -0500] "GET /GameSpeed/AutoCompleteServlet HTTP/1.1" 500 1357
0:0:0:0:0:0:0:1 - - [02/Jun/2016:17:44:14 -0500] "GET /GameSpeed/AutoCompleteServlet?action=complete&id=x HTTP/1.1" 200 181
0:0:0:0:0:0:0:1 - - [02/Jun/2016:17:44:18 -0500] "GET /GameSpeed/AutoCompleteServlet?action=complete&id= HTTP/1.1" 204 -
0:0:0:0:0:0:0:1 - - [02/Jun/2016:17:44:18 -0500] "GET /GameSpeed/AutoCompleteServlet?action=complete&id=p HTTP/1.1" 200 165
0:0:0:0:0:0:0:1 - - [02/Jun/2016:17:44:56 -0500] "GET /GameSpeed/search.jsp HTTP/1.1" 200 1598
0:0:0:0:0:0:0:1 - - [02/Jun/2016:17:44:56 -0500] "GET /GameSpeed/javascript.js HTTP/1.1" 304 -
0:0:0:0:0:0:0:1 - - [02/Jun/2016:17:44:58 -0500] "GET /GameSpeed/AutoCompleteServlet?action=complete&id=x HTTP/1.1" 200 181
0:0:0:0:0:0:0:1 - - [02/Jun/2016:17:47:17 -0500] "GET /GameSpeed/ConsoleList.jsp HTTP/1.1" 200 8764
0:0:0:0:0:0:0:1 - - [02/Jun/2016:17:47:17 -0500] "GET /GameSpeed/autocomplete.js HTTP/1.1" 404 1001
0:0:0:0:0:0:0:1 - - [02/Jun/2016:17:47:19 -0500] "GET /GameSpeed/Home.jsp HTTP/1.1" 200 5082
0:0:0:0:0:0:0:1 - - [02/Jun/2016:17:47:19 -0500] "GET /GameSpeed/stylesheet.css HTTP/1.1" 304 -
0:0:0:0:0:0:0:1 - - [02/Jun/2016:17:47:19 -0500] "GET /GameSpeed/javascript.js HTTP/1.1" 304 -
0:0:0:0:0:0:0:1 - - [02/Jun/2016:17:47:19 -0500] "GET /GameSpeed/AutoCompleteServlet HTTP/1.1" 500 1357
0:0:0:0:0:0:0:1 - - [02/Jun/2016:17:47:21 -0500] "GET /GameSpeed/AutoCompleteServlet?action=complete&id=x HTTP/1.1" 200 181
0:0:0:0:0:0:0:1 - - [02/Jun/2016:17:47:31 -0500] "GET /GameSpeed/search.jsp HTTP/1.1" 200 1598
0:0:0:0:0:0:0:1 - - [02/Jun/2016:17:47:34 -0500] "GET /GameSpeed/AutoCompleteServlet?action=complete&id=x HTTP/1.1" 200 181
0:0:0:0:0:0:0:1 - - [02/Jun/2016:17:56:20 -0500] "GET /GameSpeed/ConsoleList.jsp HTTP/1.1" 200 8764
0:0:0:0:0:0:0:1 - - [02/Jun/2016:17:56:20 -0500] "GET /GameSpeed/autocomplete.js HTTP/1.1" 404 1001
0:0:0:0:0:0:0:1 - - [02/Jun/2016:17:56:23 -0500] "GET /GameSpeed/ConsoleList.jsp HTTP/1.1" 200 8764
0:0:0:0:0:0:0:1 - - [02/Jun/2016:17:56:23 -0500] "GET /GameSpeed/autocomplete.js HTTP/1.1" 404 1001
0:0:0:0:0:0:0:1 - - [02/Jun/2016:17:56:30 -0500] "GET /GameSpeed/Home.jsp HTTP/1.1" 200 5082
0:0:0:0:0:0:0:1 - - [02/Jun/2016:17:56:30 -0500] "GET /GameSpeed/javascript.js HTTP/1.1" 304 -
0:0:0:0:0:0:0:1 - - [02/Jun/2016:17:56:30 -0500] "GET /GameSpeed/stylesheet.css HTTP/1.1" 304 -
0:0:0:0:0:0:0:1 - - [02/Jun/2016:17:56:30 -0500] "GET /GameSpeed/AutoCompleteServlet HTTP/1.1" 500 1357
0:0:0:0:0:0:0:1 - - [02/Jun/2016:17:56:34 -0500] "GET /GameSpeed/AutoCompleteServlet?action=complete&id=x HTTP/1.1" 200 181
0:0:0:0:0:0:0:1 - - [02/Jun/2016:17:56:35 -0500] "GET /GameSpeed/AutoCompleteServlet?action=complete&id=p HTTP/1.1" 200 165
0:0:0:0:0:0:0:1 - - [02/Jun/2016:17:56:41 -0500] "GET /GameSpeed/search.jsp HTTP/1.1" 200 1598
0:0:0:0:0:0:0:1 - - [02/Jun/2016:17:56:43 -0500] "GET /GameSpeed/AutoCompleteServlet?action=complete&id=x HTTP/1.1" 200 181
0:0:0:0:0:0:0:1 - - [02/Jun/2016:17:58:06 -0500] "GET /GameSpeed/AutoCompleteServlet?action=complete&id=X HTTP/1.1" 200 181
0:0:0:0:0:0:0:1 - - [02/Jun/2016:17:58:06 -0500] "GET /GameSpeed/AutoCompleteServlet?action=complete&id=X HTTP/1.1" 200 181
0:0:0:0:0:0:0:1 - - [02/Jun/2016:17:58:06 -0500] "GET /GameSpeed/AutoCompleteServlet?action=complete&id=Xb HTTP/1.1" 200 181
0:0:0:0:0:0:0:1 - - [02/Jun/2016:17:58:10 -0500] "GET /GameSpeed/AutoCompleteServlet? HTTP/1.1" 500 1357
0:0:0:0:0:0:0:1 - - [02/Jun/2016:17:58:10 -0500] "GET /GameSpeed/AutoCompleteServlet?action=complete&id=XBOX1 HTTP/1.1" 200 100
0:0:0:0:0:0:0:1 - - [02/Jun/2016:17:58:10 -0500] "GET /GameSpeed/AutoCompleteServlet?action=complete&id=Xb HTTP/1.1" 200 181
0:0:0:0:0:0:0:1 - - [02/Jun/2016:17:58:10 -0500] "GET /GameSpeed/AutoCompleteServlet?action=complete&id=XBOX1 HTTP/1.1" 200 100
0:0:0:0:0:0:0:1 - - [02/Jun/2016:18:00:16 -0500] "GET /GameSpeed/Home.jsp HTTP/1.1" 200 5082
0:0:0:0:0:0:0:1 - - [02/Jun/2016:18:00:16 -0500] "GET /GameSpeed/stylesheet.css HTTP/1.1" 304 -
0:0:0:0:0:0:0:1 - - [02/Jun/2016:18:00:16 -0500] "GET /GameSpeed/AutoCompleteServlet HTTP/1.1" 500 1357
0:0:0:0:0:0:0:1 - - [02/Jun/2016:18:00:16 -0500] "GET /GameSpeed/javascript.js HTTP/1.1" 200 3520
0:0:0:0:0:0:0:1 - - [02/Jun/2016:18:00:17 -0500] "GET /GameSpeed/ConsoleList.jsp HTTP/1.1" 200 8764
0:0:0:0:0:0:0:1 - - [02/Jun/2016:18:00:17 -0500] "GET /GameSpeed/autocomplete.js HTTP/1.1" 404 1001
0:0:0:0:0:0:0:1 - - [02/Jun/2016:18:00:18 -0500] "GET /GameSpeed/ConsoleList.jsp HTTP/1.1" 200 8764
0:0:0:0:0:0:0:1 - - [02/Jun/2016:18:00:18 -0500] "GET /GameSpeed/autocomplete.js HTTP/1.1" 404 1001
0:0:0:0:0:0:0:1 - - [02/Jun/2016:18:00:19 -0500] "GET /GameSpeed/Home.jsp HTTP/1.1" 200 5082
0:0:0:0:0:0:0:1 - - [02/Jun/2016:18:00:19 -0500] "GET /GameSpeed/javascript.js HTTP/1.1" 304 -
0:0:0:0:0:0:0:1 - - [02/Jun/2016:18:00:19 -0500] "GET /GameSpeed/AutoCompleteServlet HTTP/1.1" 500 1357
0:0:0:0:0:0:0:1 - - [02/Jun/2016:18:00:21 -0500] "GET /GameSpeed/AutoCompleteServlet?action=complete&id= HTTP/1.1" 204 -
0:0:0:0:0:0:0:1 - - [02/Jun/2016:18:00:22 -0500] "GET /GameSpeed/AutoCompleteServlet?action=complete&id=X HTTP/1.1" 200 181
0:0:0:0:0:0:0:1 - - [02/Jun/2016:18:00:22 -0500] "GET /GameSpeed/AutoCompleteServlet?action=complete&id=XB HTTP/1.1" 200 181
0:0:0:0:0:0:0:1 - - [02/Jun/2016:18:00:22 -0500] "GET /GameSpeed/AutoCompleteServlet?action=complete&id=XB HTTP/1.1" 200 181
0:0:0:0:0:0:0:1 - - [02/Jun/2016:18:00:25 -0500] "GET /GameSpeed/AutoCompleteServlet? HTTP/1.1" 500 1357
0:0:0:0:0:0:0:1 - - [02/Jun/2016:18:00:29 -0500] "GET /GameSpeed/Home.jsp HTTP/1.1" 200 5082
0:0:0:0:0:0:0:1 - - [02/Jun/2016:18:00:29 -0500] "GET /GameSpeed/javascript.js HTTP/1.1" 304 -
0:0:0:0:0:0:0:1 - - [02/Jun/2016:18:00:29 -0500] "GET /GameSpeed/AutoCompleteServlet HTTP/1.1" 500 1357
0:0:0:0:0:0:0:1 - - [02/Jun/2016:18:00:30 -0500] "GET /GameSpeed/ConsoleList.jsp HTTP/1.1" 200 8764
0:0:0:0:0:0:0:1 - - [02/Jun/2016:18:00:30 -0500] "GET /GameSpeed/autocomplete.js HTTP/1.1" 404 1001
0:0:0:0:0:0:0:1 - - [02/Jun/2016:18:00:31 -0500] "GET /GameSpeed/Home.jsp HTTP/1.1" 200 5082
0:0:0:0:0:0:0:1 - - [02/Jun/2016:18:00:31 -0500] "GET /GameSpeed/javascript.js HTTP/1.1" 304 -
0:0:0:0:0:0:0:1 - - [02/Jun/2016:18:00:31 -0500] "GET /GameSpeed/AutoCompleteServlet HTTP/1.1" 500 1357
0:0:0:0:0:0:0:1 - - [02/Jun/2016:18:00:37 -0500] "GET /GameSpeed/AutoCompleteServlet? HTTP/1.1" 500 1357
0:0:0:0:0:0:0:1 - - [02/Jun/2016:18:00:37 -0500] "GET /GameSpeed/AutoCompleteServlet?action=complete&id=XBOX HTTP/1.1" 200 181
0:0:0:0:0:0:0:1 - - [02/Jun/2016:18:00:37 -0500] "GET /GameSpeed/AutoCompleteServlet?action=complete&id=XBOX1 HTTP/1.1" 200 100
0:0:0:0:0:0:0:1 - - [02/Jun/2016:18:00:37 -0500] "GET /GameSpeed/AutoCompleteServlet?action=complete&id=X HTTP/1.1" 200 181
0:0:0:0:0:0:0:1 - - [02/Jun/2016:18:00:37 -0500] "GET /GameSpeed/AutoCompleteServlet?action=complete&id=XB HTTP/1.1" 200 181
0:0:0:0:0:0:0:1 - - [02/Jun/2016:18:01:32 -0500] "GET /GameSpeed/ConsoleList.jsp HTTP/1.1" 200 8764
0:0:0:0:0:0:0:1 - - [02/Jun/2016:18:01:33 -0500] "GET /GameSpeed/autocomplete.js HTTP/1.1" 404 1001
0:0:0:0:0:0:0:1 - - [02/Jun/2016:18:01:34 -0500] "GET /GameSpeed/Home.jsp HTTP/1.1" 200 5082
0:0:0:0:0:0:0:1 - - [02/Jun/2016:18:01:34 -0500] "GET /GameSpeed/javascript.js HTTP/1.1" 200 3506
0:0:0:0:0:0:0:1 - - [02/Jun/2016:18:01:34 -0500] "GET /GameSpeed/AutoCompleteServlet HTTP/1.1" 500 1357
0:0:0:0:0:0:0:1 - - [02/Jun/2016:18:01:36 -0500] "GET /GameSpeed/AutoCompleteServlet?action=complete&id=x HTTP/1.1" 200 181
0:0:0:0:0:0:0:1 - - [02/Jun/2016:18:01:41 -0500] "GET /GameSpeed/AutoCompleteServlet?action=lookup&id=001 HTTP/1.1" 200 -
0:0:0:0:0:0:0:1 - - [02/Jun/2016:18:01:46 -0500] "GET /GameSpeed/AutoCompleteServlet?action=complete&id=p HTTP/1.1" 200 165
0:0:0:0:0:0:0:1 - - [02/Jun/2016:18:01:49 -0500] "GET /GameSpeed/AutoCompleteServlet?action=lookup&id=003 HTTP/1.1" 200 -
0:0:0:0:0:0:0:1 - - [02/Jun/2016:18:05:22 -0500] "GET /GameSpeed/ConsoleList.jsp HTTP/1.1" 200 8764
0:0:0:0:0:0:0:1 - - [02/Jun/2016:18:05:23 -0500] "GET /GameSpeed/ConsoleList.jsp HTTP/1.1" 200 8764
0:0:0:0:0:0:0:1 - - [02/Jun/2016:18:05:23 -0500] "GET /GameSpeed/autocomplete.js HTTP/1.1" 404 1001
0:0:0:0:0:0:0:1 - - [02/Jun/2016:18:05:27 -0500] "GET /GameSpeed/Home.jsp HTTP/1.1" 200 5082
0:0:0:0:0:0:0:1 - - [02/Jun/2016:18:05:27 -0500] "GET /GameSpeed/javascript.js HTTP/1.1" 304 -
0:0:0:0:0:0:0:1 - - [02/Jun/2016:18:05:27 -0500] "GET /GameSpeed/stylesheet.css HTTP/1.1" 304 -
0:0:0:0:0:0:0:1 - - [02/Jun/2016:18:05:27 -0500] "GET /GameSpeed/AutoCompleteServlet HTTP/1.1" 500 1357
0:0:0:0:0:0:0:1 - - [02/Jun/2016:18:05:29 -0500] "GET /GameSpeed/AutoCompleteServlet?action=complete&id=p HTTP/1.1" 200 165
0:0:0:0:0:0:0:1 - - [02/Jun/2016:18:05:31 -0500] "GET /GameSpeed/AutoCompleteServlet?action=lookup&id=004 HTTP/1.1" 200 -
0:0:0:0:0:0:0:1 - - [02/Jun/2016:18:07:47 -0500] "GET /GameSpeed/Home.jsp HTTP/1.1" 200 5082
0:0:0:0:0:0:0:1 - - [02/Jun/2016:18:07:48 -0500] "GET /GameSpeed/AutoCompleteServlet HTTP/1.1" 500 1357
0:0:0:0:0:0:0:1 - - [02/Jun/2016:18:07:48 -0500] "GET /GameSpeed/javascript.js HTTP/1.1" 200 3508
0:0:0:0:0:0:0:1 - - [02/Jun/2016:18:07:48 -0500] "GET /GameSpeed/ConsoleList.jsp HTTP/1.1" 200 8764
0:0:0:0:0:0:0:1 - - [02/Jun/2016:18:07:48 -0500] "GET /GameSpeed/autocomplete.js HTTP/1.1" 404 1001
0:0:0:0:0:0:0:1 - - [02/Jun/2016:18:07:49 -0500] "GET /GameSpeed/Home.jsp HTTP/1.1" 200 5082
0:0:0:0:0:0:0:1 - - [02/Jun/2016:18:07:49 -0500] "GET /GameSpeed/javascript.js HTTP/1.1" 304 -
0:0:0:0:0:0:0:1 - - [02/Jun/2016:18:07:49 -0500] "GET /GameSpeed/AutoCompleteServlet HTTP/1.1" 500 1357
0:0:0:0:0:0:0:1 - - [02/Jun/2016:18:07:53 -0500] "GET /GameSpeed/AutoCompleteServlet?action=complete&id=p HTTP/1.1" 200 165
0:0:0:0:0:0:0:1 - - [02/Jun/2016:18:07:57 -0500] "GET /GameSpeed/AutoCompleteServlet?action=lookup&id=PS4 HTTP/1.1" 200 -
0:0:0:0:0:0:0:1 - - [02/Jun/2016:18:08:30 -0500] "GET /ajax-my-app HTTP/1.1" 302 -
0:0:0:0:0:0:0:1 - - [02/Jun/2016:18:08:30 -0500] "GET /ajax-my-app/ HTTP/1.1" 200 1592
0:0:0:0:0:0:0:1 - - [02/Jun/2016:18:08:30 -0500] "GET /ajax-my-app/javascript.js HTTP/1.1" 200 3559
0:0:0:0:0:0:0:1 - - [02/Jun/2016:18:08:30 -0500] "GET /ajax-my-app/stylesheet.css HTTP/1.1" 200 803
0:0:0:0:0:0:0:1 - - [02/Jun/2016:18:08:32 -0500] "GET /ajax-my-app/autocomplete?action=complete&id=c HTTP/1.1" 200 917
0:0:0:0:0:0:0:1 - - [02/Jun/2016:18:08:40 -0500] "GET /ajax-my-app/autocomplete?action=lookup&id=44 HTTP/1.1" 200 674
0:0:0:0:0:0:0:1 - - [02/Jun/2016:18:08:57 -0500] "GET /GameSpeed/Home.jsp HTTP/1.1" 200 5082
0:0:0:0:0:0:0:1 - - [02/Jun/2016:18:08:57 -0500] "GET /GameSpeed/javascript.js HTTP/1.1" 304 -
0:0:0:0:0:0:0:1 - - [02/Jun/2016:18:08:57 -0500] "GET /GameSpeed/stylesheet.css HTTP/1.1" 304 -
0:0:0:0:0:0:0:1 - - [02/Jun/2016:18:08:57 -0500] "GET /GameSpeed/AutoCompleteServlet HTTP/1.1" 500 1357
0:0:0:0:0:0:0:1 - - [02/Jun/2016:18:08:59 -0500] "GET /GameSpeed/ConsoleList.jsp HTTP/1.1" 200 8764
0:0:0:0:0:0:0:1 - - [02/Jun/2016:18:08:59 -0500] "GET /GameSpeed/autocomplete.js HTTP/1.1" 404 1001
0:0:0:0:0:0:0:1 - - [02/Jun/2016:18:09:00 -0500] "GET /GameSpeed/Home.jsp HTTP/1.1" 200 5082
0:0:0:0:0:0:0:1 - - [02/Jun/2016:18:09:00 -0500] "GET /GameSpeed/AutoCompleteServlet HTTP/1.1" 500 1357
0:0:0:0:0:0:0:1 - - [02/Jun/2016:18:09:02 -0500] "GET /GameSpeed/AutoCompleteServlet?action=complete&id=x HTTP/1.1" 200 181
0:0:0:0:0:0:0:1 - - [02/Jun/2016:18:09:04 -0500] "GET /GameSpeed/AutoCompleteServlet?action=lookup&id=XBOX1 HTTP/1.1" 200 -
0:0:0:0:0:0:0:1 - - [02/Jun/2016:18:09:10 -0500] "GET /GameSpeed/AutoCompleteServlet?action=complete&id= HTTP/1.1" 204 -
0:0:0:0:0:0:0:1 - - [02/Jun/2016:18:09:10 -0500] "GET /GameSpeed/AutoCompleteServlet?action=complete&id=x HTTP/1.1" 200 181
0:0:0:0:0:0:0:1 - - [02/Jun/2016:18:09:23 -0500] "GET /GameSpeed/AutoCompleteServlet?action=lookup&id=XBOX1 HTTP/1.1" 200 -
0:0:0:0:0:0:0:1 - - [02/Jun/2016:18:16:50 -0500] "GET /GameSpeed/AutoCompleteServlet?action=complete&id=XBOX HTTP/1.1" 200 181
0:0:0:0:0:0:0:1 - - [02/Jun/2016:18:16:50 -0500] "GET /GameSpeed/AutoCompleteServlet?action=complete&id=XBO HTTP/1.1" 200 181
0:0:0:0:0:0:0:1 - - [02/Jun/2016:18:16:51 -0500] "GET /GameSpeed/AutoCompleteServlet?action=complete&id=XB HTTP/1.1" 200 181
0:0:0:0:0:0:0:1 - - [02/Jun/2016:18:16:51 -0500] "GET /GameSpeed/AutoCompleteServlet?action=complete&id=X HTTP/1.1" 200 181
0:0:0:0:0:0:0:1 - - [02/Jun/2016:18:16:51 -0500] "GET /GameSpeed/AutoCompleteServlet?action=complete&id= HTTP/1.1" 204 -
0:0:0:0:0:0:0:1 - - [02/Jun/2016:18:16:52 -0500] "GET /GameSpeed/AutoCompleteServlet?action=complete&id=m HTTP/1.1" 200 452
0:0:0:0:0:0:0:1 - - [02/Jun/2016:18:16:54 -0500] "GET /GameSpeed/AutoCompleteServlet?action=lookup&id=Controller HTTP/1.1" 200 -
0:0:0:0:0:0:0:1 - - [02/Jun/2016:18:17:04 -0500] "GET /GameSpeed/AutoCompleteServlet?action=complete&id=m HTTP/1.1" 200 452
0:0:0:0:0:0:0:1 - - [02/Jun/2016:18:17:07 -0500] "GET /GameSpeed/AutoCompleteServlet?action=lookup&id=Turtle%20Beach%20Headset HTTP/1.1" 200 -
0:0:0:0:0:0:0:1 - - [02/Jun/2016:18:17:07 -0500] "GET /GameSpeed/AutoCompleteServlet?action=complete&id=mi HTTP/1.1" 200 452
0:0:0:0:0:0:0:1 - - [02/Jun/2016:18:17:14 -0500] "GET /GameSpeed/AutoCompleteServlet?action=complete&id=m HTTP/1.1" 200 452
0:0:0:0:0:0:0:1 - - [02/Jun/2016:18:17:18 -0500] "GET /GameSpeed/AutoCompleteServlet?action=lookup&id=XBOX1 HTTP/1.1" 200 -
0:0:0:0:0:0:0:1 - - [02/Jun/2016:18:18:07 -0500] "GET /GameSpeed/AutoCompleteServlet?action=complete&id= HTTP/1.1" 204 -
0:0:0:0:0:0:0:1 - - [02/Jun/2016:18:18:08 -0500] "GET /GameSpeed/AutoCompleteServlet?action=complete&id=m HTTP/1.1" 204 -
0:0:0:0:0:0:0:1 - - [02/Jun/2016:18:18:08 -0500] "GET /GameSpeed/AutoCompleteServlet?action=complete&id= HTTP/1.1" 204 -
0:0:0:0:0:0:0:1 - - [02/Jun/2016:18:18:11 -0500] "GET /GameSpeed/AutoCompleteServlet?action=complete&id=x HTTP/1.1" 204 -
0:0:0:0:0:0:0:1 - - [02/Jun/2016:18:18:13 -0500] "GET /GameSpeed/ConsoleList.jsp HTTP/1.1" 200 8764
0:0:0:0:0:0:0:1 - - [02/Jun/2016:18:18:13 -0500] "GET /GameSpeed/autocomplete.js HTTP/1.1" 404 1001
0:0:0:0:0:0:0:1 - - [02/Jun/2016:18:18:15 -0500] "GET /GameSpeed/Home.jsp HTTP/1.1" 200 5082
0:0:0:0:0:0:0:1 - - [02/Jun/2016:18:18:15 -0500] "GET /GameSpeed/stylesheet.css HTTP/1.1" 304 -
0:0:0:0:0:0:0:1 - - [02/Jun/2016:18:18:15 -0500] "GET /GameSpeed/javascript.js HTTP/1.1" 304 -
0:0:0:0:0:0:0:1 - - [02/Jun/2016:18:18:15 -0500] "GET /GameSpeed/AutoCompleteServlet HTTP/1.1" 500 1357
0:0:0:0:0:0:0:1 - - [02/Jun/2016:18:18:16 -0500] "GET /GameSpeed/AutoCompleteServlet?action=complete&id=x HTTP/1.1" 200 181
0:0:0:0:0:0:0:1 - - [02/Jun/2016:18:18:19 -0500] "GET /GameSpeed/AutoCompleteServlet?action=lookup&id=XBOX1 HTTP/1.1" 200 -
0:0:0:0:0:0:0:1 - - [02/Jun/2016:18:20:04 -0500] "GET /GameSpeed/ConsoleList.jsp HTTP/1.1" 200 8764
0:0:0:0:0:0:0:1 - - [02/Jun/2016:18:20:04 -0500] "GET /GameSpeed/autocomplete.js HTTP/1.1" 404 1001
0:0:0:0:0:0:0:1 - - [02/Jun/2016:18:20:05 -0500] "GET /GameSpeed/Home.jsp HTTP/1.1" 200 5082
0:0:0:0:0:0:0:1 - - [02/Jun/2016:18:20:05 -0500] "GET /GameSpeed/javascript.js HTTP/1.1" 304 -
0:0:0:0:0:0:0:1 - - [02/Jun/2016:18:20:05 -0500] "GET /GameSpeed/AutoCompleteServlet HTTP/1.1" 500 1357
0:0:0:0:0:0:0:1 - - [02/Jun/2016:18:20:07 -0500] "GET /GameSpeed/AutoCompleteServlet?action=complete&id=z HTTP/1.1" 204 -
0:0:0:0:0:0:0:1 - - [02/Jun/2016:18:20:08 -0500] "GET /GameSpeed/AutoCompleteServlet?action=complete&id= HTTP/1.1" 204 -
0:0:0:0:0:0:0:1 - - [02/Jun/2016:18:20:08 -0500] "GET /GameSpeed/AutoCompleteServlet?action=complete&id=x HTTP/1.1" 200 181
0:0:0:0:0:0:0:1 - - [02/Jun/2016:18:20:09 -0500] "GET /GameSpeed/AutoCompleteServlet?action=lookup&id=XBOX360 HTTP/1.1" 200 -
0:0:0:0:0:0:0:1 - - [02/Jun/2016:18:22:03 -0500] "GET /GameSpeed/ConsoleList.jsp HTTP/1.1" 200 8764
0:0:0:0:0:0:0:1 - - [02/Jun/2016:18:22:03 -0500] "GET /GameSpeed/autocomplete.js HTTP/1.1" 404 1001
0:0:0:0:0:0:0:1 - - [02/Jun/2016:18:22:04 -0500] "GET /GameSpeed/Home.jsp HTTP/1.1" 200 5082
0:0:0:0:0:0:0:1 - - [02/Jun/2016:18:22:04 -0500] "GET /GameSpeed/javascript.js HTTP/1.1" 304 -
0:0:0:0:0:0:0:1 - - [02/Jun/2016:18:22:04 -0500] "GET /GameSpeed/AutoCompleteServlet HTTP/1.1" 500 1357
0:0:0:0:0:0:0:1 - - [02/Jun/2016:18:22:06 -0500] "GET /GameSpeed/AutoCompleteServlet?action=complete&id=x HTTP/1.1" 200 181
0:0:0:0:0:0:0:1 - - [02/Jun/2016:18:22:08 -0500] "GET /GameSpeed/AutoCompleteServlet?action=lookup&id=XBOX1 HTTP/1.1" 200 590
