0:0:0:0:0:0:0:1 - - [20/Apr/2016:15:29:26 -0500] "GET / HTTP/1.1" 200 12834
0:0:0:0:0:0:0:1 - - [20/Apr/2016:15:29:26 -0500] "GET /tomcat.css HTTP/1.1" 200 5926
0:0:0:0:0:0:0:1 - - [20/Apr/2016:15:29:26 -0500] "GET /tomcat.png HTTP/1.1" 200 5103
0:0:0:0:0:0:0:1 - - [20/Apr/2016:15:29:26 -0500] "GET /bg-middle.png HTTP/1.1" 200 1918
0:0:0:0:0:0:0:1 - - [20/Apr/2016:15:29:26 -0500] "GET /bg-upper.png HTTP/1.1" 200 3103
0:0:0:0:0:0:0:1 - - [20/Apr/2016:15:29:26 -0500] "GET /bg-nav.png HTTP/1.1" 200 1401
0:0:0:0:0:0:0:1 - - [20/Apr/2016:15:29:26 -0500] "GET /asf-logo.png HTTP/1.1" 200 17811
0:0:0:0:0:0:0:1 - - [20/Apr/2016:15:29:26 -0500] "GET /bg-button.png HTTP/1.1" 200 713
0:0:0:0:0:0:0:1 - - [20/Apr/2016:15:29:26 -0500] "GET /favicon.ico HTTP/1.1" 200 21630
0:0:0:0:0:0:0:1 - - [20/Apr/2016:15:30:38 -0500] "GET /GameSpeed4U/Accessory HTTP/1.1" 404 993
127.0.0.1 - - [20/Apr/2016:15:31:12 -0500] "GET /GameSpeed4U/site_header.html HTTP/1.1" 200 1866
127.0.0.1 - - [20/Apr/2016:15:31:12 -0500] "GET /GameSpeed4U/site_sidebar.html HTTP/1.1" 200 858
127.0.0.1 - - [20/Apr/2016:15:31:12 -0500] "GET /GameSpeed4U/site_home.html HTTP/1.1" 200 1644
127.0.0.1 - - [20/Apr/2016:15:31:12 -0500] "GET /GameSpeed4U/site_footer.html HTTP/1.1" 200 205
0:0:0:0:0:0:0:1 - - [20/Apr/2016:15:31:12 -0500] "GET /GameSpeed4U/Home HTTP/1.1" 200 4674
0:0:0:0:0:0:0:1 - - [20/Apr/2016:15:31:12 -0500] "GET /GameSpeed4U/autocomplete.js HTTP/1.1" 404 1005
0:0:0:0:0:0:0:1 - - [20/Apr/2016:15:31:12 -0500] "GET /GameSpeed4U/style.css HTTP/1.1" 200 8724
0:0:0:0:0:0:0:1 - - [20/Apr/2016:15:31:12 -0500] "GET /GameSpeed4U/images/site/GameON.jpg HTTP/1.1" 200 66002
0:0:0:0:0:0:0:1 - - [20/Apr/2016:15:31:12 -0500] "GET /GameSpeed4U/images/consoles/xbox1.jpg HTTP/1.1" 200 16363
0:0:0:0:0:0:0:1 - - [20/Apr/2016:15:31:12 -0500] "GET /GameSpeed4U/images/site/consoles.png HTTP/1.1" 200 19957
0:0:0:0:0:0:0:1 - - [20/Apr/2016:15:31:12 -0500] "GET /GameSpeed4U/images/consoles/PS4-console-bundle.jpg HTTP/1.1" 200 141387
0:0:0:0:0:0:0:1 - - [20/Apr/2016:15:31:12 -0500] "GET /GameSpeed4U/images/site/img03.jpg HTTP/1.1" 200 1942
0:0:0:0:0:0:0:1 - - [20/Apr/2016:15:31:12 -0500] "GET /GameSpeed4U/images/site/img07.jpg HTTP/1.1" 200 387
0:0:0:0:0:0:0:1 - - [20/Apr/2016:15:31:12 -0500] "GET /GameSpeed4U/images/site/img06.jpg HTTP/1.1" 200 314
0:0:0:0:0:0:0:1 - - [20/Apr/2016:15:31:12 -0500] "GET /GameSpeed4U/images/site/img04.jpg HTTP/1.1" 200 5590
0:0:0:0:0:0:0:1 - - [20/Apr/2016:15:31:12 -0500] "GET /GameSpeed4U/images/site/img02.jpg HTTP/1.1" 200 716
127.0.0.1 - - [20/Apr/2016:15:31:15 -0500] "GET /GameSpeed4U/site_header.html HTTP/1.1" 200 1866
127.0.0.1 - - [20/Apr/2016:15:31:15 -0500] "GET /GameSpeed4U/site_sidebar.html HTTP/1.1" 200 858
127.0.0.1 - - [20/Apr/2016:15:31:15 -0500] "GET /GameSpeed4U/site_footer.html HTTP/1.1" 200 205
0:0:0:0:0:0:0:1 - - [20/Apr/2016:15:31:15 -0500] "GET /GameSpeed4U/ConsoleList?maker=microsoft HTTP/1.1" 200 4561
0:0:0:0:0:0:0:1 - - [20/Apr/2016:15:31:15 -0500] "GET /GameSpeed4U/autocomplete.js HTTP/1.1" 404 1005
0:0:0:0:0:0:0:1 - - [20/Apr/2016:15:31:15 -0500] "GET /GameSpeed4U/images/consoles/xbox360.jpg HTTP/1.1" 200 61584
127.0.0.1 - - [20/Apr/2016:15:31:16 -0500] "GET /GameSpeed4U/site_header.html HTTP/1.1" 200 1866
127.0.0.1 - - [20/Apr/2016:15:31:16 -0500] "GET /GameSpeed4U/site_sidebar.html HTTP/1.1" 200 858
127.0.0.1 - - [20/Apr/2016:15:31:16 -0500] "GET /GameSpeed4U/site_footer.html HTTP/1.1" 200 205
0:0:0:0:0:0:0:1 - - [20/Apr/2016:15:31:16 -0500] "GET /GameSpeed4U/ConsoleList?maker=sony HTTP/1.1" 200 3866
0:0:0:0:0:0:0:1 - - [20/Apr/2016:15:31:16 -0500] "GET /GameSpeed4U/autocomplete.js HTTP/1.1" 404 1005
127.0.0.1 - - [20/Apr/2016:15:31:17 -0500] "GET /GameSpeed4U/site_header.html HTTP/1.1" 200 1866
127.0.0.1 - - [20/Apr/2016:15:31:17 -0500] "GET /GameSpeed4U/site_sidebar.html HTTP/1.1" 200 858
127.0.0.1 - - [20/Apr/2016:15:31:17 -0500] "GET /GameSpeed4U/site_footer.html HTTP/1.1" 200 205
0:0:0:0:0:0:0:1 - - [20/Apr/2016:15:31:17 -0500] "GET /GameSpeed4U/ConsoleList?maker=nintendo HTTP/1.1" 200 3211
0:0:0:0:0:0:0:1 - - [20/Apr/2016:15:31:17 -0500] "GET /GameSpeed4U/autocomplete.js HTTP/1.1" 404 1005
127.0.0.1 - - [20/Apr/2016:15:31:18 -0500] "GET /GameSpeed4U/site_header.html HTTP/1.1" 200 1866
127.0.0.1 - - [20/Apr/2016:15:31:18 -0500] "GET /GameSpeed4U/site_sidebar.html HTTP/1.1" 200 858
127.0.0.1 - - [20/Apr/2016:15:31:18 -0500] "GET /GameSpeed4U/site_footer.html HTTP/1.1" 200 205
0:0:0:0:0:0:0:1 - - [20/Apr/2016:15:31:18 -0500] "GET /GameSpeed4U/ConsoleList?maker=sony HTTP/1.1" 200 3866
0:0:0:0:0:0:0:1 - - [20/Apr/2016:15:31:18 -0500] "GET /GameSpeed4U/autocomplete.js HTTP/1.1" 404 1005
127.0.0.1 - - [20/Apr/2016:15:31:20 -0500] "GET /GameSpeed4U/site_header.html HTTP/1.1" 200 1866
127.0.0.1 - - [20/Apr/2016:15:31:20 -0500] "GET /GameSpeed4U/site_sidebar.html HTTP/1.1" 200 858
127.0.0.1 - - [20/Apr/2016:15:31:20 -0500] "GET /GameSpeed4U/site_footer.html HTTP/1.1" 200 205
0:0:0:0:0:0:0:1 - - [20/Apr/2016:15:31:20 -0500] "GET /GameSpeed4U/ConsoleList?maker=microsoft HTTP/1.1" 200 4561
0:0:0:0:0:0:0:1 - - [20/Apr/2016:15:31:20 -0500] "GET /GameSpeed4U/autocomplete.js HTTP/1.1" 404 1005
127.0.0.1 - - [20/Apr/2016:15:31:24 -0500] "GET /GameSpeed4U/site_header.html HTTP/1.1" 200 1866
127.0.0.1 - - [20/Apr/2016:15:31:24 -0500] "GET /GameSpeed4U/site_sidebar.html HTTP/1.1" 200 858
127.0.0.1 - - [20/Apr/2016:15:31:24 -0500] "GET /GameSpeed4U/site_footer.html HTTP/1.1" 200 205
0:0:0:0:0:0:0:1 - - [20/Apr/2016:15:31:24 -0500] "GET /GameSpeed4U/ConsoleList?maker=sony HTTP/1.1" 200 3866
0:0:0:0:0:0:0:1 - - [20/Apr/2016:15:31:24 -0500] "GET /GameSpeed4U/autocomplete.js HTTP/1.1" 404 1005
127.0.0.1 - - [20/Apr/2016:15:31:25 -0500] "GET /GameSpeed4U/site_header.html HTTP/1.1" 200 1866
127.0.0.1 - - [20/Apr/2016:15:31:25 -0500] "GET /GameSpeed4U/site_sidebar.html HTTP/1.1" 200 858
127.0.0.1 - - [20/Apr/2016:15:31:25 -0500] "GET /GameSpeed4U/site_footer.html HTTP/1.1" 200 205
0:0:0:0:0:0:0:1 - - [20/Apr/2016:15:31:25 -0500] "GET /GameSpeed4U/ConsoleList?maker=nintendo HTTP/1.1" 200 3211
0:0:0:0:0:0:0:1 - - [20/Apr/2016:15:31:25 -0500] "GET /GameSpeed4U/autocomplete.js HTTP/1.1" 404 1005
127.0.0.1 - - [20/Apr/2016:15:31:26 -0500] "GET /GameSpeed4U/site_header.html HTTP/1.1" 200 1866
127.0.0.1 - - [20/Apr/2016:15:31:26 -0500] "GET /GameSpeed4U/site_sidebar.html HTTP/1.1" 200 858
127.0.0.1 - - [20/Apr/2016:15:31:26 -0500] "GET /GameSpeed4U/site_footer.html HTTP/1.1" 200 205
0:0:0:0:0:0:0:1 - - [20/Apr/2016:15:31:26 -0500] "GET /GameSpeed4U/GamesList?maker=electronicArts HTTP/1.1" 200 4372
0:0:0:0:0:0:0:1 - - [20/Apr/2016:15:31:26 -0500] "GET /GameSpeed4U/autocomplete.js HTTP/1.1" 404 1005
0:0:0:0:0:0:0:1 - - [20/Apr/2016:15:31:26 -0500] "GET /GameSpeed4U/images/games/ea_nfs.jpg HTTP/1.1" 200 11709
0:0:0:0:0:0:0:1 - - [20/Apr/2016:15:31:26 -0500] "GET /GameSpeed4U/images/games/ea_fifa.jpg HTTP/1.1" 200 196081
127.0.0.1 - - [20/Apr/2016:15:31:27 -0500] "GET /GameSpeed4U/site_header.html HTTP/1.1" 200 1866
127.0.0.1 - - [20/Apr/2016:15:31:27 -0500] "GET /GameSpeed4U/site_sidebar.html HTTP/1.1" 200 858
127.0.0.1 - - [20/Apr/2016:15:31:27 -0500] "GET /GameSpeed4U/site_footer.html HTTP/1.1" 200 205
0:0:0:0:0:0:0:1 - - [20/Apr/2016:15:31:27 -0500] "GET /GameSpeed4U/GamesList?maker=activision HTTP/1.1" 200 3808
0:0:0:0:0:0:0:1 - - [20/Apr/2016:15:31:27 -0500] "GET /GameSpeed4U/autocomplete.js HTTP/1.1" 404 1005
0:0:0:0:0:0:0:1 - - [20/Apr/2016:15:31:27 -0500] "GET /GameSpeed4U/images/games/activision_cod.jpg HTTP/1.1" 200 351595
127.0.0.1 - - [20/Apr/2016:15:31:28 -0500] "GET /GameSpeed4U/site_header.html HTTP/1.1" 200 1866
127.0.0.1 - - [20/Apr/2016:15:31:28 -0500] "GET /GameSpeed4U/site_sidebar.html HTTP/1.1" 200 858
127.0.0.1 - - [20/Apr/2016:15:31:28 -0500] "GET /GameSpeed4U/site_footer.html HTTP/1.1" 200 205
0:0:0:0:0:0:0:1 - - [20/Apr/2016:15:31:28 -0500] "GET /GameSpeed4U/GamesList?maker=takeTwoInteractive HTTP/1.1" 200 3816
0:0:0:0:0:0:0:1 - - [20/Apr/2016:15:31:28 -0500] "GET /GameSpeed4U/autocomplete.js HTTP/1.1" 404 1005
0:0:0:0:0:0:0:1 - - [20/Apr/2016:15:31:28 -0500] "GET /GameSpeed4U/images/games/tti_evolve.jpg HTTP/1.1" 200 1581398
127.0.0.1 - - [20/Apr/2016:15:31:31 -0500] "GET /GameSpeed4U/site_header.html HTTP/1.1" 200 1866
127.0.0.1 - - [20/Apr/2016:15:31:31 -0500] "GET /GameSpeed4U/site_sidebar.html HTTP/1.1" 200 858
127.0.0.1 - - [20/Apr/2016:15:31:31 -0500] "GET /GameSpeed4U/site_footer.html HTTP/1.1" 200 205
0:0:0:0:0:0:0:1 - - [20/Apr/2016:15:31:31 -0500] "GET /GameSpeed4U/TabletList?maker=apple HTTP/1.1" 200 3207
0:0:0:0:0:0:0:1 - - [20/Apr/2016:15:31:31 -0500] "GET /GameSpeed4U/autocomplete.js HTTP/1.1" 404 1005
127.0.0.1 - - [20/Apr/2016:15:31:32 -0500] "GET /GameSpeed4U/site_header.html HTTP/1.1" 200 1866
127.0.0.1 - - [20/Apr/2016:15:31:32 -0500] "GET /GameSpeed4U/site_sidebar.html HTTP/1.1" 200 858
127.0.0.1 - - [20/Apr/2016:15:31:32 -0500] "GET /GameSpeed4U/site_footer.html HTTP/1.1" 200 205
0:0:0:0:0:0:0:1 - - [20/Apr/2016:15:31:32 -0500] "GET /GameSpeed4U/TabletList?maker=microsoft HTTP/1.1" 200 3211
0:0:0:0:0:0:0:1 - - [20/Apr/2016:15:31:32 -0500] "GET /GameSpeed4U/autocomplete.js HTTP/1.1" 404 1005
127.0.0.1 - - [20/Apr/2016:15:31:33 -0500] "GET /GameSpeed4U/site_header.html HTTP/1.1" 200 1866
127.0.0.1 - - [20/Apr/2016:15:31:33 -0500] "GET /GameSpeed4U/site_sidebar.html HTTP/1.1" 200 858
127.0.0.1 - - [20/Apr/2016:15:31:33 -0500] "GET /GameSpeed4U/site_footer.html HTTP/1.1" 200 205
0:0:0:0:0:0:0:1 - - [20/Apr/2016:15:31:33 -0500] "GET /GameSpeed4U/TabletList?maker=samsung HTTP/1.1" 200 3209
0:0:0:0:0:0:0:1 - - [20/Apr/2016:15:31:33 -0500] "GET /GameSpeed4U/autocomplete.js HTTP/1.1" 404 1005
127.0.0.1 - - [20/Apr/2016:15:31:35 -0500] "GET /GameSpeed4U/site_header.html HTTP/1.1" 200 1866
127.0.0.1 - - [20/Apr/2016:15:31:35 -0500] "GET /GameSpeed4U/site_sidebar.html HTTP/1.1" 200 858
127.0.0.1 - - [20/Apr/2016:15:31:35 -0500] "GET /GameSpeed4U/site_home.html HTTP/1.1" 200 1644
127.0.0.1 - - [20/Apr/2016:15:31:35 -0500] "GET /GameSpeed4U/site_footer.html HTTP/1.1" 200 205
0:0:0:0:0:0:0:1 - - [20/Apr/2016:15:31:35 -0500] "GET /GameSpeed4U/Home HTTP/1.1" 200 4674
0:0:0:0:0:0:0:1 - - [20/Apr/2016:15:31:35 -0500] "GET /GameSpeed4U/autocomplete.js HTTP/1.1" 404 1005
127.0.0.1 - - [20/Apr/2016:15:40:29 -0500] "GET /GameSpeed4U/site_header.html HTTP/1.1" 200 1866
127.0.0.1 - - [20/Apr/2016:15:40:29 -0500] "GET /GameSpeed4U/site_sidebar.html HTTP/1.1" 200 858
127.0.0.1 - - [20/Apr/2016:15:40:29 -0500] "GET /GameSpeed4U/site_footer.html HTTP/1.1" 200 205
0:0:0:0:0:0:0:1 - - [20/Apr/2016:15:40:29 -0500] "GET /GameSpeed4U/ConsoleList?maker=microsoft HTTP/1.1" 200 4561
0:0:0:0:0:0:0:1 - - [20/Apr/2016:15:40:29 -0500] "GET /GameSpeed4U/autocomplete.js HTTP/1.1" 404 1005
0:0:0:0:0:0:0:1 - - [20/Apr/2016:15:40:29 -0500] "GET /GameSpeed4U/images/site/GameON.jpg HTTP/1.1" 304 -
0:0:0:0:0:0:0:1 - - [20/Apr/2016:15:40:29 -0500] "GET /GameSpeed4U/style.css HTTP/1.1" 304 -
0:0:0:0:0:0:0:1 - - [20/Apr/2016:15:40:29 -0500] "GET /GameSpeed4U/images/consoles/xbox360.jpg HTTP/1.1" 304 -
0:0:0:0:0:0:0:1 - - [20/Apr/2016:15:40:29 -0500] "GET /GameSpeed4U/images/consoles/xbox1.jpg HTTP/1.1" 304 -
0:0:0:0:0:0:0:1 - - [20/Apr/2016:15:40:30 -0500] "POST /GameSpeed4U/Cart HTTP/1.1" 302 -
127.0.0.1 - - [20/Apr/2016:15:40:30 -0500] "GET /GameSpeed4U/site_header.html HTTP/1.1" 200 1866
127.0.0.1 - - [20/Apr/2016:15:40:30 -0500] "GET /GameSpeed4U/site_footer.html HTTP/1.1" 200 205
0:0:0:0:0:0:0:1 - - [20/Apr/2016:15:40:30 -0500] "GET /GameSpeed4U/Login HTTP/1.1" 200 3316
0:0:0:0:0:0:0:1 - - [20/Apr/2016:15:40:30 -0500] "GET /GameSpeed4U/autocomplete.js HTTP/1.1" 404 1005
127.0.0.1 - - [20/Apr/2016:15:40:35 -0500] "GET /GameSpeed4U/site_header.html HTTP/1.1" 200 1866
127.0.0.1 - - [20/Apr/2016:15:40:35 -0500] "GET /GameSpeed4U/site_footer.html HTTP/1.1" 200 205
0:0:0:0:0:0:0:1 - - [20/Apr/2016:15:40:35 -0500] "GET /GameSpeed4U/Registration HTTP/1.1" 200 3232
0:0:0:0:0:0:0:1 - - [20/Apr/2016:15:40:35 -0500] "GET /GameSpeed4U/autocomplete.js HTTP/1.1" 404 1005
0:0:0:0:0:0:0:1 - - [20/Apr/2016:15:41:24 -0500] "POST /GameSpeed4U/Registration HTTP/1.1" 302 -
127.0.0.1 - - [20/Apr/2016:15:41:24 -0500] "GET /GameSpeed4U/site_header.html HTTP/1.1" 200 1866
127.0.0.1 - - [20/Apr/2016:15:41:24 -0500] "GET /GameSpeed4U/site_footer.html HTTP/1.1" 200 205
0:0:0:0:0:0:0:1 - - [20/Apr/2016:15:41:24 -0500] "GET /GameSpeed4U/Login HTTP/1.1" 200 3335
0:0:0:0:0:0:0:1 - - [20/Apr/2016:15:41:24 -0500] "GET /GameSpeed4U/autocomplete.js HTTP/1.1" 404 1005
0:0:0:0:0:0:0:1 - - [20/Apr/2016:15:41:31 -0500] "POST /GameSpeed4U/Login HTTP/1.1" 302 -
127.0.0.1 - - [20/Apr/2016:15:41:31 -0500] "GET /GameSpeed4U/site_header.html HTTP/1.1" 200 1866
127.0.0.1 - - [20/Apr/2016:15:41:31 -0500] "GET /GameSpeed4U/site_sidebar.html HTTP/1.1" 200 858
127.0.0.1 - - [20/Apr/2016:15:41:31 -0500] "GET /GameSpeed4U/site_home.html HTTP/1.1" 200 1644
127.0.0.1 - - [20/Apr/2016:15:41:31 -0500] "GET /GameSpeed4U/site_footer.html HTTP/1.1" 200 205
0:0:0:0:0:0:0:1 - - [20/Apr/2016:15:41:31 -0500] "GET /GameSpeed4U/Home HTTP/1.1" 200 4743
0:0:0:0:0:0:0:1 - - [20/Apr/2016:15:41:31 -0500] "GET /GameSpeed4U/autocomplete.js HTTP/1.1" 404 1005
0:0:0:0:0:0:0:1 - - [20/Apr/2016:15:41:31 -0500] "GET /GameSpeed4U/images/consoles/PS4-console-bundle.jpg HTTP/1.1" 304 -
0:0:0:0:0:0:0:1 - - [20/Apr/2016:15:41:31 -0500] "GET /GameSpeed4U/images/site/consoles.png HTTP/1.1" 304 -
127.0.0.1 - - [20/Apr/2016:15:41:33 -0500] "GET /GameSpeed4U/site_header.html HTTP/1.1" 200 1866
127.0.0.1 - - [20/Apr/2016:15:41:33 -0500] "GET /GameSpeed4U/site_sidebar.html HTTP/1.1" 200 858
127.0.0.1 - - [20/Apr/2016:15:41:33 -0500] "GET /GameSpeed4U/site_footer.html HTTP/1.1" 200 205
0:0:0:0:0:0:0:1 - - [20/Apr/2016:15:41:33 -0500] "GET /GameSpeed4U/ConsoleList?maker=microsoft HTTP/1.1" 200 4630
0:0:0:0:0:0:0:1 - - [20/Apr/2016:15:41:33 -0500] "GET /GameSpeed4U/autocomplete.js HTTP/1.1" 404 1005
127.0.0.1 - - [20/Apr/2016:15:41:35 -0500] "GET /GameSpeed4U/site_header.html HTTP/1.1" 200 1866
127.0.0.1 - - [20/Apr/2016:15:41:35 -0500] "GET /GameSpeed4U/site_sidebar.html HTTP/1.1" 200 858
127.0.0.1 - - [20/Apr/2016:15:41:35 -0500] "GET /GameSpeed4U/site_footer.html HTTP/1.1" 200 205
0:0:0:0:0:0:0:1 - - [20/Apr/2016:15:41:35 -0500] "POST /GameSpeed4U/Cart HTTP/1.1" 200 3445
0:0:0:0:0:0:0:1 - - [20/Apr/2016:15:41:35 -0500] "GET /GameSpeed4U/autocomplete.js HTTP/1.1" 404 1005
0:0:0:0:0:0:0:1 - - [20/Apr/2016:15:41:36 -0500] "GET /GameSpeed4U/CheckOut HTTP/1.1" 404 991
0:0:0:0:0:0:0:1 - - [20/Apr/2016:15:42:40 -0500] "GET /GameSpeed4U/style.css HTTP/1.1" 304 -
0:0:0:0:0:0:0:1 - - [20/Apr/2016:15:42:40 -0500] "GET /GameSpeed4U/images/site/GameON.jpg HTTP/1.1" 304 -
