127.0.0.1 - - [24/Apr/2016:11:24:23 -0500] "GET /GameSpeed4U/site_header.html HTTP/1.1" 200 1866
127.0.0.1 - - [24/Apr/2016:11:24:23 -0500] "GET /GameSpeed4U/site_sidebar.html HTTP/1.1" 200 858
127.0.0.1 - - [24/Apr/2016:11:24:23 -0500] "GET /GameSpeed4U/site_home.html HTTP/1.1" 200 1644
127.0.0.1 - - [24/Apr/2016:11:24:23 -0500] "GET /GameSpeed4U/site_footer.html HTTP/1.1" 200 205
0:0:0:0:0:0:0:1 - - [24/Apr/2016:11:24:23 -0500] "GET /GameSpeed4U/Home HTTP/1.1" 200 4674
0:0:0:0:0:0:0:1 - - [24/Apr/2016:11:24:23 -0500] "GET /GameSpeed4U/autocomplete.js HTTP/1.1" 404 1005
0:0:0:0:0:0:0:1 - - [24/Apr/2016:11:24:23 -0500] "GET /GameSpeed4U/style.css HTTP/1.1" 304 -
0:0:0:0:0:0:0:1 - - [24/Apr/2016:11:24:23 -0500] "GET /GameSpeed4U/images/site/GameON.jpg HTTP/1.1" 304 -
0:0:0:0:0:0:0:1 - - [24/Apr/2016:11:24:23 -0500] "GET /GameSpeed4U/images/site/consoles.png HTTP/1.1" 304 -
0:0:0:0:0:0:0:1 - - [24/Apr/2016:11:24:23 -0500] "GET /GameSpeed4U/images/consoles/xbox1.jpg HTTP/1.1" 304 -
0:0:0:0:0:0:0:1 - - [24/Apr/2016:11:24:23 -0500] "GET /GameSpeed4U/images/consoles/PS4-console-bundle.jpg HTTP/1.1" 304 -
127.0.0.1 - - [24/Apr/2016:16:18:26 -0500] "GET /GameSpeed4U/site_header.html HTTP/1.1" 200 1866
127.0.0.1 - - [24/Apr/2016:16:18:26 -0500] "GET /GameSpeed4U/site_sidebar.html HTTP/1.1" 200 858
127.0.0.1 - - [24/Apr/2016:16:18:26 -0500] "GET /GameSpeed4U/site_home.html HTTP/1.1" 200 1644
127.0.0.1 - - [24/Apr/2016:16:18:26 -0500] "GET /GameSpeed4U/site_footer.html HTTP/1.1" 200 205
0:0:0:0:0:0:0:1 - - [24/Apr/2016:16:18:26 -0500] "GET /GameSpeed4U/Home HTTP/1.1" 200 4674
0:0:0:0:0:0:0:1 - - [24/Apr/2016:16:18:26 -0500] "GET /GameSpeed4U/autocomplete.js HTTP/1.1" 404 1005
0:0:0:0:0:0:0:1 - - [24/Apr/2016:16:18:26 -0500] "GET /GameSpeed4U/images/site/img03.jpg HTTP/1.1" 304 -
0:0:0:0:0:0:0:1 - - [24/Apr/2016:16:18:26 -0500] "GET /GameSpeed4U/images/site/img06.jpg HTTP/1.1" 304 -
0:0:0:0:0:0:0:1 - - [24/Apr/2016:16:18:26 -0500] "GET /GameSpeed4U/images/site/img07.jpg HTTP/1.1" 304 -
0:0:0:0:0:0:0:1 - - [24/Apr/2016:16:18:26 -0500] "GET /GameSpeed4U/images/site/img04.jpg HTTP/1.1" 304 -
0:0:0:0:0:0:0:1 - - [24/Apr/2016:16:18:26 -0500] "GET /GameSpeed4U/images/site/img02.jpg HTTP/1.1" 304 -
127.0.0.1 - - [24/Apr/2016:16:18:28 -0500] "GET /GameSpeed4U/site_header.html HTTP/1.1" 200 1866
127.0.0.1 - - [24/Apr/2016:16:18:28 -0500] "GET /GameSpeed4U/site_sidebar.html HTTP/1.1" 200 858
127.0.0.1 - - [24/Apr/2016:16:18:28 -0500] "GET /GameSpeed4U/site_footer.html HTTP/1.1" 200 205
0:0:0:0:0:0:0:1 - - [24/Apr/2016:16:18:28 -0500] "GET /GameSpeed4U/ConsoleList?maker=microsoft HTTP/1.1" 200 3212
0:0:0:0:0:0:0:1 - - [24/Apr/2016:16:18:28 -0500] "GET /GameSpeed4U/autocomplete.js HTTP/1.1" 404 1005
127.0.0.1 - - [24/Apr/2016:16:18:53 -0500] "GET /GameSpeed4U/site_header.html HTTP/1.1" 200 1866
127.0.0.1 - - [24/Apr/2016:16:18:53 -0500] "GET /GameSpeed4U/site_sidebar.html HTTP/1.1" 200 858
127.0.0.1 - - [24/Apr/2016:16:18:53 -0500] "GET /GameSpeed4U/site_footer.html HTTP/1.1" 200 205
0:0:0:0:0:0:0:1 - - [24/Apr/2016:16:18:53 -0500] "GET /GameSpeed4U/ConsoleList?maker=microsoft HTTP/1.1" 200 3212
0:0:0:0:0:0:0:1 - - [24/Apr/2016:16:18:53 -0500] "GET /GameSpeed4U/autocomplete.js HTTP/1.1" 404 1005
0:0:0:0:0:0:0:1 - - [24/Apr/2016:17:32:57 -0500] "GET /GameSpeed4U/ConsoleList?maker=microsoft HTTP/1.1" 404 997
0:0:0:0:0:0:0:1 - - [24/Apr/2016:17:33:12 -0500] "GET /GameSpeed4U/Home HTTP/1.1" 500 3064
0:0:0:0:0:0:0:1 - - [24/Apr/2016:17:34:40 -0500] "GET /GameSpeed4U/Home HTTP/1.1" 500 3064
0:0:0:0:0:0:0:1 - - [24/Apr/2016:17:34:41 -0500] "GET /favicon.ico HTTP/1.1" 200 21630
0:0:0:0:0:0:0:1 - - [24/Apr/2016:17:34:45 -0500] "GET /GameSpeed4U HTTP/1.1" 302 -
0:0:0:0:0:0:0:1 - - [24/Apr/2016:17:34:45 -0500] "GET /GameSpeed4U/ HTTP/1.1" 404 949
0:0:0:0:0:0:0:1 - - [24/Apr/2016:17:34:53 -0500] "GET / HTTP/1.1" 200 12834
0:0:0:0:0:0:0:1 - - [24/Apr/2016:17:34:59 -0500] "GET /GameSpeed4U/Home HTTP/1.1" 404 949
127.0.0.1 - - [24/Apr/2016:17:37:14 -0500] "GET /GameSpeed4U/site_header.html HTTP/1.1" 200 1866
127.0.0.1 - - [24/Apr/2016:17:37:14 -0500] "GET /GameSpeed4U/site_sidebar.html HTTP/1.1" 200 858
127.0.0.1 - - [24/Apr/2016:17:37:14 -0500] "GET /GameSpeed4U/site_home.html HTTP/1.1" 200 1644
127.0.0.1 - - [24/Apr/2016:17:37:14 -0500] "GET /GameSpeed4U/site_footer.html HTTP/1.1" 200 205
0:0:0:0:0:0:0:1 - - [24/Apr/2016:17:37:14 -0500] "GET /GameSpeed4U/Home HTTP/1.1" 200 4674
0:0:0:0:0:0:0:1 - - [24/Apr/2016:17:37:14 -0500] "GET /GameSpeed4U/autocomplete.js HTTP/1.1" 404 1005
127.0.0.1 - - [24/Apr/2016:17:37:16 -0500] "GET /GameSpeed4U/site_header.html HTTP/1.1" 200 1866
127.0.0.1 - - [24/Apr/2016:17:37:16 -0500] "GET /GameSpeed4U/site_sidebar.html HTTP/1.1" 200 858
127.0.0.1 - - [24/Apr/2016:17:37:16 -0500] "GET /GameSpeed4U/site_footer.html HTTP/1.1" 200 205
0:0:0:0:0:0:0:1 - - [24/Apr/2016:17:37:16 -0500] "GET /GameSpeed4U/ConsoleList?maker=microsoft HTTP/1.1" 200 3212
0:0:0:0:0:0:0:1 - - [24/Apr/2016:17:37:16 -0500] "GET /GameSpeed4U/autocomplete.js HTTP/1.1" 404 1005
127.0.0.1 - - [24/Apr/2016:17:37:19 -0500] "GET /GameSpeed4U/site_header.html HTTP/1.1" 200 1866
127.0.0.1 - - [24/Apr/2016:17:37:19 -0500] "GET /GameSpeed4U/site_sidebar.html HTTP/1.1" 200 858
127.0.0.1 - - [24/Apr/2016:17:37:19 -0500] "GET /GameSpeed4U/site_footer.html HTTP/1.1" 200 205
0:0:0:0:0:0:0:1 - - [24/Apr/2016:17:37:19 -0500] "GET /GameSpeed4U/ConsoleList?maker=sony HTTP/1.1" 200 3207
0:0:0:0:0:0:0:1 - - [24/Apr/2016:17:37:19 -0500] "GET /GameSpeed4U/autocomplete.js HTTP/1.1" 404 1005
127.0.0.1 - - [24/Apr/2016:17:37:21 -0500] "GET /GameSpeed4U/site_header.html HTTP/1.1" 200 1866
127.0.0.1 - - [24/Apr/2016:17:37:21 -0500] "GET /GameSpeed4U/site_sidebar.html HTTP/1.1" 200 858
127.0.0.1 - - [24/Apr/2016:17:37:21 -0500] "GET /GameSpeed4U/site_footer.html HTTP/1.1" 200 205
0:0:0:0:0:0:0:1 - - [24/Apr/2016:17:37:21 -0500] "GET /GameSpeed4U/ConsoleList?maker=nintendo HTTP/1.1" 200 3211
0:0:0:0:0:0:0:1 - - [24/Apr/2016:17:37:21 -0500] "GET /GameSpeed4U/autocomplete.js HTTP/1.1" 404 1005
127.0.0.1 - - [24/Apr/2016:17:37:24 -0500] "GET /GameSpeed4U/site_header.html HTTP/1.1" 200 1866
127.0.0.1 - - [24/Apr/2016:17:37:24 -0500] "GET /GameSpeed4U/site_sidebar.html HTTP/1.1" 200 858
127.0.0.1 - - [24/Apr/2016:17:37:24 -0500] "GET /GameSpeed4U/site_footer.html HTTP/1.1" 200 205
0:0:0:0:0:0:0:1 - - [24/Apr/2016:17:37:24 -0500] "GET /GameSpeed4U/ConsoleList?maker=microsoft HTTP/1.1" 200 3212
0:0:0:0:0:0:0:1 - - [24/Apr/2016:17:37:24 -0500] "GET /GameSpeed4U/autocomplete.js HTTP/1.1" 404 1005
127.0.0.1 - - [24/Apr/2016:17:38:10 -0500] "GET /GameSpeed4U/site_header.html HTTP/1.1" 200 1866
127.0.0.1 - - [24/Apr/2016:17:38:10 -0500] "GET /GameSpeed4U/site_sidebar.html HTTP/1.1" 200 858
127.0.0.1 - - [24/Apr/2016:17:38:10 -0500] "GET /GameSpeed4U/site_footer.html HTTP/1.1" 200 205
0:0:0:0:0:0:0:1 - - [24/Apr/2016:17:38:10 -0500] "GET /GameSpeed4U/ConsoleList?maker=sony HTTP/1.1" 200 3207
0:0:0:0:0:0:0:1 - - [24/Apr/2016:17:38:10 -0500] "GET /GameSpeed4U/autocomplete.js HTTP/1.1" 404 1005
127.0.0.1 - - [24/Apr/2016:17:38:10 -0500] "GET /GameSpeed4U/site_header.html HTTP/1.1" 200 1866
127.0.0.1 - - [24/Apr/2016:17:38:10 -0500] "GET /GameSpeed4U/site_sidebar.html HTTP/1.1" 200 858
127.0.0.1 - - [24/Apr/2016:17:38:10 -0500] "GET /GameSpeed4U/site_footer.html HTTP/1.1" 200 205
0:0:0:0:0:0:0:1 - - [24/Apr/2016:17:38:10 -0500] "GET /GameSpeed4U/ConsoleList?maker=nintendo HTTP/1.1" 200 3211
0:0:0:0:0:0:0:1 - - [24/Apr/2016:17:38:10 -0500] "GET /GameSpeed4U/autocomplete.js HTTP/1.1" 404 1005
127.0.0.1 - - [24/Apr/2016:17:38:11 -0500] "GET /GameSpeed4U/site_header.html HTTP/1.1" 200 1866
127.0.0.1 - - [24/Apr/2016:17:38:11 -0500] "GET /GameSpeed4U/site_sidebar.html HTTP/1.1" 200 858
127.0.0.1 - - [24/Apr/2016:17:38:11 -0500] "GET /GameSpeed4U/site_footer.html HTTP/1.1" 200 205
0:0:0:0:0:0:0:1 - - [24/Apr/2016:17:38:11 -0500] "GET /GameSpeed4U/ConsoleList?maker=microsoft HTTP/1.1" 200 3212
0:0:0:0:0:0:0:1 - - [24/Apr/2016:17:38:11 -0500] "GET /GameSpeed4U/autocomplete.js HTTP/1.1" 404 1005
127.0.0.1 - - [24/Apr/2016:18:39:42 -0500] "GET /GameSpeed4U/site_header.html HTTP/1.1" 200 1866
127.0.0.1 - - [24/Apr/2016:18:39:42 -0500] "GET /GameSpeed4U/site_sidebar.html HTTP/1.1" 200 858
127.0.0.1 - - [24/Apr/2016:18:39:42 -0500] "GET /GameSpeed4U/site_home.html HTTP/1.1" 200 1644
127.0.0.1 - - [24/Apr/2016:18:39:42 -0500] "GET /GameSpeed4U/site_footer.html HTTP/1.1" 200 205
0:0:0:0:0:0:0:1 - - [24/Apr/2016:18:39:42 -0500] "GET /GameSpeed4U/Home HTTP/1.1" 200 4674
0:0:0:0:0:0:0:1 - - [24/Apr/2016:18:39:42 -0500] "GET /GameSpeed4U/autocomplete.js HTTP/1.1" 404 1005
127.0.0.1 - - [24/Apr/2016:18:39:45 -0500] "GET /GameSpeed4U/site_header.html HTTP/1.1" 200 1866
127.0.0.1 - - [24/Apr/2016:18:39:45 -0500] "GET /GameSpeed4U/site_sidebar.html HTTP/1.1" 200 858
127.0.0.1 - - [24/Apr/2016:18:39:45 -0500] "GET /GameSpeed4U/site_footer.html HTTP/1.1" 200 205
0:0:0:0:0:0:0:1 - - [24/Apr/2016:18:39:45 -0500] "GET /GameSpeed4U/ConsoleList?maker=microsoft HTTP/1.1" 200 3212
0:0:0:0:0:0:0:1 - - [24/Apr/2016:18:39:45 -0500] "GET /GameSpeed4U/autocomplete.js HTTP/1.1" 404 1005
127.0.0.1 - - [24/Apr/2016:20:14:16 -0500] "GET /GameSpeed4U/site_header.html HTTP/1.1" 200 1866
127.0.0.1 - - [24/Apr/2016:20:14:16 -0500] "GET /GameSpeed4U/site_sidebar.html HTTP/1.1" 200 858
127.0.0.1 - - [24/Apr/2016:20:14:16 -0500] "GET /GameSpeed4U/site_home.html HTTP/1.1" 200 1644
127.0.0.1 - - [24/Apr/2016:20:14:16 -0500] "GET /GameSpeed4U/site_footer.html HTTP/1.1" 200 205
0:0:0:0:0:0:0:1 - - [24/Apr/2016:20:14:16 -0500] "GET /GameSpeed4U/Home HTTP/1.1" 200 4674
0:0:0:0:0:0:0:1 - - [24/Apr/2016:20:14:16 -0500] "GET /GameSpeed4U/autocomplete.js HTTP/1.1" 404 1005
127.0.0.1 - - [24/Apr/2016:20:14:18 -0500] "GET /GameSpeed4U/site_header.html HTTP/1.1" 200 1866
127.0.0.1 - - [24/Apr/2016:20:14:18 -0500] "GET /GameSpeed4U/site_sidebar.html HTTP/1.1" 200 858
127.0.0.1 - - [24/Apr/2016:20:14:18 -0500] "GET /GameSpeed4U/site_footer.html HTTP/1.1" 200 205
0:0:0:0:0:0:0:1 - - [24/Apr/2016:20:14:18 -0500] "GET /GameSpeed4U/ConsoleList?maker=microsoft HTTP/1.1" 200 3212
0:0:0:0:0:0:0:1 - - [24/Apr/2016:20:14:18 -0500] "GET /GameSpeed4U/autocomplete.js HTTP/1.1" 404 1005
127.0.0.1 - - [24/Apr/2016:20:14:24 -0500] "GET /GameSpeed4U/site_header.html HTTP/1.1" 200 1866
127.0.0.1 - - [24/Apr/2016:20:14:24 -0500] "GET /GameSpeed4U/site_sidebar.html HTTP/1.1" 200 858
127.0.0.1 - - [24/Apr/2016:20:14:24 -0500] "GET /GameSpeed4U/site_footer.html HTTP/1.1" 200 205
0:0:0:0:0:0:0:1 - - [24/Apr/2016:20:14:24 -0500] "GET /GameSpeed4U/ConsoleList?maker=sony HTTP/1.1" 200 3207
0:0:0:0:0:0:0:1 - - [24/Apr/2016:20:14:24 -0500] "GET /GameSpeed4U/autocomplete.js HTTP/1.1" 404 1005
127.0.0.1 - - [24/Apr/2016:20:14:24 -0500] "GET /GameSpeed4U/site_header.html HTTP/1.1" 200 1866
127.0.0.1 - - [24/Apr/2016:20:14:24 -0500] "GET /GameSpeed4U/site_sidebar.html HTTP/1.1" 200 858
127.0.0.1 - - [24/Apr/2016:20:14:24 -0500] "GET /GameSpeed4U/site_footer.html HTTP/1.1" 200 205
0:0:0:0:0:0:0:1 - - [24/Apr/2016:20:14:24 -0500] "GET /GameSpeed4U/ConsoleList?maker=microsoft HTTP/1.1" 200 3212
0:0:0:0:0:0:0:1 - - [24/Apr/2016:20:14:25 -0500] "GET /GameSpeed4U/autocomplete.js HTTP/1.1" 404 1005
127.0.0.1 - - [24/Apr/2016:20:14:25 -0500] "GET /GameSpeed4U/site_header.html HTTP/1.1" 200 1866
127.0.0.1 - - [24/Apr/2016:20:14:25 -0500] "GET /GameSpeed4U/site_sidebar.html HTTP/1.1" 200 858
127.0.0.1 - - [24/Apr/2016:20:14:25 -0500] "GET /GameSpeed4U/site_footer.html HTTP/1.1" 200 205
0:0:0:0:0:0:0:1 - - [24/Apr/2016:20:14:25 -0500] "GET /GameSpeed4U/ConsoleList?maker=sony HTTP/1.1" 200 3207
0:0:0:0:0:0:0:1 - - [24/Apr/2016:20:14:25 -0500] "GET /GameSpeed4U/autocomplete.js HTTP/1.1" 404 1005
127.0.0.1 - - [24/Apr/2016:20:14:26 -0500] "GET /GameSpeed4U/site_header.html HTTP/1.1" 200 1866
127.0.0.1 - - [24/Apr/2016:20:14:26 -0500] "GET /GameSpeed4U/site_sidebar.html HTTP/1.1" 200 858
127.0.0.1 - - [24/Apr/2016:20:14:26 -0500] "GET /GameSpeed4U/site_footer.html HTTP/1.1" 200 205
0:0:0:0:0:0:0:1 - - [24/Apr/2016:20:14:26 -0500] "GET /GameSpeed4U/ConsoleList?maker=microsoft HTTP/1.1" 200 3212
0:0:0:0:0:0:0:1 - - [24/Apr/2016:20:14:26 -0500] "GET /GameSpeed4U/autocomplete.js HTTP/1.1" 404 1005
127.0.0.1 - - [24/Apr/2016:20:33:07 -0500] "GET /GameSpeed4U/site_header.html HTTP/1.1" 200 1866
127.0.0.1 - - [24/Apr/2016:20:33:07 -0500] "GET /GameSpeed4U/site_sidebar.html HTTP/1.1" 200 858
127.0.0.1 - - [24/Apr/2016:20:33:07 -0500] "GET /GameSpeed4U/site_home.html HTTP/1.1" 200 1644
127.0.0.1 - - [24/Apr/2016:20:33:07 -0500] "GET /GameSpeed4U/site_footer.html HTTP/1.1" 200 205
0:0:0:0:0:0:0:1 - - [24/Apr/2016:20:33:07 -0500] "GET /GameSpeed4U/Home HTTP/1.1" 200 4674
0:0:0:0:0:0:0:1 - - [24/Apr/2016:20:33:07 -0500] "GET /GameSpeed4U/autocomplete.js HTTP/1.1" 404 1005
127.0.0.1 - - [24/Apr/2016:20:33:08 -0500] "GET /GameSpeed4U/site_header.html HTTP/1.1" 200 1866
127.0.0.1 - - [24/Apr/2016:20:33:08 -0500] "GET /GameSpeed4U/site_sidebar.html HTTP/1.1" 200 858
127.0.0.1 - - [24/Apr/2016:20:33:08 -0500] "GET /GameSpeed4U/site_footer.html HTTP/1.1" 200 205
0:0:0:0:0:0:0:1 - - [24/Apr/2016:20:33:08 -0500] "GET /GameSpeed4U/ConsoleList?maker=microsoft HTTP/1.1" 200 3212
0:0:0:0:0:0:0:1 - - [24/Apr/2016:20:33:08 -0500] "GET /GameSpeed4U/autocomplete.js HTTP/1.1" 404 1005
127.0.0.1 - - [24/Apr/2016:20:47:09 -0500] "GET /GameSpeed4U/site_header.html HTTP/1.1" 200 1866
127.0.0.1 - - [24/Apr/2016:20:47:09 -0500] "GET /GameSpeed4U/site_sidebar.html HTTP/1.1" 200 858
127.0.0.1 - - [24/Apr/2016:20:47:09 -0500] "GET /GameSpeed4U/site_home.html HTTP/1.1" 200 1644
127.0.0.1 - - [24/Apr/2016:20:47:09 -0500] "GET /GameSpeed4U/site_footer.html HTTP/1.1" 200 205
0:0:0:0:0:0:0:1 - - [24/Apr/2016:20:47:09 -0500] "GET /GameSpeed4U/Home HTTP/1.1" 200 4674
0:0:0:0:0:0:0:1 - - [24/Apr/2016:20:47:09 -0500] "GET /GameSpeed4U/autocomplete.js HTTP/1.1" 404 1005
0:0:0:0:0:0:0:1 - - [24/Apr/2016:20:47:09 -0500] "GET /GameSpeed4U/images/consoles/PS4-console-bundle.jpg HTTP/1.1" 304 -
0:0:0:0:0:0:0:1 - - [24/Apr/2016:20:47:09 -0500] "GET /GameSpeed4U/style.css HTTP/1.1" 304 -
0:0:0:0:0:0:0:1 - - [24/Apr/2016:20:47:09 -0500] "GET /GameSpeed4U/images/site/GameON.jpg HTTP/1.1" 304 -
0:0:0:0:0:0:0:1 - - [24/Apr/2016:20:47:09 -0500] "GET /GameSpeed4U/images/consoles/xbox1.jpg HTTP/1.1" 304 -
0:0:0:0:0:0:0:1 - - [24/Apr/2016:20:47:09 -0500] "GET /GameSpeed4U/images/site/consoles.png HTTP/1.1" 304 -
127.0.0.1 - - [24/Apr/2016:20:47:10 -0500] "GET /GameSpeed4U/site_header.html HTTP/1.1" 200 1866
127.0.0.1 - - [24/Apr/2016:20:47:10 -0500] "GET /GameSpeed4U/site_sidebar.html HTTP/1.1" 200 858
127.0.0.1 - - [24/Apr/2016:20:47:10 -0500] "GET /GameSpeed4U/site_footer.html HTTP/1.1" 200 205
0:0:0:0:0:0:0:1 - - [24/Apr/2016:20:47:10 -0500] "GET /GameSpeed4U/ConsoleList?maker=microsoft HTTP/1.1" 200 3212
0:0:0:0:0:0:0:1 - - [24/Apr/2016:20:47:10 -0500] "GET /GameSpeed4U/autocomplete.js HTTP/1.1" 404 1005
127.0.0.1 - - [24/Apr/2016:20:47:12 -0500] "GET /GameSpeed4U/site_header.html HTTP/1.1" 200 1866
127.0.0.1 - - [24/Apr/2016:20:47:12 -0500] "GET /GameSpeed4U/site_sidebar.html HTTP/1.1" 200 858
127.0.0.1 - - [24/Apr/2016:20:47:12 -0500] "GET /GameSpeed4U/site_footer.html HTTP/1.1" 200 205
0:0:0:0:0:0:0:1 - - [24/Apr/2016:20:47:12 -0500] "GET /GameSpeed4U/ConsoleList?maker=sony HTTP/1.1" 200 3207
0:0:0:0:0:0:0:1 - - [24/Apr/2016:20:47:12 -0500] "GET /GameSpeed4U/autocomplete.js HTTP/1.1" 404 1005
127.0.0.1 - - [24/Apr/2016:20:47:18 -0500] "GET /GameSpeed4U/site_header.html HTTP/1.1" 200 1866
127.0.0.1 - - [24/Apr/2016:20:47:18 -0500] "GET /GameSpeed4U/site_sidebar.html HTTP/1.1" 200 858
127.0.0.1 - - [24/Apr/2016:20:47:18 -0500] "GET /GameSpeed4U/site_footer.html HTTP/1.1" 200 205
0:0:0:0:0:0:0:1 - - [24/Apr/2016:20:47:18 -0500] "GET /GameSpeed4U/ConsoleList?maker=microsoft HTTP/1.1" 200 3212
0:0:0:0:0:0:0:1 - - [24/Apr/2016:20:47:18 -0500] "GET /GameSpeed4U/autocomplete.js HTTP/1.1" 404 1005
127.0.0.1 - - [24/Apr/2016:20:49:22 -0500] "GET /GameSpeed4U/site_header.html HTTP/1.1" 200 1866
127.0.0.1 - - [24/Apr/2016:20:49:22 -0500] "GET /GameSpeed4U/site_sidebar.html HTTP/1.1" 200 858
127.0.0.1 - - [24/Apr/2016:20:49:22 -0500] "GET /GameSpeed4U/site_footer.html HTTP/1.1" 200 205
0:0:0:0:0:0:0:1 - - [24/Apr/2016:20:49:22 -0500] "GET /GameSpeed4U/ConsoleList?maker=microsoft HTTP/1.1" 200 3212
0:0:0:0:0:0:0:1 - - [24/Apr/2016:20:49:22 -0500] "GET /GameSpeed4U/autocomplete.js HTTP/1.1" 404 1005
127.0.0.1 - - [24/Apr/2016:20:50:52 -0500] "GET /GameSpeed4U/site_header.html HTTP/1.1" 200 1866
127.0.0.1 - - [24/Apr/2016:20:50:52 -0500] "GET /GameSpeed4U/site_sidebar.html HTTP/1.1" 200 858
127.0.0.1 - - [24/Apr/2016:20:50:52 -0500] "GET /GameSpeed4U/site_home.html HTTP/1.1" 200 1644
127.0.0.1 - - [24/Apr/2016:20:50:52 -0500] "GET /GameSpeed4U/site_footer.html HTTP/1.1" 200 205
0:0:0:0:0:0:0:1 - - [24/Apr/2016:20:50:52 -0500] "GET /GameSpeed4U/Home HTTP/1.1" 200 4674
0:0:0:0:0:0:0:1 - - [24/Apr/2016:20:50:52 -0500] "GET /GameSpeed4U/autocomplete.js HTTP/1.1" 404 1005
127.0.0.1 - - [24/Apr/2016:20:50:53 -0500] "GET /GameSpeed4U/site_header.html HTTP/1.1" 200 1866
127.0.0.1 - - [24/Apr/2016:20:50:53 -0500] "GET /GameSpeed4U/site_sidebar.html HTTP/1.1" 200 858
127.0.0.1 - - [24/Apr/2016:20:50:53 -0500] "GET /GameSpeed4U/site_footer.html HTTP/1.1" 200 205
0:0:0:0:0:0:0:1 - - [24/Apr/2016:20:50:53 -0500] "GET /GameSpeed4U/ConsoleList?maker=microsoft HTTP/1.1" 200 3212
0:0:0:0:0:0:0:1 - - [24/Apr/2016:20:50:54 -0500] "GET /GameSpeed4U/autocomplete.js HTTP/1.1" 404 1005
127.0.0.1 - - [24/Apr/2016:20:50:58 -0500] "GET /GameSpeed4U/site_header.html HTTP/1.1" 200 1866
127.0.0.1 - - [24/Apr/2016:20:50:58 -0500] "GET /GameSpeed4U/site_sidebar.html HTTP/1.1" 200 858
127.0.0.1 - - [24/Apr/2016:20:50:58 -0500] "GET /GameSpeed4U/site_footer.html HTTP/1.1" 200 205
0:0:0:0:0:0:0:1 - - [24/Apr/2016:20:50:58 -0500] "GET /GameSpeed4U/ConsoleList?maker=sony HTTP/1.1" 200 3207
0:0:0:0:0:0:0:1 - - [24/Apr/2016:20:50:58 -0500] "GET /GameSpeed4U/autocomplete.js HTTP/1.1" 404 1005
127.0.0.1 - - [24/Apr/2016:20:51:00 -0500] "GET /GameSpeed4U/site_header.html HTTP/1.1" 200 1866
127.0.0.1 - - [24/Apr/2016:20:51:00 -0500] "GET /GameSpeed4U/site_sidebar.html HTTP/1.1" 200 858
127.0.0.1 - - [24/Apr/2016:20:51:00 -0500] "GET /GameSpeed4U/site_footer.html HTTP/1.1" 200 205
0:0:0:0:0:0:0:1 - - [24/Apr/2016:20:51:00 -0500] "GET /GameSpeed4U/ConsoleList?maker=nintendo HTTP/1.1" 200 3211
0:0:0:0:0:0:0:1 - - [24/Apr/2016:20:51:00 -0500] "GET /GameSpeed4U/autocomplete.js HTTP/1.1" 404 1005
127.0.0.1 - - [24/Apr/2016:20:57:27 -0500] "GET /GameSpeed4U/site_header.html HTTP/1.1" 200 1866
127.0.0.1 - - [24/Apr/2016:20:57:27 -0500] "GET /GameSpeed4U/site_sidebar.html HTTP/1.1" 200 858
127.0.0.1 - - [24/Apr/2016:20:57:27 -0500] "GET /GameSpeed4U/site_footer.html HTTP/1.1" 200 205
0:0:0:0:0:0:0:1 - - [24/Apr/2016:20:57:27 -0500] "GET /GameSpeed4U/ConsoleList?maker=microsoft HTTP/1.1" 200 3212
0:0:0:0:0:0:0:1 - - [24/Apr/2016:20:57:27 -0500] "GET /GameSpeed4U/autocomplete.js HTTP/1.1" 404 1005
127.0.0.1 - - [24/Apr/2016:20:57:41 -0500] "GET /GameSpeed4U/site_header.html HTTP/1.1" 200 1866
127.0.0.1 - - [24/Apr/2016:20:57:41 -0500] "GET /GameSpeed4U/site_sidebar.html HTTP/1.1" 200 858
127.0.0.1 - - [24/Apr/2016:20:57:41 -0500] "GET /GameSpeed4U/site_footer.html HTTP/1.1" 200 205
0:0:0:0:0:0:0:1 - - [24/Apr/2016:20:57:41 -0500] "GET /GameSpeed4U/ConsoleList?maker=sony HTTP/1.1" 200 3207
0:0:0:0:0:0:0:1 - - [24/Apr/2016:20:57:41 -0500] "GET /GameSpeed4U/autocomplete.js HTTP/1.1" 404 1005
127.0.0.1 - - [24/Apr/2016:21:07:38 -0500] "GET /GameSpeed4U/site_header.html HTTP/1.1" 200 1866
127.0.0.1 - - [24/Apr/2016:21:07:38 -0500] "GET /GameSpeed4U/site_sidebar.html HTTP/1.1" 200 858
127.0.0.1 - - [24/Apr/2016:21:07:38 -0500] "GET /GameSpeed4U/site_footer.html HTTP/1.1" 200 205
0:0:0:0:0:0:0:1 - - [24/Apr/2016:21:07:38 -0500] "GET /GameSpeed4U/ConsoleList?maker=microsoft HTTP/1.1" 200 3212
0:0:0:0:0:0:0:1 - - [24/Apr/2016:21:07:38 -0500] "GET /GameSpeed4U/autocomplete.js HTTP/1.1" 404 1005
127.0.0.1 - - [24/Apr/2016:21:07:43 -0500] "GET /GameSpeed4U/site_header.html HTTP/1.1" 200 1866
127.0.0.1 - - [24/Apr/2016:21:07:43 -0500] "GET /GameSpeed4U/site_sidebar.html HTTP/1.1" 200 858
127.0.0.1 - - [24/Apr/2016:21:07:43 -0500] "GET /GameSpeed4U/site_footer.html HTTP/1.1" 200 205
0:0:0:0:0:0:0:1 - - [24/Apr/2016:21:07:43 -0500] "GET /GameSpeed4U/ConsoleList?maker=microsoft HTTP/1.1" 200 3212
0:0:0:0:0:0:0:1 - - [24/Apr/2016:21:07:43 -0500] "GET /GameSpeed4U/autocomplete.js HTTP/1.1" 404 1005
127.0.0.1 - - [24/Apr/2016:21:07:46 -0500] "GET /GameSpeed4U/site_header.html HTTP/1.1" 200 1866
127.0.0.1 - - [24/Apr/2016:21:07:46 -0500] "GET /GameSpeed4U/site_sidebar.html HTTP/1.1" 200 858
127.0.0.1 - - [24/Apr/2016:21:07:46 -0500] "GET /GameSpeed4U/site_footer.html HTTP/1.1" 200 205
0:0:0:0:0:0:0:1 - - [24/Apr/2016:21:07:46 -0500] "GET /GameSpeed4U/ConsoleList?maker=sony HTTP/1.1" 200 3207
0:0:0:0:0:0:0:1 - - [24/Apr/2016:21:07:46 -0500] "GET /GameSpeed4U/autocomplete.js HTTP/1.1" 404 1005
127.0.0.1 - - [24/Apr/2016:21:10:17 -0500] "GET /GameSpeed4U/site_header.html HTTP/1.1" 200 1866
127.0.0.1 - - [24/Apr/2016:21:10:17 -0500] "GET /GameSpeed4U/site_sidebar.html HTTP/1.1" 200 858
127.0.0.1 - - [24/Apr/2016:21:10:17 -0500] "GET /GameSpeed4U/site_footer.html HTTP/1.1" 200 205
0:0:0:0:0:0:0:1 - - [24/Apr/2016:21:10:17 -0500] "GET /GameSpeed4U/ConsoleList?maker=microsoft HTTP/1.1" 200 3212
0:0:0:0:0:0:0:1 - - [24/Apr/2016:21:10:17 -0500] "GET /GameSpeed4U/autocomplete.js HTTP/1.1" 404 1005
127.0.0.1 - - [24/Apr/2016:21:11:48 -0500] "GET /GameSpeed4U/site_header.html HTTP/1.1" 200 1866
127.0.0.1 - - [24/Apr/2016:21:11:48 -0500] "GET /GameSpeed4U/site_sidebar.html HTTP/1.1" 200 858
127.0.0.1 - - [24/Apr/2016:21:11:48 -0500] "GET /GameSpeed4U/site_home.html HTTP/1.1" 200 1644
127.0.0.1 - - [24/Apr/2016:21:11:48 -0500] "GET /GameSpeed4U/site_footer.html HTTP/1.1" 200 205
0:0:0:0:0:0:0:1 - - [24/Apr/2016:21:11:48 -0500] "GET /GameSpeed4U/Home HTTP/1.1" 200 4674
0:0:0:0:0:0:0:1 - - [24/Apr/2016:21:11:48 -0500] "GET /GameSpeed4U/autocomplete.js HTTP/1.1" 404 1005
127.0.0.1 - - [24/Apr/2016:21:11:49 -0500] "GET /GameSpeed4U/site_header.html HTTP/1.1" 200 1866
127.0.0.1 - - [24/Apr/2016:21:11:49 -0500] "GET /GameSpeed4U/site_sidebar.html HTTP/1.1" 200 858
127.0.0.1 - - [24/Apr/2016:21:11:49 -0500] "GET /GameSpeed4U/site_footer.html HTTP/1.1" 200 205
0:0:0:0:0:0:0:1 - - [24/Apr/2016:21:11:49 -0500] "GET /GameSpeed4U/ConsoleList?maker=microsoft HTTP/1.1" 200 4547
0:0:0:0:0:0:0:1 - - [24/Apr/2016:21:11:49 -0500] "GET /GameSpeed4U/autocomplete.js HTTP/1.1" 404 1005
0:0:0:0:0:0:0:1 - - [24/Apr/2016:21:11:49 -0500] "GET /GameSpeed4U/images/consoles/xbox360.jpg HTTP/1.1" 304 -
127.0.0.1 - - [24/Apr/2016:21:11:51 -0500] "GET /GameSpeed4U/site_header.html HTTP/1.1" 200 1866
127.0.0.1 - - [24/Apr/2016:21:11:51 -0500] "GET /GameSpeed4U/site_sidebar.html HTTP/1.1" 200 858
127.0.0.1 - - [24/Apr/2016:21:11:51 -0500] "GET /GameSpeed4U/site_footer.html HTTP/1.1" 200 205
0:0:0:0:0:0:0:1 - - [24/Apr/2016:21:11:51 -0500] "GET /GameSpeed4U/ConsoleList?maker=sony HTTP/1.1" 200 5787
0:0:0:0:0:0:0:1 - - [24/Apr/2016:21:11:51 -0500] "GET /GameSpeed4U/autocomplete.js HTTP/1.1" 404 1005
0:0:0:0:0:0:0:1 - - [24/Apr/2016:21:11:51 -0500] "GET /GameSpeed4U/images/consoles/ps4.jpg HTTP/1.1" 404 1021
0:0:0:0:0:0:0:1 - - [24/Apr/2016:21:11:51 -0500] "GET /GameSpeed4U/images/consoles/ps3.jpg HTTP/1.1" 404 1021
127.0.0.1 - - [24/Apr/2016:21:11:54 -0500] "GET /GameSpeed4U/site_header.html HTTP/1.1" 200 1866
127.0.0.1 - - [24/Apr/2016:21:11:54 -0500] "GET /GameSpeed4U/site_sidebar.html HTTP/1.1" 200 858
127.0.0.1 - - [24/Apr/2016:21:11:54 -0500] "GET /GameSpeed4U/site_footer.html HTTP/1.1" 200 205
0:0:0:0:0:0:0:1 - - [24/Apr/2016:21:11:54 -0500] "GET /GameSpeed4U/ConsoleList?maker=nintendo HTTP/1.1" 200 5926
0:0:0:0:0:0:0:1 - - [24/Apr/2016:21:11:54 -0500] "GET /GameSpeed4U/images/consoles/ninendowii.jpg HTTP/1.1" 404 1035
0:0:0:0:0:0:0:1 - - [24/Apr/2016:21:11:54 -0500] "GET /GameSpeed4U/autocomplete.js HTTP/1.1" 404 1005
0:0:0:0:0:0:0:1 - - [24/Apr/2016:21:11:54 -0500] "GET /GameSpeed4U/images/consoles/ps3.jpg HTTP/1.1" 404 1021
127.0.0.1 - - [24/Apr/2016:21:11:56 -0500] "GET /GameSpeed4U/site_header.html HTTP/1.1" 200 1866
127.0.0.1 - - [24/Apr/2016:21:11:56 -0500] "GET /GameSpeed4U/site_sidebar.html HTTP/1.1" 200 858
127.0.0.1 - - [24/Apr/2016:21:11:56 -0500] "GET /GameSpeed4U/site_footer.html HTTP/1.1" 200 205
0:0:0:0:0:0:0:1 - - [24/Apr/2016:21:11:56 -0500] "GET /GameSpeed4U/ConsoleList?maker=microsoft HTTP/1.1" 200 4547
0:0:0:0:0:0:0:1 - - [24/Apr/2016:21:11:56 -0500] "GET /GameSpeed4U/autocomplete.js HTTP/1.1" 404 1005
127.0.0.1 - - [24/Apr/2016:21:11:59 -0500] "GET /GameSpeed4U/site_header.html HTTP/1.1" 200 1866
127.0.0.1 - - [24/Apr/2016:21:11:59 -0500] "GET /GameSpeed4U/site_sidebar.html HTTP/1.1" 200 858
127.0.0.1 - - [24/Apr/2016:21:11:59 -0500] "GET /GameSpeed4U/site_footer.html HTTP/1.1" 200 205
0:0:0:0:0:0:0:1 - - [24/Apr/2016:21:11:59 -0500] "GET /GameSpeed4U/GamesList?maker=electronicArts HTTP/1.1" 200 4372
0:0:0:0:0:0:0:1 - - [24/Apr/2016:21:11:59 -0500] "GET /GameSpeed4U/autocomplete.js HTTP/1.1" 404 1005
0:0:0:0:0:0:0:1 - - [24/Apr/2016:21:11:59 -0500] "GET /GameSpeed4U/images/games/ea_nfs.jpg HTTP/1.1" 200 11709
0:0:0:0:0:0:0:1 - - [24/Apr/2016:21:11:59 -0500] "GET /GameSpeed4U/images/games/ea_fifa.jpg HTTP/1.1" 200 196081
127.0.0.1 - - [24/Apr/2016:21:12:01 -0500] "GET /GameSpeed4U/site_header.html HTTP/1.1" 200 1866
127.0.0.1 - - [24/Apr/2016:21:12:01 -0500] "GET /GameSpeed4U/site_sidebar.html HTTP/1.1" 200 858
127.0.0.1 - - [24/Apr/2016:21:12:01 -0500] "GET /GameSpeed4U/site_footer.html HTTP/1.1" 200 205
0:0:0:0:0:0:0:1 - - [24/Apr/2016:21:12:01 -0500] "GET /GameSpeed4U/GamesList?maker=activision HTTP/1.1" 200 3808
0:0:0:0:0:0:0:1 - - [24/Apr/2016:21:12:01 -0500] "GET /GameSpeed4U/autocomplete.js HTTP/1.1" 404 1005
0:0:0:0:0:0:0:1 - - [24/Apr/2016:21:12:01 -0500] "GET /GameSpeed4U/images/games/activision_cod.jpg HTTP/1.1" 200 351595
127.0.0.1 - - [24/Apr/2016:21:12:02 -0500] "GET /GameSpeed4U/site_header.html HTTP/1.1" 200 1866
127.0.0.1 - - [24/Apr/2016:21:12:02 -0500] "GET /GameSpeed4U/site_sidebar.html HTTP/1.1" 200 858
127.0.0.1 - - [24/Apr/2016:21:12:02 -0500] "GET /GameSpeed4U/site_footer.html HTTP/1.1" 200 205
0:0:0:0:0:0:0:1 - - [24/Apr/2016:21:12:02 -0500] "GET /GameSpeed4U/GamesList?maker=takeTwoInteractive HTTP/1.1" 200 3816
0:0:0:0:0:0:0:1 - - [24/Apr/2016:21:12:02 -0500] "GET /GameSpeed4U/autocomplete.js HTTP/1.1" 404 1005
0:0:0:0:0:0:0:1 - - [24/Apr/2016:21:12:02 -0500] "GET /GameSpeed4U/images/games/tti_evolve.jpg HTTP/1.1" 200 1581398
127.0.0.1 - - [24/Apr/2016:21:12:03 -0500] "GET /GameSpeed4U/site_header.html HTTP/1.1" 200 1866
127.0.0.1 - - [24/Apr/2016:21:12:03 -0500] "GET /GameSpeed4U/site_sidebar.html HTTP/1.1" 200 858
127.0.0.1 - - [24/Apr/2016:21:12:03 -0500] "GET /GameSpeed4U/site_footer.html HTTP/1.1" 200 205
0:0:0:0:0:0:0:1 - - [24/Apr/2016:21:12:03 -0500] "GET /GameSpeed4U/GamesList?maker=electronicArts HTTP/1.1" 200 4372
0:0:0:0:0:0:0:1 - - [24/Apr/2016:21:12:03 -0500] "GET /GameSpeed4U/autocomplete.js HTTP/1.1" 404 1005
127.0.0.1 - - [24/Apr/2016:21:12:24 -0500] "GET /GameSpeed4U/site_header.html HTTP/1.1" 200 1866
127.0.0.1 - - [24/Apr/2016:21:12:24 -0500] "GET /GameSpeed4U/site_sidebar.html HTTP/1.1" 200 858
127.0.0.1 - - [24/Apr/2016:21:12:24 -0500] "GET /GameSpeed4U/site_footer.html HTTP/1.1" 200 205
0:0:0:0:0:0:0:1 - - [24/Apr/2016:21:12:24 -0500] "GET /GameSpeed4U/ConsoleList?maker=microsoft HTTP/1.1" 200 4547
0:0:0:0:0:0:0:1 - - [24/Apr/2016:21:12:24 -0500] "GET /GameSpeed4U/autocomplete.js HTTP/1.1" 404 1005
127.0.0.1 - - [24/Apr/2016:21:12:25 -0500] "GET /GameSpeed4U/site_header.html HTTP/1.1" 200 1866
127.0.0.1 - - [24/Apr/2016:21:12:25 -0500] "GET /GameSpeed4U/site_sidebar.html HTTP/1.1" 200 858
0:0:0:0:0:0:0:1 - - [24/Apr/2016:21:12:25 -0500] "GET /GameSpeed4U/AccessoryList?maker=Microsoft&console=XBOX360 HTTP/1.1" 500 1345
127.0.0.1 - - [24/Apr/2016:21:12:59 -0500] "GET /GameSpeed4U/site_header.html HTTP/1.1" 200 1866
127.0.0.1 - - [24/Apr/2016:21:12:59 -0500] "GET /GameSpeed4U/site_sidebar.html HTTP/1.1" 200 858
127.0.0.1 - - [24/Apr/2016:21:12:59 -0500] "GET /GameSpeed4U/site_footer.html HTTP/1.1" 200 205
0:0:0:0:0:0:0:1 - - [24/Apr/2016:21:12:59 -0500] "GET /GameSpeed4U/ConsoleList?maker=microsoft HTTP/1.1" 200 4547
0:0:0:0:0:0:0:1 - - [24/Apr/2016:21:12:59 -0500] "GET /GameSpeed4U/autocomplete.js HTTP/1.1" 404 1005
127.0.0.1 - - [24/Apr/2016:21:13:03 -0500] "GET /GameSpeed4U/site_header.html HTTP/1.1" 200 1866
127.0.0.1 - - [24/Apr/2016:21:13:03 -0500] "GET /GameSpeed4U/site_sidebar.html HTTP/1.1" 200 858
0:0:0:0:0:0:0:1 - - [24/Apr/2016:21:13:03 -0500] "GET /GameSpeed4U/AccessoryList?maker=Microsoft&console=XBOX360 HTTP/1.1" 500 1345
127.0.0.1 - - [24/Apr/2016:21:28:18 -0500] "GET /GameSpeed4U/site_header.html HTTP/1.1" 200 1866
127.0.0.1 - - [24/Apr/2016:21:28:18 -0500] "GET /GameSpeed4U/site_sidebar.html HTTP/1.1" 200 858
0:0:0:0:0:0:0:1 - - [24/Apr/2016:21:28:18 -0500] "GET /GameSpeed4U/AccessoryList?maker=Microsoft&console=XBOX360 HTTP/1.1" 500 1345
0:0:0:0:0:0:0:1 - - [24/Apr/2016:21:28:18 -0500] "GET /favicon.ico HTTP/1.1" 200 21630
127.0.0.1 - - [24/Apr/2016:21:28:19 -0500] "GET /GameSpeed4U/site_header.html HTTP/1.1" 200 1866
127.0.0.1 - - [24/Apr/2016:21:28:19 -0500] "GET /GameSpeed4U/site_sidebar.html HTTP/1.1" 200 858
0:0:0:0:0:0:0:1 - - [24/Apr/2016:21:28:19 -0500] "GET /GameSpeed4U/AccessoryList?maker=Microsoft&console=XBOX360 HTTP/1.1" 500 1345
0:0:0:0:0:0:0:1 - - [24/Apr/2016:21:28:19 -0500] "GET /favicon.ico HTTP/1.1" 200 21630
127.0.0.1 - - [24/Apr/2016:21:28:40 -0500] "GET /GameSpeed4U/site_header.html HTTP/1.1" 200 1866
127.0.0.1 - - [24/Apr/2016:21:28:40 -0500] "GET /GameSpeed4U/site_sidebar.html HTTP/1.1" 200 858
127.0.0.1 - - [24/Apr/2016:21:28:40 -0500] "GET /GameSpeed4U/site_footer.html HTTP/1.1" 200 205
0:0:0:0:0:0:0:1 - - [24/Apr/2016:21:28:40 -0500] "GET /GameSpeed4U/ConsoleList?maker=microsoft HTTP/1.1" 200 4547
0:0:0:0:0:0:0:1 - - [24/Apr/2016:21:28:40 -0500] "GET /GameSpeed4U/autocomplete.js HTTP/1.1" 404 1005
127.0.0.1 - - [24/Apr/2016:21:28:43 -0500] "GET /GameSpeed4U/site_header.html HTTP/1.1" 200 1866
127.0.0.1 - - [24/Apr/2016:21:28:43 -0500] "GET /GameSpeed4U/site_sidebar.html HTTP/1.1" 200 858
0:0:0:0:0:0:0:1 - - [24/Apr/2016:21:28:43 -0500] "GET /GameSpeed4U/AccessoryList?maker=Microsoft&console=XBOX360 HTTP/1.1" 500 1345
127.0.0.1 - - [24/Apr/2016:21:31:45 -0500] "GET /GameSpeed4U/site_header.html HTTP/1.1" 200 1866
127.0.0.1 - - [24/Apr/2016:21:31:45 -0500] "GET /GameSpeed4U/site_sidebar.html HTTP/1.1" 200 858
127.0.0.1 - - [24/Apr/2016:21:31:45 -0500] "GET /GameSpeed4U/site_footer.html HTTP/1.1" 200 205
0:0:0:0:0:0:0:1 - - [24/Apr/2016:21:31:45 -0500] "GET /GameSpeed4U/ConsoleList?maker=microsoft HTTP/1.1" 200 4547
0:0:0:0:0:0:0:1 - - [24/Apr/2016:21:31:45 -0500] "GET /GameSpeed4U/autocomplete.js HTTP/1.1" 404 1005
127.0.0.1 - - [24/Apr/2016:21:31:48 -0500] "GET /GameSpeed4U/site_header.html HTTP/1.1" 200 1866
127.0.0.1 - - [24/Apr/2016:21:31:48 -0500] "GET /GameSpeed4U/site_sidebar.html HTTP/1.1" 200 858
127.0.0.1 - - [24/Apr/2016:21:31:48 -0500] "GET /GameSpeed4U/site_footer.html HTTP/1.1" 200 205
0:0:0:0:0:0:0:1 - - [24/Apr/2016:21:31:48 -0500] "GET /GameSpeed4U/ConsoleList?maker=microsoft HTTP/1.1" 200 4547
0:0:0:0:0:0:0:1 - - [24/Apr/2016:21:31:48 -0500] "GET /GameSpeed4U/autocomplete.js HTTP/1.1" 404 1005
127.0.0.1 - - [24/Apr/2016:21:31:51 -0500] "GET /GameSpeed4U/site_header.html HTTP/1.1" 200 1866
127.0.0.1 - - [24/Apr/2016:21:31:51 -0500] "GET /GameSpeed4U/site_sidebar.html HTTP/1.1" 200 858
0:0:0:0:0:0:0:1 - - [24/Apr/2016:21:31:51 -0500] "GET /GameSpeed4U/AccessoryList?maker=Microsoft&console=XBOX360 HTTP/1.1" 500 1345
127.0.0.1 - - [24/Apr/2016:21:32:03 -0500] "GET /GameSpeed4U/site_header.html HTTP/1.1" 200 1866
127.0.0.1 - - [24/Apr/2016:21:32:03 -0500] "GET /GameSpeed4U/site_sidebar.html HTTP/1.1" 200 858
0:0:0:0:0:0:0:1 - - [24/Apr/2016:21:32:03 -0500] "GET /GameSpeed4U/AccessoryList?maker=Microsoft&console=XBOX360 HTTP/1.1" 500 1345
127.0.0.1 - - [24/Apr/2016:21:38:14 -0500] "GET /GameSpeed4U/site_header.html HTTP/1.1" 200 1866
127.0.0.1 - - [24/Apr/2016:21:38:14 -0500] "GET /GameSpeed4U/site_sidebar.html HTTP/1.1" 200 858
0:0:0:0:0:0:0:1 - - [24/Apr/2016:21:38:14 -0500] "GET /GameSpeed4U/AccessoryList?maker=Microsoft&console=XBOX360 HTTP/1.1" 500 1345
127.0.0.1 - - [24/Apr/2016:21:38:36 -0500] "GET /GameSpeed4U/site_header.html HTTP/1.1" 200 1866
127.0.0.1 - - [24/Apr/2016:21:38:36 -0500] "GET /GameSpeed4U/site_sidebar.html HTTP/1.1" 200 858
127.0.0.1 - - [24/Apr/2016:21:38:36 -0500] "GET /GameSpeed4U/site_footer.html HTTP/1.1" 200 205
0:0:0:0:0:0:0:1 - - [24/Apr/2016:21:38:36 -0500] "GET /GameSpeed4U/ConsoleList?maker=sony HTTP/1.1" 200 5787
0:0:0:0:0:0:0:1 - - [24/Apr/2016:21:38:36 -0500] "GET /GameSpeed4U/autocomplete.js HTTP/1.1" 404 1005
0:0:0:0:0:0:0:1 - - [24/Apr/2016:21:38:36 -0500] "GET /GameSpeed4U/images/consoles/ps3.jpg HTTP/1.1" 404 1021
0:0:0:0:0:0:0:1 - - [24/Apr/2016:21:38:36 -0500] "GET /GameSpeed4U/images/consoles/ps4.jpg HTTP/1.1" 404 1021
127.0.0.1 - - [24/Apr/2016:21:38:38 -0500] "GET /GameSpeed4U/site_header.html HTTP/1.1" 200 1866
127.0.0.1 - - [24/Apr/2016:21:38:38 -0500] "GET /GameSpeed4U/site_sidebar.html HTTP/1.1" 200 858
0:0:0:0:0:0:0:1 - - [24/Apr/2016:21:38:38 -0500] "GET /GameSpeed4U/AccessoryList?maker=Sony&console=XBOX1 HTTP/1.1" 500 1345
127.0.0.1 - - [24/Apr/2016:21:44:37 -0500] "GET /GameSpeed4U/site_header.html HTTP/1.1" 200 1866
127.0.0.1 - - [24/Apr/2016:21:44:37 -0500] "GET /GameSpeed4U/site_sidebar.html HTTP/1.1" 200 858
127.0.0.1 - - [24/Apr/2016:21:44:37 -0500] "GET /GameSpeed4U/site_footer.html HTTP/1.1" 200 205
0:0:0:0:0:0:0:1 - - [24/Apr/2016:21:44:37 -0500] "GET /GameSpeed4U/ConsoleList?maker=microsoft HTTP/1.1" 200 4547
0:0:0:0:0:0:0:1 - - [24/Apr/2016:21:44:37 -0500] "GET /GameSpeed4U/autocomplete.js HTTP/1.1" 404 1005
127.0.0.1 - - [24/Apr/2016:21:44:40 -0500] "GET /GameSpeed4U/site_header.html HTTP/1.1" 200 1866
127.0.0.1 - - [24/Apr/2016:21:44:40 -0500] "GET /GameSpeed4U/site_sidebar.html HTTP/1.1" 200 858
0:0:0:0:0:0:0:1 - - [24/Apr/2016:21:44:40 -0500] "GET /GameSpeed4U/AccessoryList?maker=Microsoft&console=XBOX360 HTTP/1.1" 500 1345
127.0.0.1 - - [24/Apr/2016:21:47:26 -0500] "GET /GameSpeed4U/site_header.html HTTP/1.1" 200 1866
127.0.0.1 - - [24/Apr/2016:21:47:26 -0500] "GET /GameSpeed4U/site_sidebar.html HTTP/1.1" 200 858
127.0.0.1 - - [24/Apr/2016:21:47:26 -0500] "GET /GameSpeed4U/site_footer.html HTTP/1.1" 200 205
0:0:0:0:0:0:0:1 - - [24/Apr/2016:21:47:26 -0500] "GET /GameSpeed4U/ConsoleList?maker=microsoft HTTP/1.1" 200 4547
0:0:0:0:0:0:0:1 - - [24/Apr/2016:21:47:26 -0500] "GET /GameSpeed4U/autocomplete.js HTTP/1.1" 404 1005
127.0.0.1 - - [24/Apr/2016:21:48:10 -0500] "GET /GameSpeed4U/site_header.html HTTP/1.1" 200 1866
127.0.0.1 - - [24/Apr/2016:21:48:10 -0500] "GET /GameSpeed4U/site_sidebar.html HTTP/1.1" 200 858
0:0:0:0:0:0:0:1 - - [24/Apr/2016:21:48:10 -0500] "GET /GameSpeed4U/AccessoryList?maker=Microsoft&console=XBOX360 HTTP/1.1" 500 1345
127.0.0.1 - - [24/Apr/2016:21:49:50 -0500] "GET /GameSpeed4U/site_header.html HTTP/1.1" 200 1866
127.0.0.1 - - [24/Apr/2016:21:49:50 -0500] "GET /GameSpeed4U/site_sidebar.html HTTP/1.1" 200 858
0:0:0:0:0:0:0:1 - - [24/Apr/2016:21:49:50 -0500] "GET /GameSpeed4U/AccessoryList?maker=Microsoft&console=XBOX360 HTTP/1.1" 500 1345
127.0.0.1 - - [24/Apr/2016:21:51:36 -0500] "GET /GameSpeed4U/site_header.html HTTP/1.1" 200 1866
127.0.0.1 - - [24/Apr/2016:21:51:36 -0500] "GET /GameSpeed4U/site_sidebar.html HTTP/1.1" 200 858
127.0.0.1 - - [24/Apr/2016:21:51:36 -0500] "GET /GameSpeed4U/site_home.html HTTP/1.1" 200 1644
127.0.0.1 - - [24/Apr/2016:21:51:36 -0500] "GET /GameSpeed4U/site_footer.html HTTP/1.1" 200 205
0:0:0:0:0:0:0:1 - - [24/Apr/2016:21:51:36 -0500] "GET /GameSpeed4U/Home HTTP/1.1" 200 4674
0:0:0:0:0:0:0:1 - - [24/Apr/2016:21:51:36 -0500] "GET /GameSpeed4U/autocomplete.js HTTP/1.1" 404 1005
127.0.0.1 - - [24/Apr/2016:21:51:39 -0500] "GET /GameSpeed4U/site_header.html HTTP/1.1" 200 1866
127.0.0.1 - - [24/Apr/2016:21:51:39 -0500] "GET /GameSpeed4U/site_sidebar.html HTTP/1.1" 200 858
127.0.0.1 - - [24/Apr/2016:21:51:39 -0500] "GET /GameSpeed4U/site_footer.html HTTP/1.1" 200 205
0:0:0:0:0:0:0:1 - - [24/Apr/2016:21:51:39 -0500] "GET /GameSpeed4U/ConsoleList?maker=microsoft HTTP/1.1" 200 4547
0:0:0:0:0:0:0:1 - - [24/Apr/2016:21:51:39 -0500] "GET /GameSpeed4U/autocomplete.js HTTP/1.1" 404 1005
127.0.0.1 - - [24/Apr/2016:21:51:41 -0500] "GET /GameSpeed4U/site_header.html HTTP/1.1" 200 1866
127.0.0.1 - - [24/Apr/2016:21:51:41 -0500] "GET /GameSpeed4U/site_sidebar.html HTTP/1.1" 200 858
0:0:0:0:0:0:0:1 - - [24/Apr/2016:21:51:41 -0500] "GET /GameSpeed4U/AccessoryList?maker=Microsoft&console=XBOX360 HTTP/1.1" 500 1345
127.0.0.1 - - [24/Apr/2016:21:53:34 -0500] "GET /GameSpeed4U/site_header.html HTTP/1.1" 200 1866
127.0.0.1 - - [24/Apr/2016:21:53:34 -0500] "GET /GameSpeed4U/site_sidebar.html HTTP/1.1" 200 858
0:0:0:0:0:0:0:1 - - [24/Apr/2016:21:53:34 -0500] "GET /GameSpeed4U/AccessoryList?maker=Microsoft&console=XBOX360 HTTP/1.1" 500 1345
127.0.0.1 - - [24/Apr/2016:21:54:44 -0500] "GET /GameSpeed4U/site_header.html HTTP/1.1" 200 1866
127.0.0.1 - - [24/Apr/2016:21:54:44 -0500] "GET /GameSpeed4U/site_sidebar.html HTTP/1.1" 200 858
127.0.0.1 - - [24/Apr/2016:21:54:44 -0500] "GET /GameSpeed4U/site_footer.html HTTP/1.1" 200 205
0:0:0:0:0:0:0:1 - - [24/Apr/2016:21:54:44 -0500] "GET /GameSpeed4U/AccessoryList?maker=Microsoft&console=XBOX360 HTTP/1.1" 200 4459
0:0:0:0:0:0:0:1 - - [24/Apr/2016:21:54:44 -0500] "GET /GameSpeed4U/autocomplete.js HTTP/1.1" 404 1005
0:0:0:0:0:0:0:1 - - [24/Apr/2016:21:54:44 -0500] "GET /GameSpeed4U/images/accessories/xbox360_wa.png HTTP/1.1" 304 -
0:0:0:0:0:0:0:1 - - [24/Apr/2016:21:54:44 -0500] "GET /GameSpeed4U/images/accessories/XBOX360-SpeedWheel.jpg HTTP/1.1" 304 -
0:0:0:0:0:0:0:1 - - [24/Apr/2016:21:54:49 -0500] "GET /GameSpeed4U/Review?name=Speeding%20Wheel&type=accessories&maker=Microsoft&access=XBOX360 HTTP/1.1" 404 987
0:0:0:0:0:0:0:1 - - [24/Apr/2016:21:54:54 -0500] "GET /GameSpeed4U/Review?name=Speeding%20Wheel&type=accessories&maker=Microsoft&access=XBOX360 HTTP/1.1" 404 987
0:0:0:0:0:0:0:1 - - [24/Apr/2016:21:55:00 -0500] "POST /GameSpeed4U/Cart HTTP/1.1" 500 1366
0:0:0:0:0:0:0:1 - - [24/Apr/2016:21:55:48 -0500] "POST /GameSpeed4U/Cart HTTP/1.1" 500 1366
0:0:0:0:0:0:0:1 - - [24/Apr/2016:21:56:09 -0500] "POST /GameSpeed4U/Cart HTTP/1.1" 500 1366
127.0.0.1 - - [24/Apr/2016:22:00:27 -0500] "GET /GameSpeed4U/site_header.html HTTP/1.1" 200 1866
127.0.0.1 - - [24/Apr/2016:22:00:27 -0500] "GET /GameSpeed4U/site_sidebar.html HTTP/1.1" 200 858
127.0.0.1 - - [24/Apr/2016:22:00:27 -0500] "GET /GameSpeed4U/site_footer.html HTTP/1.1" 200 205
0:0:0:0:0:0:0:1 - - [24/Apr/2016:22:00:27 -0500] "GET /GameSpeed4U/ConsoleList?maker=microsoft HTTP/1.1" 200 4547
0:0:0:0:0:0:0:1 - - [24/Apr/2016:22:00:27 -0500] "GET /GameSpeed4U/autocomplete.js HTTP/1.1" 404 1005
127.0.0.1 - - [24/Apr/2016:22:00:29 -0500] "GET /GameSpeed4U/site_header.html HTTP/1.1" 200 1866
127.0.0.1 - - [24/Apr/2016:22:00:29 -0500] "GET /GameSpeed4U/site_sidebar.html HTTP/1.1" 200 858
127.0.0.1 - - [24/Apr/2016:22:00:29 -0500] "GET /GameSpeed4U/site_footer.html HTTP/1.1" 200 205
0:0:0:0:0:0:0:1 - - [24/Apr/2016:22:00:29 -0500] "GET /GameSpeed4U/AccessoryList?maker=Microsoft&console=XBOX360 HTTP/1.1" 200 4459
0:0:0:0:0:0:0:1 - - [24/Apr/2016:22:00:29 -0500] "GET /GameSpeed4U/autocomplete.js HTTP/1.1" 404 1005
0:0:0:0:0:0:0:1 - - [24/Apr/2016:22:00:30 -0500] "POST /GameSpeed4U/Cart HTTP/1.1" 500 1366
0:0:0:0:0:0:0:1 - - [24/Apr/2016:22:02:54 -0500] "POST /GameSpeed4U/Cart HTTP/1.1" 500 1366
0:0:0:0:0:0:0:1 - - [24/Apr/2016:22:06:56 -0500] "POST /GameSpeed4U/Cart HTTP/1.1" 500 1366
0:0:0:0:0:0:0:1 - - [24/Apr/2016:22:09:59 -0500] "POST /GameSpeed4U/Cart HTTP/1.1" 500 1366
0:0:0:0:0:0:0:1 - - [24/Apr/2016:22:11:02 -0500] "POST /GameSpeed4U/Cart HTTP/1.1" 500 1366
0:0:0:0:0:0:0:1 - - [24/Apr/2016:22:12:50 -0500] "POST /GameSpeed4U/Cart HTTP/1.1" 500 1366
0:0:0:0:0:0:0:1 - - [24/Apr/2016:22:25:34 -0500] "POST /GameSpeed4U/Cart HTTP/1.1" 500 1366
0:0:0:0:0:0:0:1 - - [24/Apr/2016:22:26:24 -0500] "POST /GameSpeed4U/Cart HTTP/1.1" 500 1366
0:0:0:0:0:0:0:1 - - [24/Apr/2016:22:27:12 -0500] "POST /GameSpeed4U/Cart HTTP/1.1" 500 1366
0:0:0:0:0:0:0:1 - - [24/Apr/2016:22:28:05 -0500] "POST /GameSpeed4U/Cart HTTP/1.1" 500 1366
0:0:0:0:0:0:0:1 - - [24/Apr/2016:22:28:37 -0500] "POST /GameSpeed4U/Cart HTTP/1.1" 500 1366
0:0:0:0:0:0:0:1 - - [24/Apr/2016:22:30:02 -0500] "POST /GameSpeed4U/Cart HTTP/1.1" 500 1366
0:0:0:0:0:0:0:1 - - [24/Apr/2016:22:35:04 -0500] "POST /GameSpeed4U/Cart HTTP/1.1" 500 1366
0:0:0:0:0:0:0:1 - - [24/Apr/2016:22:37:55 -0500] "POST /GameSpeed4U/Cart HTTP/1.1" 500 1366
0:0:0:0:0:0:0:1 - - [24/Apr/2016:22:40:20 -0500] "POST /GameSpeed4U/Cart HTTP/1.1" 500 1366
0:0:0:0:0:0:0:1 - - [24/Apr/2016:22:40:41 -0500] "POST /GameSpeed4U/Cart HTTP/1.1" 500 1366
0:0:0:0:0:0:0:1 - - [24/Apr/2016:22:41:01 -0500] "POST /GameSpeed4U/Cart HTTP/1.1" 500 1366
127.0.0.1 - - [24/Apr/2016:22:41:24 -0500] "GET /GameSpeed4U/site_header.html HTTP/1.1" 200 1866
127.0.0.1 - - [24/Apr/2016:22:41:24 -0500] "GET /GameSpeed4U/site_sidebar.html HTTP/1.1" 200 858
127.0.0.1 - - [24/Apr/2016:22:41:24 -0500] "GET /GameSpeed4U/site_footer.html HTTP/1.1" 200 205
0:0:0:0:0:0:0:1 - - [24/Apr/2016:22:41:24 -0500] "GET /GameSpeed4U/AccessoryList?maker=Microsoft&console=XBOX360 HTTP/1.1" 200 4471
0:0:0:0:0:0:0:1 - - [24/Apr/2016:22:41:24 -0500] "GET /GameSpeed4U/autocomplete.js HTTP/1.1" 404 1005
127.0.0.1 - - [24/Apr/2016:22:43:01 -0500] "GET /GameSpeed4U/site_header.html HTTP/1.1" 200 1866
127.0.0.1 - - [24/Apr/2016:22:43:01 -0500] "GET /GameSpeed4U/site_sidebar.html HTTP/1.1" 200 858
127.0.0.1 - - [24/Apr/2016:22:43:01 -0500] "GET /GameSpeed4U/site_footer.html HTTP/1.1" 200 205
0:0:0:0:0:0:0:1 - - [24/Apr/2016:22:43:01 -0500] "GET /GameSpeed4U/ConsoleList?maker=microsoft HTTP/1.1" 200 4547
0:0:0:0:0:0:0:1 - - [24/Apr/2016:22:43:01 -0500] "GET /GameSpeed4U/autocomplete.js HTTP/1.1" 404 1005
127.0.0.1 - - [24/Apr/2016:22:43:04 -0500] "GET /GameSpeed4U/site_header.html HTTP/1.1" 200 1866
127.0.0.1 - - [24/Apr/2016:22:43:04 -0500] "GET /GameSpeed4U/site_sidebar.html HTTP/1.1" 200 858
127.0.0.1 - - [24/Apr/2016:22:43:04 -0500] "GET /GameSpeed4U/site_footer.html HTTP/1.1" 200 205
0:0:0:0:0:0:0:1 - - [24/Apr/2016:22:43:04 -0500] "GET /GameSpeed4U/ConsoleList?maker=microsoft HTTP/1.1" 200 4547
0:0:0:0:0:0:0:1 - - [24/Apr/2016:22:43:04 -0500] "GET /GameSpeed4U/autocomplete.js HTTP/1.1" 404 1005
127.0.0.1 - - [24/Apr/2016:22:43:07 -0500] "GET /GameSpeed4U/site_header.html HTTP/1.1" 200 1866
127.0.0.1 - - [24/Apr/2016:22:43:07 -0500] "GET /GameSpeed4U/site_sidebar.html HTTP/1.1" 200 858
127.0.0.1 - - [24/Apr/2016:22:43:07 -0500] "GET /GameSpeed4U/site_footer.html HTTP/1.1" 200 205
0:0:0:0:0:0:0:1 - - [24/Apr/2016:22:43:07 -0500] "GET /GameSpeed4U/AccessoryList?maker=Microsoft&console=XBOX360 HTTP/1.1" 200 4471
0:0:0:0:0:0:0:1 - - [24/Apr/2016:22:43:07 -0500] "GET /GameSpeed4U/autocomplete.js HTTP/1.1" 404 1005
0:0:0:0:0:0:0:1 - - [24/Apr/2016:22:43:13 -0500] "POST /GameSpeed4U/Cart HTTP/1.1" 302 -
127.0.0.1 - - [24/Apr/2016:22:43:13 -0500] "GET /GameSpeed4U/site_header.html HTTP/1.1" 200 1866
127.0.0.1 - - [24/Apr/2016:22:43:13 -0500] "GET /GameSpeed4U/site_footer.html HTTP/1.1" 200 205
0:0:0:0:0:0:0:1 - - [24/Apr/2016:22:43:13 -0500] "GET /GameSpeed4U/Login HTTP/1.1" 200 3316
0:0:0:0:0:0:0:1 - - [24/Apr/2016:22:43:13 -0500] "GET /GameSpeed4U/autocomplete.js HTTP/1.1" 404 1005
127.0.0.1 - - [24/Apr/2016:22:43:39 -0500] "GET /GameSpeed4U/site_header.html HTTP/1.1" 200 1866
127.0.0.1 - - [24/Apr/2016:22:43:39 -0500] "GET /GameSpeed4U/site_footer.html HTTP/1.1" 200 205
0:0:0:0:0:0:0:1 - - [24/Apr/2016:22:43:39 -0500] "POST /GameSpeed4U/Login HTTP/1.1" 200 3334
0:0:0:0:0:0:0:1 - - [24/Apr/2016:22:43:39 -0500] "GET /GameSpeed4U/autocomplete.js HTTP/1.1" 404 1005
127.0.0.1 - - [24/Apr/2016:22:43:40 -0500] "GET /GameSpeed4U/site_header.html HTTP/1.1" 200 1866
127.0.0.1 - - [24/Apr/2016:22:43:40 -0500] "GET /GameSpeed4U/site_footer.html HTTP/1.1" 200 205
0:0:0:0:0:0:0:1 - - [24/Apr/2016:22:43:40 -0500] "POST /GameSpeed4U/Login HTTP/1.1" 200 3334
0:0:0:0:0:0:0:1 - - [24/Apr/2016:22:43:40 -0500] "GET /GameSpeed4U/autocomplete.js HTTP/1.1" 404 1005
127.0.0.1 - - [24/Apr/2016:22:43:53 -0500] "GET /GameSpeed4U/site_header.html HTTP/1.1" 200 1866
127.0.0.1 - - [24/Apr/2016:22:43:53 -0500] "GET /GameSpeed4U/site_footer.html HTTP/1.1" 200 205
0:0:0:0:0:0:0:1 - - [24/Apr/2016:22:43:53 -0500] "POST /GameSpeed4U/Login HTTP/1.1" 200 3334
0:0:0:0:0:0:0:1 - - [24/Apr/2016:22:43:54 -0500] "GET /GameSpeed4U/autocomplete.js HTTP/1.1" 404 1005
127.0.0.1 - - [24/Apr/2016:22:43:56 -0500] "GET /GameSpeed4U/site_header.html HTTP/1.1" 200 1866
127.0.0.1 - - [24/Apr/2016:22:43:56 -0500] "GET /GameSpeed4U/site_footer.html HTTP/1.1" 200 205
0:0:0:0:0:0:0:1 - - [24/Apr/2016:22:43:56 -0500] "GET /GameSpeed4U/Registration HTTP/1.1" 200 3232
0:0:0:0:0:0:0:1 - - [24/Apr/2016:22:43:56 -0500] "GET /GameSpeed4U/autocomplete.js HTTP/1.1" 404 1005
0:0:0:0:0:0:0:1 - - [24/Apr/2016:22:44:07 -0500] "POST /GameSpeed4U/Registration HTTP/1.1" 302 -
127.0.0.1 - - [24/Apr/2016:22:44:07 -0500] "GET /GameSpeed4U/site_header.html HTTP/1.1" 200 1866
127.0.0.1 - - [24/Apr/2016:22:44:07 -0500] "GET /GameSpeed4U/site_footer.html HTTP/1.1" 200 205
0:0:0:0:0:0:0:1 - - [24/Apr/2016:22:44:07 -0500] "GET /GameSpeed4U/Login HTTP/1.1" 200 3335
0:0:0:0:0:0:0:1 - - [24/Apr/2016:22:44:07 -0500] "GET /GameSpeed4U/autocomplete.js HTTP/1.1" 404 1005
127.0.0.1 - - [24/Apr/2016:22:44:10 -0500] "GET /GameSpeed4U/site_header.html HTTP/1.1" 200 1866
127.0.0.1 - - [24/Apr/2016:22:44:10 -0500] "GET /GameSpeed4U/site_footer.html HTTP/1.1" 200 205
0:0:0:0:0:0:0:1 - - [24/Apr/2016:22:44:10 -0500] "POST /GameSpeed4U/Login HTTP/1.1" 200 3334
0:0:0:0:0:0:0:1 - - [24/Apr/2016:22:44:10 -0500] "GET /GameSpeed4U/autocomplete.js HTTP/1.1" 404 1005
127.0.0.1 - - [24/Apr/2016:22:44:11 -0500] "GET /GameSpeed4U/site_header.html HTTP/1.1" 200 1866
127.0.0.1 - - [24/Apr/2016:22:44:11 -0500] "GET /GameSpeed4U/site_footer.html HTTP/1.1" 200 205
0:0:0:0:0:0:0:1 - - [24/Apr/2016:22:44:11 -0500] "POST /GameSpeed4U/Login HTTP/1.1" 200 3334
0:0:0:0:0:0:0:1 - - [24/Apr/2016:22:44:11 -0500] "GET /GameSpeed4U/autocomplete.js HTTP/1.1" 404 1005
127.0.0.1 - - [24/Apr/2016:22:44:11 -0500] "GET /GameSpeed4U/site_header.html HTTP/1.1" 200 1866
127.0.0.1 - - [24/Apr/2016:22:44:11 -0500] "GET /GameSpeed4U/site_footer.html HTTP/1.1" 200 205
0:0:0:0:0:0:0:1 - - [24/Apr/2016:22:44:11 -0500] "POST /GameSpeed4U/Login HTTP/1.1" 200 3334
0:0:0:0:0:0:0:1 - - [24/Apr/2016:22:44:11 -0500] "GET /GameSpeed4U/autocomplete.js HTTP/1.1" 404 1005
127.0.0.1 - - [24/Apr/2016:22:44:29 -0500] "GET /GameSpeed4U/site_header.html HTTP/1.1" 200 1866
127.0.0.1 - - [24/Apr/2016:22:44:29 -0500] "GET /GameSpeed4U/site_sidebar.html HTTP/1.1" 200 858
127.0.0.1 - - [24/Apr/2016:22:44:29 -0500] "GET /GameSpeed4U/site_home.html HTTP/1.1" 200 1644
127.0.0.1 - - [24/Apr/2016:22:44:29 -0500] "GET /GameSpeed4U/site_footer.html HTTP/1.1" 200 205
0:0:0:0:0:0:0:1 - - [24/Apr/2016:22:44:29 -0500] "GET /GameSpeed4U/Home HTTP/1.1" 200 4674
0:0:0:0:0:0:0:1 - - [24/Apr/2016:22:44:29 -0500] "GET /GameSpeed4U/autocomplete.js HTTP/1.1" 404 1005
127.0.0.1 - - [24/Apr/2016:22:44:33 -0500] "GET /GameSpeed4U/site_header.html HTTP/1.1" 200 1866
127.0.0.1 - - [24/Apr/2016:22:44:33 -0500] "GET /GameSpeed4U/site_footer.html HTTP/1.1" 200 205
0:0:0:0:0:0:0:1 - - [24/Apr/2016:22:44:33 -0500] "GET /GameSpeed4U/Login HTTP/1.1" 200 3256
0:0:0:0:0:0:0:1 - - [24/Apr/2016:22:44:33 -0500] "GET /GameSpeed4U/autocomplete.js HTTP/1.1" 404 1005
127.0.0.1 - - [24/Apr/2016:22:44:34 -0500] "GET /GameSpeed4U/site_header.html HTTP/1.1" 200 1866
127.0.0.1 - - [24/Apr/2016:22:44:34 -0500] "GET /GameSpeed4U/site_footer.html HTTP/1.1" 200 205
0:0:0:0:0:0:0:1 - - [24/Apr/2016:22:44:34 -0500] "POST /GameSpeed4U/Login HTTP/1.1" 200 3334
0:0:0:0:0:0:0:1 - - [24/Apr/2016:22:44:34 -0500] "GET /GameSpeed4U/autocomplete.js HTTP/1.1" 404 1005
127.0.0.1 - - [24/Apr/2016:22:44:37 -0500] "GET /GameSpeed4U/site_header.html HTTP/1.1" 200 1866
127.0.0.1 - - [24/Apr/2016:22:44:37 -0500] "GET /GameSpeed4U/site_footer.html HTTP/1.1" 200 205
0:0:0:0:0:0:0:1 - - [24/Apr/2016:22:44:37 -0500] "GET /GameSpeed4U/Registration HTTP/1.1" 200 3232
0:0:0:0:0:0:0:1 - - [24/Apr/2016:22:44:37 -0500] "GET /GameSpeed4U/autocomplete.js HTTP/1.1" 404 1005
0:0:0:0:0:0:0:1 - - [24/Apr/2016:22:44:51 -0500] "POST /GameSpeed4U/Registration HTTP/1.1" 302 -
127.0.0.1 - - [24/Apr/2016:22:44:51 -0500] "GET /GameSpeed4U/site_header.html HTTP/1.1" 200 1866
127.0.0.1 - - [24/Apr/2016:22:44:51 -0500] "GET /GameSpeed4U/site_footer.html HTTP/1.1" 200 205
0:0:0:0:0:0:0:1 - - [24/Apr/2016:22:44:51 -0500] "GET /GameSpeed4U/Login HTTP/1.1" 200 3335
0:0:0:0:0:0:0:1 - - [24/Apr/2016:22:44:51 -0500] "GET /GameSpeed4U/autocomplete.js HTTP/1.1" 404 1005
0:0:0:0:0:0:0:1 - - [24/Apr/2016:22:45:07 -0500] "POST /GameSpeed4U/Login HTTP/1.1" 302 -
127.0.0.1 - - [24/Apr/2016:22:45:07 -0500] "GET /GameSpeed4U/site_header.html HTTP/1.1" 200 1866
127.0.0.1 - - [24/Apr/2016:22:45:07 -0500] "GET /GameSpeed4U/site_sidebar.html HTTP/1.1" 200 858
127.0.0.1 - - [24/Apr/2016:22:45:07 -0500] "GET /GameSpeed4U/site_home.html HTTP/1.1" 200 1644
127.0.0.1 - - [24/Apr/2016:22:45:07 -0500] "GET /GameSpeed4U/site_footer.html HTTP/1.1" 200 205
0:0:0:0:0:0:0:1 - - [24/Apr/2016:22:45:07 -0500] "GET /GameSpeed4U/Home HTTP/1.1" 200 4748
0:0:0:0:0:0:0:1 - - [24/Apr/2016:22:45:07 -0500] "GET /GameSpeed4U/autocomplete.js HTTP/1.1" 404 1005
127.0.0.1 - - [24/Apr/2016:22:45:11 -0500] "GET /GameSpeed4U/site_header.html HTTP/1.1" 200 1866
127.0.0.1 - - [24/Apr/2016:22:45:11 -0500] "GET /GameSpeed4U/site_sidebar.html HTTP/1.1" 200 858
127.0.0.1 - - [24/Apr/2016:22:45:11 -0500] "GET /GameSpeed4U/site_footer.html HTTP/1.1" 200 205
0:0:0:0:0:0:0:1 - - [24/Apr/2016:22:45:11 -0500] "GET /GameSpeed4U/ConsoleList?maker=microsoft HTTP/1.1" 200 4621
0:0:0:0:0:0:0:1 - - [24/Apr/2016:22:45:11 -0500] "GET /GameSpeed4U/autocomplete.js HTTP/1.1" 404 1005
127.0.0.1 - - [24/Apr/2016:22:45:13 -0500] "GET /GameSpeed4U/site_header.html HTTP/1.1" 200 1866
127.0.0.1 - - [24/Apr/2016:22:45:13 -0500] "GET /GameSpeed4U/site_sidebar.html HTTP/1.1" 200 858
127.0.0.1 - - [24/Apr/2016:22:45:13 -0500] "GET /GameSpeed4U/site_footer.html HTTP/1.1" 200 205
0:0:0:0:0:0:0:1 - - [24/Apr/2016:22:45:13 -0500] "POST /GameSpeed4U/Cart HTTP/1.1" 200 3449
0:0:0:0:0:0:0:1 - - [24/Apr/2016:22:45:13 -0500] "GET /GameSpeed4U/autocomplete.js HTTP/1.1" 404 1005
127.0.0.1 - - [24/Apr/2016:22:45:20 -0500] "GET /GameSpeed4U/site_header.html HTTP/1.1" 200 1866
127.0.0.1 - - [24/Apr/2016:22:45:20 -0500] "GET /GameSpeed4U/site_sidebar.html HTTP/1.1" 200 858
127.0.0.1 - - [24/Apr/2016:22:45:20 -0500] "GET /GameSpeed4U/site_footer.html HTTP/1.1" 200 205
0:0:0:0:0:0:0:1 - - [24/Apr/2016:22:45:20 -0500] "GET /GameSpeed4U/ConsoleList?maker=microsoft HTTP/1.1" 200 4621
0:0:0:0:0:0:0:1 - - [24/Apr/2016:22:45:20 -0500] "GET /GameSpeed4U/autocomplete.js HTTP/1.1" 404 1005
127.0.0.1 - - [24/Apr/2016:22:45:21 -0500] "GET /GameSpeed4U/site_header.html HTTP/1.1" 200 1866
127.0.0.1 - - [24/Apr/2016:22:45:21 -0500] "GET /GameSpeed4U/site_sidebar.html HTTP/1.1" 200 858
127.0.0.1 - - [24/Apr/2016:22:45:21 -0500] "GET /GameSpeed4U/site_footer.html HTTP/1.1" 200 205
0:0:0:0:0:0:0:1 - - [24/Apr/2016:22:45:21 -0500] "POST /GameSpeed4U/Cart HTTP/1.1" 200 3499
0:0:0:0:0:0:0:1 - - [24/Apr/2016:22:45:21 -0500] "GET /GameSpeed4U/autocomplete.js HTTP/1.1" 404 1005
127.0.0.1 - - [24/Apr/2016:22:45:33 -0500] "GET /GameSpeed4U/site_header.html HTTP/1.1" 200 1866
127.0.0.1 - - [24/Apr/2016:22:45:33 -0500] "GET /GameSpeed4U/site_sidebar.html HTTP/1.1" 200 858
127.0.0.1 - - [24/Apr/2016:22:45:33 -0500] "GET /GameSpeed4U/site_footer.html HTTP/1.1" 200 205
0:0:0:0:0:0:0:1 - - [24/Apr/2016:22:45:33 -0500] "GET /GameSpeed4U/ConsoleList?maker=sony HTTP/1.1" 200 5861
0:0:0:0:0:0:0:1 - - [24/Apr/2016:22:45:33 -0500] "GET /GameSpeed4U/autocomplete.js HTTP/1.1" 404 1005
0:0:0:0:0:0:0:1 - - [24/Apr/2016:22:45:33 -0500] "GET /GameSpeed4U/images/consoles/ps4.jpg HTTP/1.1" 404 1021
0:0:0:0:0:0:0:1 - - [24/Apr/2016:22:45:33 -0500] "GET /GameSpeed4U/images/consoles/ps3.jpg HTTP/1.1" 404 1021
127.0.0.1 - - [24/Apr/2016:22:45:34 -0500] "GET /GameSpeed4U/site_header.html HTTP/1.1" 200 1866
127.0.0.1 - - [24/Apr/2016:22:45:34 -0500] "GET /GameSpeed4U/site_sidebar.html HTTP/1.1" 200 858
127.0.0.1 - - [24/Apr/2016:22:45:34 -0500] "GET /GameSpeed4U/site_footer.html HTTP/1.1" 200 205
0:0:0:0:0:0:0:1 - - [24/Apr/2016:22:45:34 -0500] "POST /GameSpeed4U/Cart HTTP/1.1" 200 3547
0:0:0:0:0:0:0:1 - - [24/Apr/2016:22:45:34 -0500] "GET /GameSpeed4U/autocomplete.js HTTP/1.1" 404 1005
