0:0:0:0:0:0:0:1 - - [01/Jun/2016:13:49:00 -0500] "GET /GameSpeed/Home.jsp HTTP/1.1" 302 -
0:0:0:0:0:0:0:1 - - [01/Jun/2016:13:49:00 -0500] "GET /GameSpeed/Login.jsp HTTP/1.1" 200 1206
0:0:0:0:0:0:0:1 - - [01/Jun/2016:13:49:06 -0500] "POST /GameSpeed/Login.jsp HTTP/1.1" 302 -
0:0:0:0:0:0:0:1 - - [01/Jun/2016:13:49:06 -0500] "GET /GameSpeed/Home.jsp HTTP/1.1" 200 4800
0:0:0:0:0:0:0:1 - - [01/Jun/2016:13:49:06 -0500] "GET /GameSpeed/autocomplete.js HTTP/1.1" 404 1001
0:0:0:0:0:0:0:1 - - [01/Jun/2016:13:49:06 -0500] "GET /GameSpeed/style.css HTTP/1.1" 200 8724
0:0:0:0:0:0:0:1 - - [01/Jun/2016:13:49:06 -0500] "GET /GameSpeed/images/site/GameON.jpg HTTP/1.1" 200 66002
0:0:0:0:0:0:0:1 - - [01/Jun/2016:13:49:06 -0500] "GET /GameSpeed/images/site/consoles.png HTTP/1.1" 200 19957
0:0:0:0:0:0:0:1 - - [01/Jun/2016:13:49:06 -0500] "GET /GameSpeed/images/consoles/xbox1.jpg HTTP/1.1" 200 16363
0:0:0:0:0:0:0:1 - - [01/Jun/2016:13:49:06 -0500] "GET /GameSpeed/images/consoles/PS4-console-bundle.jpg HTTP/1.1" 200 141387
0:0:0:0:0:0:0:1 - - [01/Jun/2016:13:49:06 -0500] "GET /GameSpeed/images/site/img03.jpg HTTP/1.1" 200 1942
0:0:0:0:0:0:0:1 - - [01/Jun/2016:13:49:06 -0500] "GET /GameSpeed/images/site/img06.jpg HTTP/1.1" 200 314
0:0:0:0:0:0:0:1 - - [01/Jun/2016:13:49:06 -0500] "GET /GameSpeed/images/site/img07.jpg HTTP/1.1" 200 387
0:0:0:0:0:0:0:1 - - [01/Jun/2016:13:49:06 -0500] "GET /GameSpeed/images/site/img04.jpg HTTP/1.1" 200 5590
0:0:0:0:0:0:0:1 - - [01/Jun/2016:13:49:06 -0500] "GET /GameSpeed/images/site/img02.jpg HTTP/1.1" 200 716
0:0:0:0:0:0:0:1 - - [01/Jun/2016:13:49:08 -0500] "GET /GameSpeed/ConsoleList.jsp HTTP/1.1" 200 8764
0:0:0:0:0:0:0:1 - - [01/Jun/2016:13:49:08 -0500] "GET /GameSpeed/autocomplete.js HTTP/1.1" 404 1001
0:0:0:0:0:0:0:1 - - [01/Jun/2016:13:49:08 -0500] "GET /GameSpeed/images/consoles/ps3.jpg HTTP/1.1" 200 4628
0:0:0:0:0:0:0:1 - - [01/Jun/2016:13:49:08 -0500] "GET /GameSpeed/images/consoles/wiiu.jpg HTTP/1.1" 200 4898
0:0:0:0:0:0:0:1 - - [01/Jun/2016:13:49:08 -0500] "GET /GameSpeed/images/consoles/wii.jpeg HTTP/1.1" 200 4567
0:0:0:0:0:0:0:1 - - [01/Jun/2016:13:49:08 -0500] "GET /GameSpeed/images/consoles/xbox360.jpg HTTP/1.1" 200 61584
0:0:0:0:0:0:0:1 - - [01/Jun/2016:13:49:10 -0500] "POST /GameSpeed/Cart.jsp HTTP/1.1" 200 4453
0:0:0:0:0:0:0:1 - - [01/Jun/2016:13:49:10 -0500] "GET /GameSpeed/autocomplete.js HTTP/1.1" 404 1001
0:0:0:0:0:0:0:1 - - [01/Jun/2016:13:49:14 -0500] "GET /GameSpeed/CheckOut.jsp?checkout=Check+Out&price=399.0%3C%2Finput HTTP/1.1" 200 828
0:0:0:0:0:0:0:1 - - [01/Jun/2016:13:49:27 -0500] "POST /GameSpeed/OrderComplete.jsp HTTP/1.1" 500 2663
0:0:0:0:0:0:0:1 - - [01/Jun/2016:13:51:06 -0500] "POST /GameSpeed/OrderComplete.jsp HTTP/1.1" 200 301
0:0:0:0:0:0:0:1 - - [01/Jun/2016:16:28:47 -0500] "GET /GameSpeed/CheckOut.jsp?checkout=Check+Out&price=399.0%3C%2Finput HTTP/1.1" 200 828
0:0:0:0:0:0:0:1 - - [01/Jun/2016:16:28:53 -0500] "POST /GameSpeed/OrderComplete.jsp HTTP/1.1" 500 2202
0:0:0:0:0:0:0:1 - - [01/Jun/2016:16:29:26 -0500] "GET /GameSpeed/Login.jsp HTTP/1.1" 200 1206
0:0:0:0:0:0:0:1 - - [01/Jun/2016:16:29:27 -0500] "POST /GameSpeed/Login.jsp HTTP/1.1" 302 -
0:0:0:0:0:0:0:1 - - [01/Jun/2016:16:29:27 -0500] "GET /GameSpeed/Home.jsp HTTP/1.1" 200 4800
0:0:0:0:0:0:0:1 - - [01/Jun/2016:16:29:27 -0500] "GET /GameSpeed/autocomplete.js HTTP/1.1" 404 1001
0:0:0:0:0:0:0:1 - - [01/Jun/2016:16:29:29 -0500] "GET /GameSpeed/ConsoleList.jsp HTTP/1.1" 200 8764
0:0:0:0:0:0:0:1 - - [01/Jun/2016:16:29:29 -0500] "GET /GameSpeed/autocomplete.js HTTP/1.1" 404 1001
0:0:0:0:0:0:0:1 - - [01/Jun/2016:16:29:30 -0500] "POST /GameSpeed/Cart.jsp HTTP/1.1" 200 4453
0:0:0:0:0:0:0:1 - - [01/Jun/2016:16:29:30 -0500] "GET /GameSpeed/autocomplete.js HTTP/1.1" 404 1001
0:0:0:0:0:0:0:1 - - [01/Jun/2016:16:29:31 -0500] "GET /GameSpeed/CheckOut.jsp?checkout=Check+Out&price=399.0%3C%2Finput HTTP/1.1" 200 828
0:0:0:0:0:0:0:1 - - [01/Jun/2016:16:29:39 -0500] "POST /GameSpeed/OrderComplete.jsp HTTP/1.1" 500 2324
0:0:0:0:0:0:0:1 - - [01/Jun/2016:16:30:56 -0500] "GET /GameSpeed/Login.jsp HTTP/1.1" 200 1206
0:0:0:0:0:0:0:1 - - [01/Jun/2016:16:30:57 -0500] "POST /GameSpeed/Login.jsp HTTP/1.1" 302 -
0:0:0:0:0:0:0:1 - - [01/Jun/2016:16:30:57 -0500] "GET /GameSpeed/Home.jsp HTTP/1.1" 200 4800
0:0:0:0:0:0:0:1 - - [01/Jun/2016:16:30:57 -0500] "GET /GameSpeed/autocomplete.js HTTP/1.1" 404 1001
0:0:0:0:0:0:0:1 - - [01/Jun/2016:16:30:59 -0500] "GET /GameSpeed/ConsoleList.jsp HTTP/1.1" 200 8764
0:0:0:0:0:0:0:1 - - [01/Jun/2016:16:30:59 -0500] "GET /GameSpeed/autocomplete.js HTTP/1.1" 404 1001
0:0:0:0:0:0:0:1 - - [01/Jun/2016:16:31:00 -0500] "POST /GameSpeed/Cart.jsp HTTP/1.1" 200 4453
0:0:0:0:0:0:0:1 - - [01/Jun/2016:16:31:00 -0500] "GET /GameSpeed/autocomplete.js HTTP/1.1" 404 1001
0:0:0:0:0:0:0:1 - - [01/Jun/2016:16:31:01 -0500] "GET /GameSpeed/CheckOut.jsp?checkout=Check+Out&price=399.0%3C%2Finput HTTP/1.1" 200 828
0:0:0:0:0:0:0:1 - - [01/Jun/2016:16:31:09 -0500] "POST /GameSpeed/OrderComplete.jsp HTTP/1.1" 500 2324
0:0:0:0:0:0:0:1 - - [01/Jun/2016:16:39:24 -0500] "GET /GameSpeed/CheckOut.jsp?checkout=Check+Out&price=399.0%3C%2Finput HTTP/1.1" 200 828
0:0:0:0:0:0:0:1 - - [01/Jun/2016:16:39:30 -0500] "POST /GameSpeed/OrderComplete.jsp HTTP/1.1" 200 301
0:0:0:0:0:0:0:1 - - [01/Jun/2016:16:45:13 -0500] "POST /GameSpeed/OrderComplete.jsp HTTP/1.1" 200 301
0:0:0:0:0:0:0:1 - - [01/Jun/2016:16:48:32 -0500] "POST /GameSpeed/OrderComplete.jsp HTTP/1.1" 200 301
0:0:0:0:0:0:0:1 - - [01/Jun/2016:16:50:38 -0500] "POST /GameSpeed/OrderComplete.jsp HTTP/1.1" 200 301
0:0:0:0:0:0:0:1 - - [01/Jun/2016:16:50:57 -0500] "GET /GameSpeed/CheckOut.jsp?checkout=Check+Out&price=399.0%3C%2Finput HTTP/1.1" 200 828
0:0:0:0:0:0:0:1 - - [01/Jun/2016:16:51:02 -0500] "POST /GameSpeed/OrderComplete.jsp HTTP/1.1" 200 301
0:0:0:0:0:0:0:1 - - [01/Jun/2016:16:52:54 -0500] "GET /GameSpeed/Login.jsp HTTP/1.1" 200 1206
0:0:0:0:0:0:0:1 - - [01/Jun/2016:16:52:55 -0500] "POST /GameSpeed/Login.jsp HTTP/1.1" 302 -
0:0:0:0:0:0:0:1 - - [01/Jun/2016:16:52:55 -0500] "GET /GameSpeed/Home.jsp HTTP/1.1" 200 4800
0:0:0:0:0:0:0:1 - - [01/Jun/2016:16:52:55 -0500] "GET /GameSpeed/autocomplete.js HTTP/1.1" 404 1001
0:0:0:0:0:0:0:1 - - [01/Jun/2016:16:52:57 -0500] "GET /GameSpeed/ConsoleList.jsp HTTP/1.1" 200 8764
0:0:0:0:0:0:0:1 - - [01/Jun/2016:16:52:57 -0500] "GET /GameSpeed/autocomplete.js HTTP/1.1" 404 1001
0:0:0:0:0:0:0:1 - - [01/Jun/2016:16:52:58 -0500] "POST /GameSpeed/Cart.jsp HTTP/1.1" 200 4461
0:0:0:0:0:0:0:1 - - [01/Jun/2016:16:52:58 -0500] "GET /GameSpeed/autocomplete.js HTTP/1.1" 404 1001
0:0:0:0:0:0:0:1 - - [01/Jun/2016:16:52:59 -0500] "GET /GameSpeed/CheckOut.jsp?checkout=Check+Out&price=299.0%3C%2Finput HTTP/1.1" 200 828
0:0:0:0:0:0:0:1 - - [01/Jun/2016:16:53:08 -0500] "POST /GameSpeed/OrderComplete.jsp HTTP/1.1" 200 495
0:0:0:0:0:0:0:1 - - [01/Jun/2016:16:53:40 -0500] "POST /GameSpeed/Warranty.jsp HTTP/1.1" 302 -
0:0:0:0:0:0:0:1 - - [01/Jun/2016:16:53:40 -0500] "GET /GameSpeed/Cart.jsp HTTP/1.1" 200 4085
0:0:0:0:0:0:0:1 - - [01/Jun/2016:16:53:40 -0500] "GET /GameSpeed/autocomplete.js HTTP/1.1" 404 1001
0:0:0:0:0:0:0:1 - - [01/Jun/2016:16:53:41 -0500] "GET /GameSpeed/CheckOut.jsp?checkout=Check+Out&price=339.0%3C%2Finput HTTP/1.1" 200 828
0:0:0:0:0:0:0:1 - - [01/Jun/2016:16:53:46 -0500] "POST /GameSpeed/Cart.jsp HTTP/1.1" 200 5002
0:0:0:0:0:0:0:1 - - [01/Jun/2016:16:53:46 -0500] "GET /GameSpeed/autocomplete.js HTTP/1.1" 404 1001
0:0:0:0:0:0:0:1 - - [01/Jun/2016:16:53:49 -0500] "POST /GameSpeed/DeleteItem.jsp HTTP/1.1" 200 638
0:0:0:0:0:0:0:1 - - [01/Jun/2016:16:53:50 -0500] "POST /GameSpeed/DeleteOrder.jsp HTTP/1.1" 302 -
0:0:0:0:0:0:0:1 - - [01/Jun/2016:16:53:50 -0500] "GET /GameSpeed/Cart.jsp HTTP/1.1" 200 4436
0:0:0:0:0:0:0:1 - - [01/Jun/2016:16:53:50 -0500] "GET /GameSpeed/autocomplete.js HTTP/1.1" 404 1001
0:0:0:0:0:0:0:1 - - [01/Jun/2016:16:53:52 -0500] "POST /GameSpeed/Warranty.jsp HTTP/1.1" 302 -
0:0:0:0:0:0:0:1 - - [01/Jun/2016:16:53:52 -0500] "GET /GameSpeed/Cart.jsp HTTP/1.1" 200 4068
0:0:0:0:0:0:0:1 - - [01/Jun/2016:16:53:52 -0500] "GET /GameSpeed/autocomplete.js HTTP/1.1" 404 1001
0:0:0:0:0:0:0:1 - - [01/Jun/2016:16:53:53 -0500] "GET /GameSpeed/CheckOut.jsp?checkout=Check+Out&price=344.0%3C%2Finput HTTP/1.1" 200 828
0:0:0:0:0:0:0:1 - - [01/Jun/2016:16:54:37 -0500] "GET /GameSpeed/CheckOut.jsp?checkout=Check+Out&price=344.0%3C%2Finput HTTP/1.1" 200 828
0:0:0:0:0:0:0:1 - - [01/Jun/2016:16:54:42 -0500] "POST /GameSpeed/OrderComplete.jsp HTTP/1.1" 200 301
0:0:0:0:0:0:0:1 - - [01/Jun/2016:16:54:50 -0500] "GET /GameSpeed/ConsoleList.jsp HTTP/1.1" 200 8764
0:0:0:0:0:0:0:1 - - [01/Jun/2016:16:54:50 -0500] "GET /GameSpeed/autocomplete.js HTTP/1.1" 404 1001
0:0:0:0:0:0:0:1 - - [01/Jun/2016:16:54:51 -0500] "POST /GameSpeed/Cart.jsp HTTP/1.1" 200 4461
0:0:0:0:0:0:0:1 - - [01/Jun/2016:16:54:51 -0500] "GET /GameSpeed/autocomplete.js HTTP/1.1" 404 1001
0:0:0:0:0:0:0:1 - - [01/Jun/2016:16:54:53 -0500] "GET /GameSpeed/CheckOut.jsp?checkout=Check+Out&price=299.0%3C%2Finput HTTP/1.1" 200 828
0:0:0:0:0:0:0:1 - - [01/Jun/2016:16:54:58 -0500] "POST /GameSpeed/OrderComplete.jsp HTTP/1.1" 200 494
0:0:0:0:0:0:0:1 - - [01/Jun/2016:16:58:38 -0500] "GET /GameSpeed/CheckOut.jsp?checkout=Check+Out&price=299.0%3C%2Finput HTTP/1.1" 200 828
0:0:0:0:0:0:0:1 - - [01/Jun/2016:16:58:43 -0500] "POST /GameSpeed/OrderComplete.jsp HTTP/1.1" 200 301
0:0:0:0:0:0:0:1 - - [01/Jun/2016:16:58:53 -0500] "GET /GameSpeed/Login.jsp HTTP/1.1" 200 1206
0:0:0:0:0:0:0:1 - - [01/Jun/2016:16:58:54 -0500] "POST /GameSpeed/Login.jsp HTTP/1.1" 302 -
0:0:0:0:0:0:0:1 - - [01/Jun/2016:16:58:54 -0500] "GET /GameSpeed/Home.jsp HTTP/1.1" 200 4800
0:0:0:0:0:0:0:1 - - [01/Jun/2016:16:58:54 -0500] "GET /GameSpeed/autocomplete.js HTTP/1.1" 404 1001
0:0:0:0:0:0:0:1 - - [01/Jun/2016:16:58:55 -0500] "GET /GameSpeed/ConsoleList.jsp HTTP/1.1" 200 8764
0:0:0:0:0:0:0:1 - - [01/Jun/2016:16:58:55 -0500] "GET /GameSpeed/autocomplete.js HTTP/1.1" 404 1001
0:0:0:0:0:0:0:1 - - [01/Jun/2016:16:58:57 -0500] "POST /GameSpeed/Cart.jsp HTTP/1.1" 200 4435
0:0:0:0:0:0:0:1 - - [01/Jun/2016:16:58:57 -0500] "GET /GameSpeed/autocomplete.js HTTP/1.1" 404 1001
0:0:0:0:0:0:0:1 - - [01/Jun/2016:16:58:58 -0500] "GET /GameSpeed/CheckOut.jsp?checkout=Check+Out&price=299.0%3C%2Finput HTTP/1.1" 200 828
0:0:0:0:0:0:0:1 - - [01/Jun/2016:16:59:06 -0500] "POST /GameSpeed/OrderComplete.jsp HTTP/1.1" 200 491
0:0:0:0:0:0:0:1 - - [01/Jun/2016:17:08:12 -0500] "GET /GameSpeed/Login.jsp HTTP/1.1" 200 1206
0:0:0:0:0:0:0:1 - - [01/Jun/2016:17:08:13 -0500] "POST /GameSpeed/Login.jsp HTTP/1.1" 302 -
0:0:0:0:0:0:0:1 - - [01/Jun/2016:17:08:13 -0500] "GET /GameSpeed/Home.jsp HTTP/1.1" 200 4800
0:0:0:0:0:0:0:1 - - [01/Jun/2016:17:08:13 -0500] "GET /GameSpeed/autocomplete.js HTTP/1.1" 404 1001
0:0:0:0:0:0:0:1 - - [01/Jun/2016:17:08:14 -0500] "GET /GameSpeed/ConsoleList.jsp HTTP/1.1" 200 8764
0:0:0:0:0:0:0:1 - - [01/Jun/2016:17:08:14 -0500] "GET /GameSpeed/autocomplete.js HTTP/1.1" 404 1001
0:0:0:0:0:0:0:1 - - [01/Jun/2016:17:08:16 -0500] "POST /GameSpeed/Cart.jsp HTTP/1.1" 200 4461
0:0:0:0:0:0:0:1 - - [01/Jun/2016:17:08:16 -0500] "GET /GameSpeed/autocomplete.js HTTP/1.1" 404 1001
0:0:0:0:0:0:0:1 - - [01/Jun/2016:17:08:18 -0500] "POST /GameSpeed/Warranty.jsp HTTP/1.1" 302 -
0:0:0:0:0:0:0:1 - - [01/Jun/2016:17:08:18 -0500] "GET /GameSpeed/Cart.jsp HTTP/1.1" 200 4085
0:0:0:0:0:0:0:1 - - [01/Jun/2016:17:08:18 -0500] "GET /GameSpeed/autocomplete.js HTTP/1.1" 404 1001
0:0:0:0:0:0:0:1 - - [01/Jun/2016:17:08:19 -0500] "GET /GameSpeed/CheckOut.jsp?checkout=Check+Out&price=339.0%3C%2Finput HTTP/1.1" 200 828
0:0:0:0:0:0:0:1 - - [01/Jun/2016:17:08:27 -0500] "POST /GameSpeed/OrderComplete.jsp HTTP/1.1" 200 495
0:0:0:0:0:0:0:1 - - [01/Jun/2016:17:35:49 -0500] "GET /GameSpeed/Account.jsp HTTP/1.1" 500 2608
0:0:0:0:0:0:0:1 - - [01/Jun/2016:17:36:17 -0500] "GET /GameSpeed/Account.jsp HTTP/1.1" 200 3133
0:0:0:0:0:0:0:1 - - [01/Jun/2016:17:36:17 -0500] "GET /GameSpeed/autocomplete.js HTTP/1.1" 404 1001
0:0:0:0:0:0:0:1 - - [01/Jun/2016:17:36:20 -0500] "GET /GameSpeed/Account.jsp HTTP/1.1" 200 3133
0:0:0:0:0:0:0:1 - - [01/Jun/2016:17:36:20 -0500] "GET /GameSpeed/autocomplete.js HTTP/1.1" 404 1001
0:0:0:0:0:0:0:1 - - [01/Jun/2016:17:36:22 -0500] "GET /GameSpeed/Login.jsp HTTP/1.1" 200 1206
0:0:0:0:0:0:0:1 - - [01/Jun/2016:17:36:22 -0500] "POST /GameSpeed/Login.jsp HTTP/1.1" 302 -
0:0:0:0:0:0:0:1 - - [01/Jun/2016:17:36:22 -0500] "GET /GameSpeed/Home.jsp HTTP/1.1" 200 4800
0:0:0:0:0:0:0:1 - - [01/Jun/2016:17:36:22 -0500] "GET /GameSpeed/autocomplete.js HTTP/1.1" 404 1001
0:0:0:0:0:0:0:1 - - [01/Jun/2016:17:36:23 -0500] "GET /GameSpeed/Account.jsp HTTP/1.1" 200 3133
0:0:0:0:0:0:0:1 - - [01/Jun/2016:17:36:23 -0500] "GET /GameSpeed/autocomplete.js HTTP/1.1" 404 1001
0:0:0:0:0:0:0:1 - - [01/Jun/2016:17:47:52 -0500] "GET /GameSpeed/Login.jsp HTTP/1.1" 200 1206
0:0:0:0:0:0:0:1 - - [01/Jun/2016:17:47:52 -0500] "POST /GameSpeed/Login.jsp HTTP/1.1" 302 -
0:0:0:0:0:0:0:1 - - [01/Jun/2016:17:47:52 -0500] "GET /GameSpeed/Home.jsp HTTP/1.1" 200 4800
0:0:0:0:0:0:0:1 - - [01/Jun/2016:17:47:52 -0500] "GET /GameSpeed/autocomplete.js HTTP/1.1" 404 1001
0:0:0:0:0:0:0:1 - - [01/Jun/2016:17:47:55 -0500] "GET /GameSpeed/Account.jsp HTTP/1.1" 200 575
0:0:0:0:0:0:0:1 - - [01/Jun/2016:17:47:55 -0500] "GET /GameSpeed/styles/main.css HTTP/1.1" 404 1001
0:0:0:0:0:0:0:1 - - [01/Jun/2016:17:49:24 -0500] "GET /GameSpeed/Account.jsp HTTP/1.1" 200 575
0:0:0:0:0:0:0:1 - - [01/Jun/2016:17:49:24 -0500] "GET /GameSpeed/styles/main.css HTTP/1.1" 404 1001
0:0:0:0:0:0:0:1 - - [01/Jun/2016:17:49:24 -0500] "GET /favicon.ico HTTP/1.1" 200 21630
0:0:0:0:0:0:0:1 - - [01/Jun/2016:17:49:29 -0500] "GET /GameSpeed/Account.jsp HTTP/1.1" 200 575
0:0:0:0:0:0:0:1 - - [01/Jun/2016:17:49:29 -0500] "GET /GameSpeed/styles/main.css HTTP/1.1" 404 1001
0:0:0:0:0:0:0:1 - - [01/Jun/2016:17:49:32 -0500] "GET /GameSpeed/Account.jsp HTTP/1.1" 200 575
0:0:0:0:0:0:0:1 - - [01/Jun/2016:17:49:32 -0500] "GET /GameSpeed/styles/main.css HTTP/1.1" 404 1001
0:0:0:0:0:0:0:1 - - [01/Jun/2016:17:49:32 -0500] "GET /favicon.ico HTTP/1.1" 200 21630
0:0:0:0:0:0:0:1 - - [01/Jun/2016:17:49:33 -0500] "GET /GameSpeed/Account.jsp HTTP/1.1" 200 575
0:0:0:0:0:0:0:1 - - [01/Jun/2016:17:49:33 -0500] "GET /GameSpeed/styles/main.css HTTP/1.1" 404 1001
0:0:0:0:0:0:0:1 - - [01/Jun/2016:17:49:33 -0500] "GET /favicon.ico HTTP/1.1" 200 21630
0:0:0:0:0:0:0:1 - - [01/Jun/2016:17:49:33 -0500] "GET /GameSpeed/Account.jsp HTTP/1.1" 200 575
0:0:0:0:0:0:0:1 - - [01/Jun/2016:17:49:33 -0500] "GET /GameSpeed/styles/main.css HTTP/1.1" 404 1001
0:0:0:0:0:0:0:1 - - [01/Jun/2016:17:49:33 -0500] "GET /favicon.ico HTTP/1.1" 200 21630
0:0:0:0:0:0:0:1 - - [01/Jun/2016:17:49:33 -0500] "GET /GameSpeed/Account.jsp HTTP/1.1" 200 549
0:0:0:0:0:0:0:1 - - [01/Jun/2016:17:49:33 -0500] "GET /GameSpeed/styles/main.css HTTP/1.1" 404 1001
0:0:0:0:0:0:0:1 - - [01/Jun/2016:17:49:33 -0500] "GET /favicon.ico HTTP/1.1" 200 21630
0:0:0:0:0:0:0:1 - - [01/Jun/2016:17:49:34 -0500] "GET /GameSpeed/Account.jsp HTTP/1.1" 200 549
0:0:0:0:0:0:0:1 - - [01/Jun/2016:17:49:34 -0500] "GET /GameSpeed/styles/main.css HTTP/1.1" 404 1001
0:0:0:0:0:0:0:1 - - [01/Jun/2016:17:49:34 -0500] "GET /favicon.ico HTTP/1.1" 200 21630
0:0:0:0:0:0:0:1 - - [01/Jun/2016:18:58:37 -0500] "GET /GameSpeed/Logout.jsp HTTP/1.1" 302 -
0:0:0:0:0:0:0:1 - - [01/Jun/2016:18:58:37 -0500] "GET /GameSpeed/Login.jsp HTTP/1.1" 200 1206
0:0:0:0:0:0:0:1 - - [01/Jun/2016:18:58:38 -0500] "POST /GameSpeed/Login.jsp HTTP/1.1" 302 -
0:0:0:0:0:0:0:1 - - [01/Jun/2016:18:58:38 -0500] "GET /GameSpeed/Home.jsp HTTP/1.1" 200 4800
0:0:0:0:0:0:0:1 - - [01/Jun/2016:18:58:38 -0500] "GET /GameSpeed/autocomplete.js HTTP/1.1" 404 1001
0:0:0:0:0:0:0:1 - - [01/Jun/2016:18:58:40 -0500] "GET /GameSpeed/GameList.jsp HTTP/1.1" 500 4803
0:0:0:0:0:0:0:1 - - [01/Jun/2016:18:58:42 -0500] "GET /GameSpeed/ConsoleList.jsp HTTP/1.1" 200 8764
0:0:0:0:0:0:0:1 - - [01/Jun/2016:18:58:42 -0500] "GET /GameSpeed/autocomplete.js HTTP/1.1" 404 1001
0:0:0:0:0:0:0:1 - - [01/Jun/2016:18:58:44 -0500] "POST /GameSpeed/Cart.jsp HTTP/1.1" 200 4461
0:0:0:0:0:0:0:1 - - [01/Jun/2016:18:58:44 -0500] "GET /GameSpeed/autocomplete.js HTTP/1.1" 404 1001
0:0:0:0:0:0:0:1 - - [01/Jun/2016:18:58:45 -0500] "GET /GameSpeed/CheckOut.jsp?checkout=Check+Out&price=299.0%3C%2Finput HTTP/1.1" 200 828
0:0:0:0:0:0:0:1 - - [01/Jun/2016:18:58:57 -0500] "POST /GameSpeed/OrderComplete.jsp HTTP/1.1" 200 495
0:0:0:0:0:0:0:1 - - [01/Jun/2016:18:59:04 -0500] "GET /GameSpeed/Account.jsp HTTP/1.1" 500 3349
0:0:0:0:0:0:0:1 - - [01/Jun/2016:19:00:28 -0500] "GET /GameSpeed/Home.jsp HTTP/1.1" 200 4800
0:0:0:0:0:0:0:1 - - [01/Jun/2016:19:00:28 -0500] "GET /GameSpeed/autocomplete.js HTTP/1.1" 404 1001
0:0:0:0:0:0:0:1 - - [01/Jun/2016:19:00:29 -0500] "GET /GameSpeed/Account.jsp HTTP/1.1" 500 4481
0:0:0:0:0:0:0:1 - - [01/Jun/2016:19:02:31 -0500] "GET /GameSpeed/Account.jsp HTTP/1.1" 500 3579
0:0:0:0:0:0:0:1 - - [01/Jun/2016:19:02:48 -0500] "GET /GameSpeed/Account.jsp HTTP/1.1" 500 2525
0:0:0:0:0:0:0:1 - - [01/Jun/2016:19:03:22 -0500] "GET /GameSpeed/Account.jsp HTTP/1.1" 200 3133
0:0:0:0:0:0:0:1 - - [01/Jun/2016:19:03:22 -0500] "GET /GameSpeed/autocomplete.js HTTP/1.1" 404 1001
0:0:0:0:0:0:0:1 - - [01/Jun/2016:19:03:25 -0500] "GET /GameSpeed/Account.jsp HTTP/1.1" 200 3133
0:0:0:0:0:0:0:1 - - [01/Jun/2016:19:03:25 -0500] "GET /GameSpeed/autocomplete.js HTTP/1.1" 404 1001
0:0:0:0:0:0:0:1 - - [01/Jun/2016:19:04:52 -0500] "GET /GameSpeed/Home.jsp HTTP/1.1" 200 4800
0:0:0:0:0:0:0:1 - - [01/Jun/2016:19:04:52 -0500] "GET /GameSpeed/autocomplete.js HTTP/1.1" 404 1001
0:0:0:0:0:0:0:1 - - [01/Jun/2016:19:04:55 -0500] "GET /GameSpeed/GameList.jsp HTTP/1.1" 500 4803
0:0:0:0:0:0:0:1 - - [01/Jun/2016:19:04:57 -0500] "GET /GameSpeed/Account.jsp HTTP/1.1" 500 2604
0:0:0:0:0:0:0:1 - - [01/Jun/2016:19:05:15 -0500] "GET /GameSpeed/Account.jsp HTTP/1.1" 500 2604
0:0:0:0:0:0:0:1 - - [01/Jun/2016:19:07:07 -0500] "GET /GameSpeed/Account.jsp HTTP/1.1" 500 2573
0:0:0:0:0:0:0:1 - - [01/Jun/2016:19:14:41 -0500] "GET /GameSpeed/Home.jsp HTTP/1.1" 200 4800
0:0:0:0:0:0:0:1 - - [01/Jun/2016:19:14:41 -0500] "GET /GameSpeed/autocomplete.js HTTP/1.1" 404 1001
0:0:0:0:0:0:0:1 - - [01/Jun/2016:19:14:42 -0500] "GET /GameSpeed/Home.jsp HTTP/1.1" 200 4800
0:0:0:0:0:0:0:1 - - [01/Jun/2016:19:14:42 -0500] "GET /GameSpeed/autocomplete.js HTTP/1.1" 404 1001
0:0:0:0:0:0:0:1 - - [01/Jun/2016:19:14:43 -0500] "GET /GameSpeed/Account.jsp HTTP/1.1" 500 2587
0:0:0:0:0:0:0:1 - - [01/Jun/2016:19:15:06 -0500] "GET /GameSpeed/Logout.jsp HTTP/1.1" 302 -
0:0:0:0:0:0:0:1 - - [01/Jun/2016:19:15:06 -0500] "GET /GameSpeed/Login.jsp HTTP/1.1" 200 1206
0:0:0:0:0:0:0:1 - - [01/Jun/2016:19:15:08 -0500] "POST /GameSpeed/Login.jsp HTTP/1.1" 302 -
0:0:0:0:0:0:0:1 - - [01/Jun/2016:19:15:08 -0500] "GET /GameSpeed/Home.jsp HTTP/1.1" 200 4800
0:0:0:0:0:0:0:1 - - [01/Jun/2016:19:15:08 -0500] "GET /GameSpeed/autocomplete.js HTTP/1.1" 404 1001
0:0:0:0:0:0:0:1 - - [01/Jun/2016:19:15:09 -0500] "GET /GameSpeed/ConsoleList.jsp HTTP/1.1" 200 8764
0:0:0:0:0:0:0:1 - - [01/Jun/2016:19:15:10 -0500] "GET /GameSpeed/autocomplete.js HTTP/1.1" 404 1001
0:0:0:0:0:0:0:1 - - [01/Jun/2016:19:15:11 -0500] "POST /GameSpeed/Cart.jsp HTTP/1.1" 200 4435
0:0:0:0:0:0:0:1 - - [01/Jun/2016:19:15:11 -0500] "GET /GameSpeed/autocomplete.js HTTP/1.1" 404 1001
0:0:0:0:0:0:0:1 - - [01/Jun/2016:19:15:13 -0500] "GET /GameSpeed/CheckOut.jsp?checkout=Check+Out&price=299.0%3C%2Finput HTTP/1.1" 200 828
0:0:0:0:0:0:0:1 - - [01/Jun/2016:19:15:24 -0500] "POST /GameSpeed/OrderComplete.jsp HTTP/1.1" 200 491
0:0:0:0:0:0:0:1 - - [01/Jun/2016:19:15:33 -0500] "GET /GameSpeed/Acount.jsp HTTP/1.1" 404 991
0:0:0:0:0:0:0:1 - - [01/Jun/2016:19:15:39 -0500] "GET /GameSpeed/Home.jsp HTTP/1.1" 200 4800
0:0:0:0:0:0:0:1 - - [01/Jun/2016:19:15:39 -0500] "GET /GameSpeed/autocomplete.js HTTP/1.1" 404 1001
0:0:0:0:0:0:0:1 - - [01/Jun/2016:19:15:41 -0500] "GET /GameSpeed/Account.jsp HTTP/1.1" 500 2587
0:0:0:0:0:0:0:1 - - [01/Jun/2016:19:26:13 -0500] "GET /GameSpeed/ConsoleList.jsp HTTP/1.1" 200 8764
0:0:0:0:0:0:0:1 - - [01/Jun/2016:19:26:13 -0500] "GET /GameSpeed/autocomplete.js HTTP/1.1" 404 1001
0:0:0:0:0:0:0:1 - - [01/Jun/2016:19:26:15 -0500] "GET /GameSpeed/Account.jsp HTTP/1.1" 500 49193
0:0:0:0:0:0:0:1 - - [01/Jun/2016:19:27:41 -0500] "GET /GameSpeed/Account.jsp HTTP/1.1" 500 4826
0:0:0:0:0:0:0:1 - - [01/Jun/2016:19:27:44 -0500] "GET /GameSpeed/Account.jsp HTTP/1.1" 500 2621
0:0:0:0:0:0:0:1 - - [01/Jun/2016:20:03:45 -0500] "GET /GameSpeed/Account.jsp HTTP/1.1" 500 4826
0:0:0:0:0:0:0:1 - - [01/Jun/2016:20:05:02 -0500] "GET /GameSpeed/Home.jsp HTTP/1.1" 302 -
0:0:0:0:0:0:0:1 - - [01/Jun/2016:20:05:02 -0500] "GET /GameSpeed/Login.jsp HTTP/1.1" 200 1206
0:0:0:0:0:0:0:1 - - [01/Jun/2016:20:05:03 -0500] "POST /GameSpeed/Login.jsp HTTP/1.1" 302 -
0:0:0:0:0:0:0:1 - - [01/Jun/2016:20:05:03 -0500] "GET /GameSpeed/Home.jsp HTTP/1.1" 200 4800
0:0:0:0:0:0:0:1 - - [01/Jun/2016:20:05:03 -0500] "GET /GameSpeed/autocomplete.js HTTP/1.1" 404 1001
0:0:0:0:0:0:0:1 - - [01/Jun/2016:20:05:04 -0500] "GET /GameSpeed/Account.jsp HTTP/1.1" 500 4386
0:0:0:0:0:0:0:1 - - [01/Jun/2016:20:05:43 -0500] "GET /GameSpeed/Account.jsp HTTP/1.1" 500 2378
0:0:0:0:0:0:0:1 - - [01/Jun/2016:20:06:07 -0500] "GET /GameSpeed/Account.jsp HTTP/1.1" 500 2862
0:0:0:0:0:0:0:1 - - [01/Jun/2016:20:06:56 -0500] "GET /GameSpeed/Account.jsp HTTP/1.1" 500 2862
0:0:0:0:0:0:0:1 - - [01/Jun/2016:20:07:03 -0500] "GET /GameSpeed/Home.jsp HTTP/1.1" 200 4800
0:0:0:0:0:0:0:1 - - [01/Jun/2016:20:07:03 -0500] "GET /GameSpeed/autocomplete.js HTTP/1.1" 404 1001
0:0:0:0:0:0:0:1 - - [01/Jun/2016:20:07:05 -0500] "GET /GameSpeed/Account.jsp HTTP/1.1" 500 2862
0:0:0:0:0:0:0:1 - - [01/Jun/2016:20:08:23 -0500] "GET /GameSpeed/Account.jsp HTTP/1.1" 500 2924
0:0:0:0:0:0:0:1 - - [01/Jun/2016:20:09:01 -0500] "GET /GameSpeed/Account.jsp HTTP/1.1" 500 2496
0:0:0:0:0:0:0:1 - - [01/Jun/2016:20:09:01 -0500] "GET /favicon.ico HTTP/1.1" 200 21630
0:0:0:0:0:0:0:1 - - [01/Jun/2016:20:09:45 -0500] "GET /GameSpeed/Account.jsp HTTP/1.1" 500 2975
0:0:0:0:0:0:0:1 - - [01/Jun/2016:20:09:51 -0500] "GET /GameSpeed/Home.jsp HTTP/1.1" 200 4800
0:0:0:0:0:0:0:1 - - [01/Jun/2016:20:09:51 -0500] "GET /GameSpeed/autocomplete.js HTTP/1.1" 404 1001
0:0:0:0:0:0:0:1 - - [01/Jun/2016:20:09:52 -0500] "GET /GameSpeed/ConsoleList.jsp HTTP/1.1" 200 8764
0:0:0:0:0:0:0:1 - - [01/Jun/2016:20:09:52 -0500] "GET /GameSpeed/autocomplete.js HTTP/1.1" 404 1001
0:0:0:0:0:0:0:1 - - [01/Jun/2016:20:09:54 -0500] "GET /GameSpeed/Account.jsp HTTP/1.1" 500 2975
0:0:0:0:0:0:0:1 - - [01/Jun/2016:20:10:14 -0500] "GET /GameSpeed/Account.jsp HTTP/1.1" 500 2496
0:0:0:0:0:0:0:1 - - [01/Jun/2016:20:12:42 -0500] "GET /GameSpeed/Account.jsp HTTP/1.1" 200 39
0:0:0:0:0:0:0:1 - - [01/Jun/2016:20:13:34 -0500] "GET /GameSpeed/ConsoleList.jsp HTTP/1.1" 200 8764
0:0:0:0:0:0:0:1 - - [01/Jun/2016:20:13:34 -0500] "GET /GameSpeed/autocomplete.js HTTP/1.1" 404 1001
0:0:0:0:0:0:0:1 - - [01/Jun/2016:20:13:36 -0500] "GET /GameSpeed/Account.jsp HTTP/1.1" 200 39
0:0:0:0:0:0:0:1 - - [01/Jun/2016:20:13:47 -0500] "GET /GameSpeed/Home.jsp HTTP/1.1" 200 4800
0:0:0:0:0:0:0:1 - - [01/Jun/2016:20:13:47 -0500] "GET /GameSpeed/autocomplete.js HTTP/1.1" 404 1001
0:0:0:0:0:0:0:1 - - [01/Jun/2016:20:13:48 -0500] "GET /GameSpeed/Account.jsp HTTP/1.1" 200 39
0:0:0:0:0:0:0:1 - - [01/Jun/2016:20:16:40 -0500] "GET /GameSpeed/Home.jsp HTTP/1.1" 200 4800
0:0:0:0:0:0:0:1 - - [01/Jun/2016:20:16:40 -0500] "GET /GameSpeed/autocomplete.js HTTP/1.1" 404 1001
0:0:0:0:0:0:0:1 - - [01/Jun/2016:20:16:41 -0500] "GET /GameSpeed/Account.jsp HTTP/1.1" 200 39
0:0:0:0:0:0:0:1 - - [01/Jun/2016:20:17:42 -0500] "GET /GameSpeed/Home.jsp HTTP/1.1" 200 4800
0:0:0:0:0:0:0:1 - - [01/Jun/2016:20:17:42 -0500] "GET /GameSpeed/autocomplete.js HTTP/1.1" 404 1001
0:0:0:0:0:0:0:1 - - [01/Jun/2016:20:17:43 -0500] "GET /GameSpeed/Account.jsp HTTP/1.1" 200 39
0:0:0:0:0:0:0:1 - - [01/Jun/2016:20:17:57 -0500] "GET /GameSpeed/ConsoleList.jsp HTTP/1.1" 200 8764
0:0:0:0:0:0:0:1 - - [01/Jun/2016:20:17:57 -0500] "GET /GameSpeed/autocomplete.js HTTP/1.1" 404 1001
0:0:0:0:0:0:0:1 - - [01/Jun/2016:20:18:00 -0500] "POST /GameSpeed/Cart.jsp HTTP/1.1" 200 5371
0:0:0:0:0:0:0:1 - - [01/Jun/2016:20:18:00 -0500] "GET /GameSpeed/autocomplete.js HTTP/1.1" 404 1001
0:0:0:0:0:0:0:1 - - [01/Jun/2016:20:18:05 -0500] "GET /GameSpeed/CheckOut.jsp?checkout=Check+Out&price=698.0%3C%2Finput HTTP/1.1" 200 828
0:0:0:0:0:0:0:1 - - [01/Jun/2016:20:18:12 -0500] "POST /GameSpeed/OrderComplete.jsp HTTP/1.1" 200 681
0:0:0:0:0:0:0:1 - - [01/Jun/2016:20:18:25 -0500] "GET /GameSpeed/Account.jsp HTTP/1.1" 200 39
0:0:0:0:0:0:0:1 - - [01/Jun/2016:20:18:55 -0500] "GET /GameSpeed/Account.jsp HTTP/1.1" 200 39
0:0:0:0:0:0:0:1 - - [01/Jun/2016:20:19:12 -0500] "GET /GameSpeed/Account.jsp HTTP/1.1" 200 39
0:0:0:0:0:0:0:1 - - [01/Jun/2016:20:21:49 -0500] "GET /GameSpeed/Account.jsp HTTP/1.1" 200 39
0:0:0:0:0:0:0:1 - - [01/Jun/2016:20:22:14 -0500] "GET /GameSpeed/Account.jsp HTTP/1.1" 500 2496
0:0:0:0:0:0:0:1 - - [01/Jun/2016:20:22:43 -0500] "GET /GameSpeed/Account.jsp HTTP/1.1" 500 2924
0:0:0:0:0:0:0:1 - - [01/Jun/2016:20:22:43 -0500] "GET /favicon.ico HTTP/1.1" 200 21630
0:0:0:0:0:0:0:1 - - [01/Jun/2016:20:23:39 -0500] "GET /GameSpeed/Account.jsp HTTP/1.1" 500 2924
0:0:0:0:0:0:0:1 - - [01/Jun/2016:20:24:34 -0500] "GET /GameSpeed/Account.jsp HTTP/1.1" 500 2924
0:0:0:0:0:0:0:1 - - [01/Jun/2016:20:25:03 -0500] "GET /GameSpeed/Account.jsp HTTP/1.1" 200 5410
0:0:0:0:0:0:0:1 - - [01/Jun/2016:20:25:03 -0500] "GET /GameSpeed/autocomplete.js HTTP/1.1" 404 1001
0:0:0:0:0:0:0:1 - - [01/Jun/2016:20:29:39 -0500] "GET /GameSpeed/Home.jsp HTTP/1.1" 200 4800
0:0:0:0:0:0:0:1 - - [01/Jun/2016:20:29:39 -0500] "GET /GameSpeed/autocomplete.js HTTP/1.1" 404 1001
0:0:0:0:0:0:0:1 - - [01/Jun/2016:20:29:40 -0500] "GET /GameSpeed/Account.jsp HTTP/1.1" 200 5410
0:0:0:0:0:0:0:1 - - [01/Jun/2016:20:29:40 -0500] "GET /GameSpeed/autocomplete.js HTTP/1.1" 404 1001
0:0:0:0:0:0:0:1 - - [01/Jun/2016:20:29:45 -0500] "POST /GameSpeed/CancelOrder.jsp HTTP/1.1" 500 3095
0:0:0:0:0:0:0:1 - - [01/Jun/2016:20:30:19 -0500] "POST /GameSpeed/CancelOrder.jsp HTTP/1.1" 200 995
0:0:0:0:0:0:0:1 - - [01/Jun/2016:20:30:25 -0500] "GET /GameSpeed/ConsoleList.jsp?maker=microsoft HTTP/1.1" 200 5046
0:0:0:0:0:0:0:1 - - [01/Jun/2016:20:30:25 -0500] "GET /GameSpeed/autocomplete.js HTTP/1.1" 404 1001
0:0:0:0:0:0:0:1 - - [01/Jun/2016:20:30:26 -0500] "GET /GameSpeed/Account.jsp HTTP/1.1" 200 4973
0:0:0:0:0:0:0:1 - - [01/Jun/2016:20:30:26 -0500] "GET /GameSpeed/autocomplete.js HTTP/1.1" 404 1001
0:0:0:0:0:0:0:1 - - [01/Jun/2016:20:30:48 -0500] "POST /GameSpeed/CancelOrder.jsp HTTP/1.1" 200 995
0:0:0:0:0:0:0:1 - - [01/Jun/2016:20:30:53 -0500] "POST /GameSpeed/CancelOrder.jsp HTTP/1.1" 200 995
0:0:0:0:0:0:0:1 - - [01/Jun/2016:20:30:56 -0500] "POST /GameSpeed/CancelOrder.jsp HTTP/1.1" 200 995
0:0:0:0:0:0:0:1 - - [01/Jun/2016:20:30:58 -0500] "GET /GameSpeed/ConsoleList.jsp?maker=microsoft HTTP/1.1" 200 5046
0:0:0:0:0:0:0:1 - - [01/Jun/2016:20:30:58 -0500] "GET /GameSpeed/autocomplete.js HTTP/1.1" 404 1001
0:0:0:0:0:0:0:1 - - [01/Jun/2016:20:31:00 -0500] "GET /GameSpeed/Account.jsp HTTP/1.1" 200 4536
0:0:0:0:0:0:0:1 - - [01/Jun/2016:20:31:00 -0500] "GET /GameSpeed/autocomplete.js HTTP/1.1" 404 1001
